\relax 
\nicematrix@redefine@check@rerun 
\PgInfo{question@1}{1}
\PgInfo{question1@object1}{1}
\newlabel{question@1}{{\textbf  {Problem 1}}{1}{}{}{}}
\PgInfo{part@1@1}{1}
\PgInfo{question1@object2}{1}
\newlabel{part@1@1}{{a}{1}{}{}{}}
\newlabel{firstpoints@onpage@1}{{a}{1}{}{}{}}
\PgInfo{part@1@2}{1}
\PgInfo{question1@object3}{1}
\newlabel{part@1@2}{{b}{1}{}{}{}}
\PgInfo{question1@object4}{1}
\PgInfo{question1@object5}{1}
\PgInfo{question1@object6}{1}
\PgInfo{question1@object7}{1}
\PgInfo{question1@object8}{1}
\PgInfo{part@1@3}{1}
\PgInfo{question1@object9}{1}
\newlabel{part@1@3}{{c}{1}{}{}{}}
\PgInfo{question1@object10}{1}
\PgInfo{question1@object11}{1}
\PgInfo{question1@object12}{1}
\PgInfo{question1@object13}{1}
\PgInfo{part@1@4}{1}
\PgInfo{question1@object14}{1}
\newlabel{part@1@4}{{d}{1}{}{}{}}
\PgInfo{part@1@5}{1}
\PgInfo{question1@object15}{1}
\newlabel{part@1@5}{{e}{1}{}{}{}}
\PgInfo{question1@object16}{1}
\PgInfo{question1@object17}{1}
\PgInfo{question1@object18}{1}
\PgInfo{question1@object19}{1}
\PgInfo{question1@object20}{1}
\PgInfo{question1@object21}{1}
\gdef\pointsofq@i{28}
\gdef\bonuspointsofq@i{0}
\ExplSyntaxOn \cs_if_free:NT \pgfsyspdfmark {\cs_set_eq:NN \pgfsyspdfmark \@gobblethree }\ExplSyntaxOff 
\ExplSyntaxOn 
\char_set_catcode_space:n {32}
\tl_gset:cn {c__nicematrix_1_tl}{\seq_gset_from_clist:Nn \g__nicematrix_size_seq {1,6,6,1,7,7}}
\ExplSyntaxOff 
\ExplSyntaxOn 
\char_set_catcode_space:n {32}
\tl_gset:cn {c__nicematrix_2_tl}{\seq_gset_from_clist:Nn \g__nicematrix_size_seq {1,7,7,1,6,6}}
\ExplSyntaxOff 
\gdef\pointsonpage@i{28}
\ExplSyntaxOn 
\char_set_catcode_space:n {32}
\tl_gset:cn {c__nicematrix_3_tl}{\seq_gset_from_clist:Nn \g__nicematrix_size_seq {1,1,1,1,6,6}}
\ExplSyntaxOff 
\ExplSyntaxOn 
\char_set_catcode_space:n {32}
\tl_gset:cn {c__nicematrix_4_tl}{\seq_gset_from_clist:Nn \g__nicematrix_size_seq {1,1,1,1,6,6}}
\ExplSyntaxOff 
\ExplSyntaxOn 
\char_set_catcode_space:n {32}
\tl_gset:cn {c__nicematrix_5_tl}{\seq_gset_from_clist:Nn \g__nicematrix_size_seq {1,1,1,1,6,6}}
\ExplSyntaxOff 
\ExplSyntaxOn 
\char_set_catcode_space:n {32}
\tl_gset:cn {c__nicematrix_6_tl}{\seq_gset_from_clist:Nn \g__nicematrix_size_seq {1,1,1,1,6,6}}
\ExplSyntaxOff 
\PgInfo{question@2}{2}
\PgInfo{question2@object1}{2}
\newlabel{question@2}{{\textbf  {Problem 2}}{2}{}{}{}}
\pgfsyspdfmark {pgfid3}{16255721}{49363981}
\pgfsyspdfmark {pgfid4}{16583402}{48813481}
\pgfsyspdfmark {pgfid5}{16747242}{48813481}
\pgfsyspdfmark {pgfid6}{17730283}{48813481}
\pgfsyspdfmark {pgfid7}{18713324}{48813481}
\pgfsyspdfmark {pgfid8}{19696365}{48813481}
\pgfsyspdfmark {pgfid9}{20934269}{48813481}
\pgfsyspdfmark {pgfid10}{22172173}{48813481}
\pgfsyspdfmark {pgfid11}{23155214}{48813481}
\pgfsyspdfmark {pgfid12}{16255721}{48577549}
\pgfsyspdfmark {pgfid13}{16583402}{48027049}
\pgfsyspdfmark {pgfid14}{16747242}{48027049}
\pgfsyspdfmark {pgfid15}{17730283}{48027049}
\pgfsyspdfmark {pgfid16}{18713324}{48027049}
\pgfsyspdfmark {pgfid17}{19696365}{48027049}
\pgfsyspdfmark {pgfid18}{21189132}{48027049}
\pgfsyspdfmark {pgfid19}{22172173}{48027049}
\pgfsyspdfmark {pgfid20}{23155214}{48027049}
\pgfsyspdfmark {pgfid21}{16255721}{47791117}
\pgfsyspdfmark {pgfid22}{16583402}{47240617}
\pgfsyspdfmark {pgfid23}{16747242}{47240617}
\pgfsyspdfmark {pgfid24}{17730283}{47240617}
\pgfsyspdfmark {pgfid25}{18713324}{47240617}
\pgfsyspdfmark {pgfid26}{19696365}{47240617}
\pgfsyspdfmark {pgfid27}{20934269}{47240617}
\pgfsyspdfmark {pgfid28}{22172173}{47240617}
\pgfsyspdfmark {pgfid29}{23155214}{47240617}
\pgfsyspdfmark {pgfid30}{16255721}{47004685}
\pgfsyspdfmark {pgfid31}{16583402}{46454185}
\pgfsyspdfmark {pgfid32}{16747242}{46454185}
\pgfsyspdfmark {pgfid33}{17730283}{46454185}
\pgfsyspdfmark {pgfid34}{18713324}{46454185}
\pgfsyspdfmark {pgfid35}{19696365}{46454185}
\pgfsyspdfmark {pgfid36}{20934269}{46454185}
\pgfsyspdfmark {pgfid37}{22172173}{46454185}
\pgfsyspdfmark {pgfid38}{23155214}{46454185}
\pgfsyspdfmark {pgfid39}{16255721}{46218253}
\pgfsyspdfmark {pgfid40}{16583402}{45667753}
\pgfsyspdfmark {pgfid41}{16747242}{45667753}
\pgfsyspdfmark {pgfid42}{17730283}{45667753}
\pgfsyspdfmark {pgfid43}{18713324}{45667753}
\pgfsyspdfmark {pgfid44}{19696365}{45667753}
\pgfsyspdfmark {pgfid45}{21189132}{45667753}
\pgfsyspdfmark {pgfid46}{22172173}{45667753}
\pgfsyspdfmark {pgfid47}{23155214}{45667753}
\pgfsyspdfmark {pgfid48}{16255721}{45431821}
\pgfsyspdfmark {pgfid49}{16583402}{44881321}
\pgfsyspdfmark {pgfid50}{16747242}{44881321}
\pgfsyspdfmark {pgfid51}{17730283}{44881321}
\pgfsyspdfmark {pgfid52}{18713324}{44881321}
\pgfsyspdfmark {pgfid53}{19696365}{44881321}
\pgfsyspdfmark {pgfid54}{21189132}{44881321}
\pgfsyspdfmark {pgfid55}{22172173}{44881321}
\pgfsyspdfmark {pgfid56}{23155214}{44881321}
\pgfsyspdfmark {pgfid57}{16255721}{44645389}
\pgfsyspdfmark {pgfid58}{16255721}{44645389}
\pgfsyspdfmark {pgfid59}{17238762}{44645389}
\pgfsyspdfmark {pgfid60}{18221803}{44645389}
\pgfsyspdfmark {pgfid61}{19204844}{44645389}
\pgfsyspdfmark {pgfid62}{20187885}{44645389}
\pgfsyspdfmark {pgfid63}{21680652}{44645389}
\pgfsyspdfmark {pgfid64}{22663693}{44645389}
\pgfsyspdfmark {pgfid65}{23646734}{44645389}
\pgfsyspdfmark {pgfid66}{23755962}{46814631}
\pgfsyspdfmark {pgfid68}{23755962}{46814631}
\pgfsyspdfmark {pgfid69}{28618371}{49757197}
\pgfsyspdfmark {pgfid70}{28946052}{49206697}
\pgfsyspdfmark {pgfid71}{29109892}{49206697}
\pgfsyspdfmark {pgfid72}{30092933}{49206697}
\pgfsyspdfmark {pgfid73}{31075974}{49206697}
\pgfsyspdfmark {pgfid74}{32059015}{49206697}
\pgfsyspdfmark {pgfid75}{33042056}{49206697}
\pgfsyspdfmark {pgfid76}{34025097}{49206697}
\pgfsyspdfmark {pgfid77}{28618371}{48970765}
\pgfsyspdfmark {pgfid78}{28946052}{48420265}
\pgfsyspdfmark {pgfid79}{29109892}{48420265}
\pgfsyspdfmark {pgfid80}{30092933}{48420265}
\pgfsyspdfmark {pgfid81}{31075974}{48420265}
\pgfsyspdfmark {pgfid82}{32059015}{48420265}
\pgfsyspdfmark {pgfid83}{33042056}{48420265}
\pgfsyspdfmark {pgfid84}{34025097}{48420265}
\pgfsyspdfmark {pgfid85}{28618371}{48184333}
\pgfsyspdfmark {pgfid86}{28946052}{47633833}
\pgfsyspdfmark {pgfid87}{29109892}{47633833}
\pgfsyspdfmark {pgfid88}{30092933}{47633833}
\pgfsyspdfmark {pgfid89}{31075974}{47633833}
\pgfsyspdfmark {pgfid90}{32059015}{47633833}
\pgfsyspdfmark {pgfid91}{33042056}{47633833}
\pgfsyspdfmark {pgfid92}{34025097}{47633833}
\pgfsyspdfmark {pgfid93}{28618371}{47397901}
\pgfsyspdfmark {pgfid94}{28946052}{46847401}
\pgfsyspdfmark {pgfid95}{29109892}{46847401}
\pgfsyspdfmark {pgfid96}{30092933}{46847401}
\pgfsyspdfmark {pgfid97}{31075974}{46847401}
\pgfsyspdfmark {pgfid98}{32059015}{46847401}
\pgfsyspdfmark {pgfid99}{33042056}{46847401}
\pgfsyspdfmark {pgfid100}{34025097}{46847401}
\pgfsyspdfmark {pgfid101}{28618371}{46611469}
\pgfsyspdfmark {pgfid102}{28946052}{46060969}
\pgfsyspdfmark {pgfid103}{29109892}{46060969}
\pgfsyspdfmark {pgfid104}{30092933}{46060969}
\pgfsyspdfmark {pgfid105}{31075974}{46060969}
\pgfsyspdfmark {pgfid106}{32059015}{46060969}
\pgfsyspdfmark {pgfid107}{33042056}{46060969}
\pgfsyspdfmark {pgfid108}{34025097}{46060969}
\pgfsyspdfmark {pgfid109}{28618371}{45825037}
\pgfsyspdfmark {pgfid110}{28946052}{45274537}
\pgfsyspdfmark {pgfid111}{29109892}{45274537}
\pgfsyspdfmark {pgfid112}{30092933}{45274537}
\pgfsyspdfmark {pgfid113}{31075974}{45274537}
\pgfsyspdfmark {pgfid114}{32059015}{45274537}
\pgfsyspdfmark {pgfid115}{33042056}{45274537}
\pgfsyspdfmark {pgfid116}{34025097}{45274537}
\pgfsyspdfmark {pgfid117}{28618371}{45038605}
\pgfsyspdfmark {pgfid118}{28946052}{44488105}
\pgfsyspdfmark {pgfid119}{29109892}{44488105}
\pgfsyspdfmark {pgfid120}{30092933}{44488105}
\pgfsyspdfmark {pgfid121}{31075974}{44488105}
\pgfsyspdfmark {pgfid122}{32059015}{44488105}
\pgfsyspdfmark {pgfid123}{33042056}{44488105}
\pgfsyspdfmark {pgfid124}{34025097}{44488105}
\pgfsyspdfmark {pgfid125}{28618371}{44252173}
\pgfsyspdfmark {pgfid126}{28618371}{44252173}
\pgfsyspdfmark {pgfid127}{29601412}{44252173}
\pgfsyspdfmark {pgfid128}{30584453}{44252173}
\pgfsyspdfmark {pgfid129}{31567494}{44252173}
\pgfsyspdfmark {pgfid130}{32550535}{44252173}
\pgfsyspdfmark {pgfid131}{33533576}{44252173}
\pgfsyspdfmark {pgfid132}{34516617}{44252173}
\pgfsyspdfmark {pgfid133}{34625845}{46814631}
\pgfsyspdfmark {pgfid135}{34625845}{46814631}
\PgInfo{part@2@1}{2}
\PgInfo{question2@object2}{2}
\newlabel{part@2@1}{{a}{2}{}{}{}}
\newlabel{firstpoints@onpage@2}{{a}{2}{}{}{}}
\PgInfo{part@2@2}{2}
\PgInfo{question2@object3}{2}
\newlabel{part@2@2}{{b}{2}{}{}{}}
\PgInfo{question2@object4}{2}
\PgInfo{question2@object5}{2}
\PgInfo{question2@object6}{2}
\PgInfo{question2@object7}{2}
\PgInfo{question2@object8}{2}
\PgInfo{part@2@3}{2}
\PgInfo{question2@object9}{2}
\newlabel{part@2@3}{{c}{2}{}{}{}}
\PgInfo{question2@object10}{2}
\PgInfo{question2@object11}{2}
\PgInfo{question2@object12}{2}
\PgInfo{question2@object13}{2}
\PgInfo{part@2@4}{2}
\PgInfo{question2@object14}{2}
\newlabel{part@2@4}{{d}{2}{}{}{}}
\PgInfo{part@2@5}{2}
\PgInfo{question2@object15}{2}
\newlabel{part@2@5}{{e}{2}{}{}{}}
\pgfsyspdfmark {pgfid137}{8188579}{5581827}
\pgfsyspdfmark {pgfid138}{8516260}{5031327}
\pgfsyspdfmark {pgfid139}{8850539}{5031327}
\pgfsyspdfmark {pgfid140}{10174458}{5031327}
\pgfsyspdfmark {pgfid141}{11498377}{5031327}
\pgfsyspdfmark {pgfid142}{12822296}{5031327}
\pgfsyspdfmark {pgfid143}{14146215}{5031327}
\pgfsyspdfmark {pgfid144}{15470134}{5031327}
\pgfsyspdfmark {pgfid145}{8188579}{4795395}
\pgfsyspdfmark {pgfid146}{8188579}{4795395}
\pgfsyspdfmark {pgfid147}{9512498}{4795395}
\pgfsyspdfmark {pgfid148}{10836417}{4795395}
\pgfsyspdfmark {pgfid149}{12160336}{4795395}
\pgfsyspdfmark {pgfid150}{13484255}{4795395}
\pgfsyspdfmark {pgfid151}{14808174}{4795395}
\pgfsyspdfmark {pgfid152}{16132093}{4795395}
\pgfsyspdfmark {pgfid153}{16077481}{4998557}
\pgfsyspdfmark {pgfid155}{16077481}{4998557}
\pgfsyspdfmark {pgfid156}{17226176}{5581827}
\pgfsyspdfmark {pgfid157}{17553857}{5031327}
\pgfsyspdfmark {pgfid158}{18315979}{5031327}
\pgfsyspdfmark {pgfid159}{20022269}{5031327}
\pgfsyspdfmark {pgfid160}{21130277}{5031327}
\pgfsyspdfmark {pgfid161}{22113318}{5031327}
\pgfsyspdfmark {pgfid162}{23096359}{5031327}
\pgfsyspdfmark {pgfid163}{24079400}{5031327}
\pgfsyspdfmark {pgfid164}{17226176}{4795395}
\pgfsyspdfmark {pgfid165}{17226176}{4795395}
\pgfsyspdfmark {pgfid166}{19405781}{4795395}
\pgfsyspdfmark {pgfid167}{20638756}{4795395}
\pgfsyspdfmark {pgfid168}{21621797}{4795395}
\pgfsyspdfmark {pgfid169}{22604838}{4795395}
\pgfsyspdfmark {pgfid170}{23587879}{4795395}
\pgfsyspdfmark {pgfid171}{24570920}{4795395}
\pgfsyspdfmark {pgfid172}{24516308}{4998557}
\pgfsyspdfmark {pgfid174}{24516308}{4998557}
\pgfsyspdfmark {pgfid175}{26715926}{5581827}
\pgfsyspdfmark {pgfid176}{27043607}{5031327}
\pgfsyspdfmark {pgfid177}{27462310}{5031327}
\pgfsyspdfmark {pgfid178}{28700214}{5031327}
\pgfsyspdfmark {pgfid179}{29683255}{5031327}
\pgfsyspdfmark {pgfid180}{30666296}{5031327}
\pgfsyspdfmark {pgfid181}{31649337}{5031327}
\pgfsyspdfmark {pgfid182}{32632378}{5031327}
\pgfsyspdfmark {pgfid183}{26715926}{4795395}
\pgfsyspdfmark {pgfid184}{26715926}{4795395}
\pgfsyspdfmark {pgfid185}{28208693}{4795395}
\pgfsyspdfmark {pgfid186}{29191734}{4795395}
\pgfsyspdfmark {pgfid187}{30174775}{4795395}
\pgfsyspdfmark {pgfid188}{31157816}{4795395}
\pgfsyspdfmark {pgfid189}{32140857}{4795395}
\pgfsyspdfmark {pgfid190}{33123898}{4795395}
\pgfsyspdfmark {pgfid191}{33069286}{4998557}
\pgfsyspdfmark {pgfid193}{33069286}{4998557}
\pgfsyspdfmark {pgfid194}{17018068}{4128037}
\pgfsyspdfmark {pgfid195}{17345749}{3577537}
\pgfsyspdfmark {pgfid196}{17764452}{3577537}
\pgfsyspdfmark {pgfid197}{19002356}{3577537}
\pgfsyspdfmark {pgfid198}{19985397}{3577537}
\pgfsyspdfmark {pgfid199}{20968438}{3577537}
\pgfsyspdfmark {pgfid200}{21951479}{3577537}
\pgfsyspdfmark {pgfid201}{22934520}{3577537}
\pgfsyspdfmark {pgfid202}{17018068}{3341605}
\pgfsyspdfmark {pgfid203}{17018068}{3341605}
\pgfsyspdfmark {pgfid204}{18510835}{3341605}
\pgfsyspdfmark {pgfid205}{19493876}{3341605}
\pgfsyspdfmark {pgfid206}{20476917}{3341605}
\pgfsyspdfmark {pgfid207}{21459958}{3341605}
\pgfsyspdfmark {pgfid208}{22442999}{3341605}
\pgfsyspdfmark {pgfid209}{23426040}{3341605}
\pgfsyspdfmark {pgfid210}{23371428}{3544767}
\pgfsyspdfmark {pgfid212}{23371428}{3544767}
\gdef\pointsofq@ii{31}
\gdef\bonuspointsofq@ii{0}
\ExplSyntaxOn 
\char_set_catcode_space:n {32}
\tl_gset:cn {c__nicematrix_7_tl}{\seq_gset_from_clist:Nn \g__nicematrix_size_seq {1,4,4,1,4,4}}
\ExplSyntaxOff 
\gdef\pointsonpage@ii{31}
\ExplSyntaxOn 
\char_set_catcode_space:n {32}
\tl_gset:cn {c__nicematrix_8_tl}{\seq_gset_from_clist:Nn \g__nicematrix_size_seq {1,4,4,1,4,4}}
\ExplSyntaxOff 
\ExplSyntaxOn 
\char_set_catcode_space:n {32}
\tl_gset:cn {c__nicematrix_9_tl}{\seq_gset_from_clist:Nn \g__nicematrix_size_seq {1,4,4,1,4,4}}
\ExplSyntaxOff 
\ExplSyntaxOn 
\char_set_catcode_space:n {32}
\tl_gset:cn {c__nicematrix_10_tl}{\seq_gset_from_clist:Nn \g__nicematrix_size_seq {1,4,4,1,4,4}}
\ExplSyntaxOff 
\ExplSyntaxOn 
\char_set_catcode_space:n {32}
\tl_gset:cn {c__nicematrix_11_tl}{\seq_gset_from_clist:Nn \g__nicematrix_size_seq {1,4,4,1,4,4}}
\ExplSyntaxOff 
\ExplSyntaxOn 
\char_set_catcode_space:n {32}
\tl_gset:cn {c__nicematrix_12_tl}{\seq_gset_from_clist:Nn \g__nicematrix_size_seq {1,4,4,1,4,4}}
\ExplSyntaxOff 
\ExplSyntaxOn 
\char_set_catcode_space:n {32}
\tl_gset:cn {c__nicematrix_13_tl}{\seq_gset_from_clist:Nn \g__nicematrix_size_seq {1,4,4,1,4,4}}
\ExplSyntaxOff 
\ExplSyntaxOn 
\char_set_catcode_space:n {32}
\tl_gset:cn {c__nicematrix_14_tl}{\seq_gset_from_clist:Nn \g__nicematrix_size_seq {1,4,4,1,1,1}}
\ExplSyntaxOff 
\ExplSyntaxOn 
\char_set_catcode_space:n {32}
\tl_gset:cn {c__nicematrix_15_tl}{\seq_gset_from_clist:Nn \g__nicematrix_size_seq {1,4,4,1,1,1}}
\ExplSyntaxOff 
\ExplSyntaxOn 
\char_set_catcode_space:n {32}
\tl_gset:cn {c__nicematrix_16_tl}{\seq_gset_from_clist:Nn \g__nicematrix_size_seq {1,1,1,1,4,4}}
\ExplSyntaxOff 
\ExplSyntaxOn 
\char_set_catcode_space:n {32}
\tl_gset:cn {c__nicematrix_17_tl}{\seq_gset_from_clist:Nn \g__nicematrix_size_seq {1,1,1,1,4,4}}
\ExplSyntaxOff 
\ExplSyntaxOn 
\char_set_catcode_space:n {32}
\tl_gset:cn {c__nicematrix_18_tl}{\seq_gset_from_clist:Nn \g__nicematrix_size_seq {1,1,1,1,4,4}}
\ExplSyntaxOff 
\ExplSyntaxOn 
\char_set_catcode_space:n {32}
\tl_gset:cn {c__nicematrix_19_tl}{\seq_gset_from_clist:Nn \g__nicematrix_size_seq {1,1,1,1,4,4}}
\ExplSyntaxOff 
\ExplSyntaxOn 
\char_set_catcode_space:n {32}
\tl_gset:cn {c__nicematrix_20_tl}{\seq_gset_from_clist:Nn \g__nicematrix_size_seq {1,4,4,1,1,1}}
\ExplSyntaxOff 
\ExplSyntaxOn 
\char_set_catcode_space:n {32}
\tl_gset:cn {c__nicematrix_21_tl}{\seq_gset_from_clist:Nn \g__nicematrix_size_seq {1,4,4,1,1,1}}
\ExplSyntaxOff 
\ExplSyntaxOn 
\char_set_catcode_space:n {32}
\tl_gset:cn {c__nicematrix_22_tl}{\seq_gset_from_clist:Nn \g__nicematrix_size_seq {1,4,4,1,1,1}}
\ExplSyntaxOff 
\PgInfo{question@3}{3}
\PgInfo{question3@object1}{3}
\newlabel{question@3}{{\textbf  {Problem 3}}{3}{}{}{}}
\pgfsyspdfmark {pgfid213}{16390434}{49757209}
\pgfsyspdfmark {pgfid214}{17555523}{49206709}
\pgfsyspdfmark {pgfid215}{17719363}{49206709}
\pgfsyspdfmark {pgfid216}{18957267}{49206709}
\pgfsyspdfmark {pgfid217}{21032579}{49206709}
\pgfsyspdfmark {pgfid218}{22270483}{49206709}
\pgfsyspdfmark {pgfid219}{16390434}{48970777}
\pgfsyspdfmark {pgfid220}{17227841}{48420277}
\pgfsyspdfmark {pgfid221}{17555522}{48420277}
\pgfsyspdfmark {pgfid222}{19212130}{48420277}
\pgfsyspdfmark {pgfid223}{20868738}{48420277}
\pgfsyspdfmark {pgfid224}{22270483}{48420277}
\pgfsyspdfmark {pgfid225}{16390434}{48184345}
\pgfsyspdfmark {pgfid226}{17045797}{47633845}
\pgfsyspdfmark {pgfid227}{17464500}{47633845}
\pgfsyspdfmark {pgfid228}{19212130}{47633845}
\pgfsyspdfmark {pgfid229}{21032579}{47633845}
\pgfsyspdfmark {pgfid230}{22525346}{47633845}
\pgfsyspdfmark {pgfid231}{16390434}{47397913}
\pgfsyspdfmark {pgfid232}{16718115}{46847413}
\pgfsyspdfmark {pgfid233}{17300659}{46847413}
\pgfsyspdfmark {pgfid234}{19212130}{46847413}
\pgfsyspdfmark {pgfid235}{20613875}{46847413}
\pgfsyspdfmark {pgfid236}{22525346}{46847413}
\pgfsyspdfmark {pgfid237}{16390434}{46611481}
\pgfsyspdfmark {pgfid238}{16390434}{46611481}
\pgfsyspdfmark {pgfid239}{18210883}{46611481}
\pgfsyspdfmark {pgfid240}{19703650}{46611481}
\pgfsyspdfmark {pgfid241}{21524099}{46611481}
\pgfsyspdfmark {pgfid242}{23016866}{46611481}
\pgfsyspdfmark {pgfid243}{23126094}{47994291}
\pgfsyspdfmark {pgfid245}{23126094}{47994291}
\PgInfo{part@3@1}{3}
\PgInfo{question3@object2}{3}
\newlabel{part@3@1}{{a}{3}{}{}{}}
\newlabel{firstpoints@onpage@3}{{a}{3}{}{}{}}
\pgfsyspdfmark {pgfid312}{12651279}{43367419}
\pgfsyspdfmark {pgfid313}{13816368}{42816919}
\pgfsyspdfmark {pgfid314}{13980208}{42816919}
\pgfsyspdfmark {pgfid315}{15472975}{42816919}
\pgfsyspdfmark {pgfid316}{17293424}{42816919}
\pgfsyspdfmark {pgfid317}{18786191}{42816919}
\pgfsyspdfmark {pgfid318}{12651279}{42580987}
\pgfsyspdfmark {pgfid319}{12978960}{42030487}
\pgfsyspdfmark {pgfid320}{13561504}{42030487}
\pgfsyspdfmark {pgfid321}{15472975}{42030487}
\pgfsyspdfmark {pgfid322}{16874720}{42030487}
\pgfsyspdfmark {pgfid323}{18786191}{42030487}
\pgfsyspdfmark {pgfid324}{12651279}{41794555}
\pgfsyspdfmark {pgfid325}{13816368}{41244055}
\pgfsyspdfmark {pgfid326}{13980208}{41244055}
\pgfsyspdfmark {pgfid327}{15218112}{41244055}
\pgfsyspdfmark {pgfid328}{17293424}{41244055}
\pgfsyspdfmark {pgfid329}{18531328}{41244055}
\pgfsyspdfmark {pgfid330}{12651279}{41008123}
\pgfsyspdfmark {pgfid331}{13488686}{40457623}
\pgfsyspdfmark {pgfid332}{13816367}{40457623}
\pgfsyspdfmark {pgfid333}{15472975}{40457623}
\pgfsyspdfmark {pgfid334}{17129583}{40457623}
\pgfsyspdfmark {pgfid335}{18786191}{40457623}
\pgfsyspdfmark {pgfid336}{12651279}{40221691}
\pgfsyspdfmark {pgfid337}{12651279}{40221691}
\pgfsyspdfmark {pgfid338}{14471728}{40221691}
\pgfsyspdfmark {pgfid339}{15964495}{40221691}
\pgfsyspdfmark {pgfid340}{17784944}{40221691}
\pgfsyspdfmark {pgfid341}{19277711}{40221691}
\pgfsyspdfmark {pgfid342}{19386939}{41604501}
\pgfsyspdfmark {pgfid344}{19386939}{41604501}
\pgfsyspdfmark {pgfid411}{21698898}{43367419}
\pgfsyspdfmark {pgfid412}{22026579}{42816919}
\pgfsyspdfmark {pgfid413}{22190419}{42816919}
\pgfsyspdfmark {pgfid414}{23173460}{42816919}
\pgfsyspdfmark {pgfid415}{24156501}{42816919}
\pgfsyspdfmark {pgfid416}{25139542}{42816919}
\pgfsyspdfmark {pgfid417}{21698898}{42580987}
\pgfsyspdfmark {pgfid418}{22026579}{42030487}
\pgfsyspdfmark {pgfid419}{22190419}{42030487}
\pgfsyspdfmark {pgfid420}{23173460}{42030487}
\pgfsyspdfmark {pgfid421}{24156501}{42030487}
\pgfsyspdfmark {pgfid422}{25139542}{42030487}
\pgfsyspdfmark {pgfid423}{21698898}{41794555}
\pgfsyspdfmark {pgfid424}{22026579}{41244055}
\pgfsyspdfmark {pgfid425}{22190419}{41244055}
\pgfsyspdfmark {pgfid426}{23173460}{41244055}
\pgfsyspdfmark {pgfid427}{24156501}{41244055}
\pgfsyspdfmark {pgfid428}{25139542}{41244055}
\pgfsyspdfmark {pgfid429}{21698898}{41008123}
\pgfsyspdfmark {pgfid430}{22026579}{40457623}
\pgfsyspdfmark {pgfid431}{22190419}{40457623}
\pgfsyspdfmark {pgfid432}{23173460}{40457623}
\pgfsyspdfmark {pgfid433}{24156501}{40457623}
\pgfsyspdfmark {pgfid434}{25139542}{40457623}
\pgfsyspdfmark {pgfid435}{21698898}{40221691}
\pgfsyspdfmark {pgfid436}{21698898}{40221691}
\pgfsyspdfmark {pgfid437}{22681939}{40221691}
\pgfsyspdfmark {pgfid438}{23664980}{40221691}
\pgfsyspdfmark {pgfid439}{24648021}{40221691}
\pgfsyspdfmark {pgfid440}{25631062}{40221691}
\pgfsyspdfmark {pgfid441}{25740290}{41604501}
\pgfsyspdfmark {pgfid443}{25740290}{41604501}
\pgfsyspdfmark {pgfid444}{28725818}{43367419}
\pgfsyspdfmark {pgfid445}{29563225}{42816919}
\pgfsyspdfmark {pgfid446}{29727065}{42816919}
\pgfsyspdfmark {pgfid447}{28725818}{42580987}
\pgfsyspdfmark {pgfid448}{29563225}{42030487}
\pgfsyspdfmark {pgfid449}{29727065}{42030487}
\pgfsyspdfmark {pgfid450}{28725818}{41794555}
\pgfsyspdfmark {pgfid451}{29053499}{41244055}
\pgfsyspdfmark {pgfid452}{29472202}{41244055}
\pgfsyspdfmark {pgfid453}{28725818}{41008123}
\pgfsyspdfmark {pgfid454}{29563225}{40457623}
\pgfsyspdfmark {pgfid455}{29727065}{40457623}
\pgfsyspdfmark {pgfid456}{28725818}{40221691}
\pgfsyspdfmark {pgfid457}{28725818}{40221691}
\pgfsyspdfmark {pgfid458}{30218585}{40221691}
\pgfsyspdfmark {pgfid459}{30218585}{40221691}
\pgfsyspdfmark {pgfid460}{30327813}{41604501}
\pgfsyspdfmark {pgfid462}{30327813}{41604501}
\pgfsyspdfmark {pgfid463}{30728310}{43367419}
\pgfsyspdfmark {pgfid464}{31565717}{42816919}
\pgfsyspdfmark {pgfid465}{31729557}{42816919}
\pgfsyspdfmark {pgfid466}{30728310}{42580987}
\pgfsyspdfmark {pgfid467}{31565717}{42030487}
\pgfsyspdfmark {pgfid468}{31729557}{42030487}
\pgfsyspdfmark {pgfid469}{30728310}{41794555}
\pgfsyspdfmark {pgfid470}{31565717}{41244055}
\pgfsyspdfmark {pgfid471}{31729557}{41244055}
\pgfsyspdfmark {pgfid472}{30728310}{41008123}
\pgfsyspdfmark {pgfid473}{31055991}{40457623}
\pgfsyspdfmark {pgfid474}{31474694}{40457623}
\pgfsyspdfmark {pgfid475}{30728310}{40221691}
\pgfsyspdfmark {pgfid476}{30728310}{40221691}
\pgfsyspdfmark {pgfid477}{32221077}{40221691}
\pgfsyspdfmark {pgfid478}{32221077}{40221691}
\pgfsyspdfmark {pgfid479}{32330305}{41604501}
\pgfsyspdfmark {pgfid481}{32330305}{41604501}
\PgInfo{part@3@2}{3}
\PgInfo{question3@object3}{3}
\newlabel{part@3@2}{{b}{3}{}{}{}}
\PgInfo{question3@object4}{3}
\PgInfo{question3@object5}{3}
\PgInfo{question3@object6}{3}
\PgInfo{question3@object7}{3}
\PgInfo{question3@object8}{3}
\PgInfo{question3@object9}{3}
\PgInfo{part@3@3}{3}
\PgInfo{question3@object10}{3}
\newlabel{part@3@3}{{c}{3}{}{}{}}
\pgfsyspdfmark {pgfid482}{7394341}{32914409}
\pgfsyspdfmark {pgfid483}{7722022}{32363909}
\pgfsyspdfmark {pgfid484}{7885862}{32363909}
\pgfsyspdfmark {pgfid485}{8868903}{32363909}
\pgfsyspdfmark {pgfid486}{9851944}{32363909}
\pgfsyspdfmark {pgfid487}{10834985}{32363909}
\pgfsyspdfmark {pgfid488}{7394341}{32127977}
\pgfsyspdfmark {pgfid489}{7394341}{32127977}
\pgfsyspdfmark {pgfid490}{8377382}{32127977}
\pgfsyspdfmark {pgfid491}{9360423}{32127977}
\pgfsyspdfmark {pgfid492}{10343464}{32127977}
\pgfsyspdfmark {pgfid493}{11326505}{32127977}
\pgfsyspdfmark {pgfid494}{11271893}{32331139}
\pgfsyspdfmark {pgfid496}{11271893}{32331139}
\pgfsyspdfmark {pgfid497}{24855584}{32026934}
\pgfsyspdfmark {pgfid498}{25183265}{31476434}
\pgfsyspdfmark {pgfid499}{25601968}{31476434}
\pgfsyspdfmark {pgfid500}{27094735}{31476434}
\pgfsyspdfmark {pgfid501}{28332639}{31476434}
\pgfsyspdfmark {pgfid502}{29315680}{31476434}
\pgfsyspdfmark {pgfid503}{24855584}{31240502}
\pgfsyspdfmark {pgfid504}{24855584}{31240502}
\pgfsyspdfmark {pgfid505}{26348351}{31240502}
\pgfsyspdfmark {pgfid506}{27841118}{31240502}
\pgfsyspdfmark {pgfid507}{28824159}{31240502}
\pgfsyspdfmark {pgfid508}{29807200}{31240502}
\pgfsyspdfmark {pgfid509}{29752588}{31443664}
\pgfsyspdfmark {pgfid511}{29752588}{31443664}
\pgfsyspdfmark {pgfid512}{22770379}{28304126}
\pgfsyspdfmark {pgfid513}{23098060}{27753626}
\pgfsyspdfmark {pgfid514}{23261900}{27753626}
\pgfsyspdfmark {pgfid515}{24244941}{27753626}
\pgfsyspdfmark {pgfid516}{25227982}{27753626}
\pgfsyspdfmark {pgfid517}{26211023}{27753626}
\pgfsyspdfmark {pgfid518}{22770379}{27517694}
\pgfsyspdfmark {pgfid519}{22770379}{27517694}
\pgfsyspdfmark {pgfid520}{23753420}{27517694}
\pgfsyspdfmark {pgfid521}{24736461}{27517694}
\pgfsyspdfmark {pgfid522}{25719502}{27517694}
\pgfsyspdfmark {pgfid523}{26702543}{27517694}
\pgfsyspdfmark {pgfid524}{26647931}{27720856}
\pgfsyspdfmark {pgfid526}{26647931}{27720856}
\pgfsyspdfmark {pgfid527}{5540145}{27416651}
\pgfsyspdfmark {pgfid528}{5867826}{26866151}
\pgfsyspdfmark {pgfid529}{6286529}{26866151}
\pgfsyspdfmark {pgfid530}{7779296}{26866151}
\pgfsyspdfmark {pgfid531}{9017200}{26866151}
\pgfsyspdfmark {pgfid532}{10000241}{26866151}
\pgfsyspdfmark {pgfid533}{5540145}{26630219}
\pgfsyspdfmark {pgfid534}{5540145}{26630219}
\pgfsyspdfmark {pgfid535}{7032912}{26630219}
\pgfsyspdfmark {pgfid536}{8525679}{26630219}
\pgfsyspdfmark {pgfid537}{9508720}{26630219}
\pgfsyspdfmark {pgfid538}{10491761}{26630219}
\pgfsyspdfmark {pgfid539}{10437149}{26833381}
\pgfsyspdfmark {pgfid541}{10437149}{26833381}
\pgfsyspdfmark {pgfid542}{17310715}{25775681}
\pgfsyspdfmark {pgfid543}{17638396}{25225181}
\pgfsyspdfmark {pgfid544}{17802236}{25225181}
\pgfsyspdfmark {pgfid545}{17310715}{24989249}
\pgfsyspdfmark {pgfid546}{17638396}{24438749}
\pgfsyspdfmark {pgfid547}{17802236}{24438749}
\pgfsyspdfmark {pgfid548}{17310715}{24202817}
\pgfsyspdfmark {pgfid549}{17638396}{23652317}
\pgfsyspdfmark {pgfid550}{17802236}{23652317}
\pgfsyspdfmark {pgfid551}{17310715}{23416385}
\pgfsyspdfmark {pgfid552}{17638396}{22865885}
\pgfsyspdfmark {pgfid553}{17802236}{22865885}
\pgfsyspdfmark {pgfid554}{17310715}{22629953}
\pgfsyspdfmark {pgfid555}{17310715}{22629953}
\pgfsyspdfmark {pgfid556}{18293756}{22629953}
\pgfsyspdfmark {pgfid557}{18293756}{22629953}
\pgfsyspdfmark {pgfid558}{18402984}{24012763}
\pgfsyspdfmark {pgfid560}{18402984}{24012763}
\pgfsyspdfmark {pgfid561}{19313202}{25775681}
\pgfsyspdfmark {pgfid562}{19640883}{25225181}
\pgfsyspdfmark {pgfid563}{20059586}{25225181}
\pgfsyspdfmark {pgfid564}{19313202}{24989249}
\pgfsyspdfmark {pgfid565}{19640883}{24438749}
\pgfsyspdfmark {pgfid566}{20059586}{24438749}
\pgfsyspdfmark {pgfid567}{19313202}{24202817}
\pgfsyspdfmark {pgfid568}{20150609}{23652317}
\pgfsyspdfmark {pgfid569}{20314449}{23652317}
\pgfsyspdfmark {pgfid570}{19313202}{23416385}
\pgfsyspdfmark {pgfid571}{20150609}{22865885}
\pgfsyspdfmark {pgfid572}{20314449}{22865885}
\pgfsyspdfmark {pgfid573}{19313202}{22629953}
\pgfsyspdfmark {pgfid574}{19313202}{22629953}
\pgfsyspdfmark {pgfid575}{20805969}{22629953}
\pgfsyspdfmark {pgfid576}{20805969}{22629953}
\pgfsyspdfmark {pgfid577}{20915197}{24012763}
\pgfsyspdfmark {pgfid579}{20915197}{24012763}
\pgfsyspdfmark {pgfid580}{22920414}{25775681}
\pgfsyspdfmark {pgfid581}{23248095}{25225181}
\pgfsyspdfmark {pgfid582}{23411935}{25225181}
\pgfsyspdfmark {pgfid583}{22920414}{24989249}
\pgfsyspdfmark {pgfid584}{23248095}{24438749}
\pgfsyspdfmark {pgfid585}{23411935}{24438749}
\pgfsyspdfmark {pgfid586}{22920414}{24202817}
\pgfsyspdfmark {pgfid587}{23248095}{23652317}
\pgfsyspdfmark {pgfid588}{23411935}{23652317}
\pgfsyspdfmark {pgfid589}{22920414}{23416385}
\pgfsyspdfmark {pgfid590}{23248095}{22865885}
\pgfsyspdfmark {pgfid591}{23411935}{22865885}
\pgfsyspdfmark {pgfid592}{22920414}{22629953}
\pgfsyspdfmark {pgfid593}{22920414}{22629953}
\pgfsyspdfmark {pgfid594}{23903455}{22629953}
\pgfsyspdfmark {pgfid595}{23903455}{22629953}
\pgfsyspdfmark {pgfid596}{24012683}{24012763}
\pgfsyspdfmark {pgfid598}{24012683}{24012763}
\gdef\pointsofq@iii{29}
\gdef\bonuspointsofq@iii{0}
\gdef\pointsonpage@iii{29}
\ExplSyntaxOn 
\char_set_catcode_space:n {32}
\tl_gset:cn {c__nicematrix_23_tl}{\seq_gset_from_clist:Nn \g__nicematrix_size_seq {1,3,3,1,9,9}}
\ExplSyntaxOff 
\ExplSyntaxOn 
\char_set_catcode_space:n {32}
\tl_gset:cn {c__nicematrix_24_tl}{\seq_gset_from_clist:Nn \g__nicematrix_size_seq {1,3,3,1,2,2}}
\ExplSyntaxOff 
\ExplSyntaxOn 
\char_set_catcode_space:n {32}
\tl_gset:cn {c__nicematrix_25_tl}{\seq_gset_from_clist:Nn \g__nicematrix_size_seq {1,2,2,1,1,1}}
\ExplSyntaxOff 
\ExplSyntaxOn 
\char_set_catcode_space:n {32}
\tl_gset:cn {c__nicematrix_26_tl}{\seq_gset_from_clist:Nn \g__nicematrix_size_seq {1,3,3,1,1,1}}
\ExplSyntaxOff 
\ExplSyntaxOn 
\char_set_catcode_space:n {32}
\tl_gset:cn {c__nicematrix_27_tl}{\seq_gset_from_clist:Nn \g__nicematrix_size_seq {1,3,3,1,2,2}}
\ExplSyntaxOff 
\ExplSyntaxOn 
\char_set_catcode_space:n {32}
\tl_gset:cn {c__nicematrix_28_tl}{\seq_gset_from_clist:Nn \g__nicematrix_size_seq {1,2,2,1,1,1}}
\ExplSyntaxOff 
\ExplSyntaxOn 
\char_set_catcode_space:n {32}
\tl_gset:cn {c__nicematrix_29_tl}{\seq_gset_from_clist:Nn \g__nicematrix_size_seq {1,3,3,1,1,1}}
\ExplSyntaxOff 
\ExplSyntaxOn 
\char_set_catcode_space:n {32}
\tl_gset:cn {c__nicematrix_30_tl}{\seq_gset_from_clist:Nn \g__nicematrix_size_seq {1,2,2,1,3,3}}
\ExplSyntaxOff 
\ExplSyntaxOn 
\char_set_catcode_space:n {32}
\tl_gset:cn {c__nicematrix_31_tl}{\seq_gset_from_clist:Nn \g__nicematrix_size_seq {1,2,2,1,3,3}}
\ExplSyntaxOff 
\ExplSyntaxOn 
\char_set_catcode_space:n {32}
\tl_gset:cn {c__nicematrix_32_tl}{\seq_gset_from_clist:Nn \g__nicematrix_size_seq {1,2,2,1,3,3}}
\ExplSyntaxOff 
\ExplSyntaxOn 
\char_set_catcode_space:n {32}
\tl_gset:cn {c__nicematrix_33_tl}{\seq_gset_from_clist:Nn \g__nicematrix_size_seq {1,3,3,1,2,2}}
\ExplSyntaxOff 
\ExplSyntaxOn 
\char_set_catcode_space:n {32}
\tl_gset:cn {c__nicematrix_34_tl}{\seq_gset_from_clist:Nn \g__nicematrix_size_seq {1,3,3,1,2,2}}
\ExplSyntaxOff 
\ExplSyntaxOn 
\char_set_catcode_space:n {32}
\tl_gset:cn {c__nicematrix_35_tl}{\seq_gset_from_clist:Nn \g__nicematrix_size_seq {1,3,3,1,2,2}}
\ExplSyntaxOff 
\ExplSyntaxOn 
\char_set_catcode_space:n {32}
\tl_gset:cn {c__nicematrix_36_tl}{\seq_gset_from_clist:Nn \g__nicematrix_size_seq {1,2,2,1,2,2}}
\ExplSyntaxOff 
\ExplSyntaxOn 
\char_set_catcode_space:n {32}
\tl_gset:cn {c__nicematrix_37_tl}{\seq_gset_from_clist:Nn \g__nicematrix_size_seq {1,2,2,1,1,1}}
\ExplSyntaxOff 
\ExplSyntaxOn 
\char_set_catcode_space:n {32}
\tl_gset:cn {c__nicematrix_38_tl}{\seq_gset_from_clist:Nn \g__nicematrix_size_seq {1,2,2,1,3,3}}
\ExplSyntaxOff 
\ExplSyntaxOn 
\char_set_catcode_space:n {32}
\tl_gset:cn {c__nicematrix_39_tl}{\seq_gset_from_clist:Nn \g__nicematrix_size_seq {1,2,2,1,3,3}}
\ExplSyntaxOff 
\ExplSyntaxOn 
\char_set_catcode_space:n {32}
\tl_gset:cn {c__nicematrix_40_tl}{\seq_gset_from_clist:Nn \g__nicematrix_size_seq {1,2,2,1,3,3}}
\ExplSyntaxOff 
\ExplSyntaxOn 
\char_set_catcode_space:n {32}
\tl_gset:cn {c__nicematrix_41_tl}{\seq_gset_from_clist:Nn \g__nicematrix_size_seq {1,3,3,1,1,1}}
\ExplSyntaxOff 
\ExplSyntaxOn 
\char_set_catcode_space:n {32}
\tl_gset:cn {c__nicematrix_42_tl}{\seq_gset_from_clist:Nn \g__nicematrix_size_seq {1,3,3,1,1,1}}
\ExplSyntaxOff 
\ExplSyntaxOn 
\char_set_catcode_space:n {32}
\tl_gset:cn {c__nicematrix_43_tl}{\seq_gset_from_clist:Nn \g__nicematrix_size_seq {1,3,3,1,1,1}}
\ExplSyntaxOff 
\ExplSyntaxOn 
\char_set_catcode_space:n {32}
\tl_gset:cn {c__nicematrix_44_tl}{\seq_gset_from_clist:Nn \g__nicematrix_size_seq {1,2,2,1,1,1}}
\ExplSyntaxOff 
\ExplSyntaxOn 
\char_set_catcode_space:n {32}
\tl_gset:cn {c__nicematrix_45_tl}{\seq_gset_from_clist:Nn \g__nicematrix_size_seq {1,2,2,1,3,3}}
\ExplSyntaxOff 
\ExplSyntaxOn 
\char_set_catcode_space:n {32}
\tl_gset:cn {c__nicematrix_46_tl}{\seq_gset_from_clist:Nn \g__nicematrix_size_seq {1,2,2,1,3,3}}
\ExplSyntaxOff 
\ExplSyntaxOn 
\char_set_catcode_space:n {32}
\tl_gset:cn {c__nicematrix_47_tl}{\seq_gset_from_clist:Nn \g__nicematrix_size_seq {1,2,2,1,3,3}}
\ExplSyntaxOff 
\ExplSyntaxOn 
\char_set_catcode_space:n {32}
\tl_gset:cn {c__nicematrix_48_tl}{\seq_gset_from_clist:Nn \g__nicematrix_size_seq {1,3,3,1,2,2}}
\ExplSyntaxOff 
\ExplSyntaxOn 
\char_set_catcode_space:n {32}
\tl_gset:cn {c__nicematrix_49_tl}{\seq_gset_from_clist:Nn \g__nicematrix_size_seq {1,3,3,1,2,2}}
\ExplSyntaxOff 
\ExplSyntaxOn 
\char_set_catcode_space:n {32}
\tl_gset:cn {c__nicematrix_50_tl}{\seq_gset_from_clist:Nn \g__nicematrix_size_seq {1,3,3,1,2,2}}
\ExplSyntaxOff 
\ExplSyntaxOn 
\char_set_catcode_space:n {32}
\tl_gset:cn {c__nicematrix_51_tl}{\seq_gset_from_clist:Nn \g__nicematrix_size_seq {1,2,2,1,2,2}}
\ExplSyntaxOff 
\ExplSyntaxOn 
\char_set_catcode_space:n {32}
\tl_gset:cn {c__nicematrix_52_tl}{\seq_gset_from_clist:Nn \g__nicematrix_size_seq {1,2,2,1,1,1}}
\ExplSyntaxOff 
\ExplSyntaxOn 
\char_set_catcode_space:n {32}
\tl_gset:cn {c__nicematrix_53_tl}{\seq_gset_from_clist:Nn \g__nicematrix_size_seq {1,2,2,1,3,3}}
\ExplSyntaxOff 
\ExplSyntaxOn 
\char_set_catcode_space:n {32}
\tl_gset:cn {c__nicematrix_54_tl}{\seq_gset_from_clist:Nn \g__nicematrix_size_seq {1,2,2,1,3,3}}
\ExplSyntaxOff 
\ExplSyntaxOn 
\char_set_catcode_space:n {32}
\tl_gset:cn {c__nicematrix_55_tl}{\seq_gset_from_clist:Nn \g__nicematrix_size_seq {1,2,2,1,3,3}}
\ExplSyntaxOff 
\ExplSyntaxOn 
\char_set_catcode_space:n {32}
\tl_gset:cn {c__nicematrix_56_tl}{\seq_gset_from_clist:Nn \g__nicematrix_size_seq {1,3,3,1,1,1}}
\ExplSyntaxOff 
\ExplSyntaxOn 
\char_set_catcode_space:n {32}
\tl_gset:cn {c__nicematrix_57_tl}{\seq_gset_from_clist:Nn \g__nicematrix_size_seq {1,3,3,1,1,1}}
\ExplSyntaxOff 
\ExplSyntaxOn 
\char_set_catcode_space:n {32}
\tl_gset:cn {c__nicematrix_58_tl}{\seq_gset_from_clist:Nn \g__nicematrix_size_seq {1,3,3,1,1,1}}
\ExplSyntaxOff 
\ExplSyntaxOn 
\char_set_catcode_space:n {32}
\tl_gset:cn {c__nicematrix_59_tl}{\seq_gset_from_clist:Nn \g__nicematrix_size_seq {1,2,2,1,1,1}}
\ExplSyntaxOff 
\ExplSyntaxOn 
\char_set_catcode_space:n {32}
\tl_gset:cn {c__nicematrix_60_tl}{\seq_gset_from_clist:Nn \g__nicematrix_size_seq {1,2,2,1,2,2}}
\ExplSyntaxOff 
\ExplSyntaxOn 
\char_set_catcode_space:n {32}
\tl_gset:cn {c__nicematrix_61_tl}{\seq_gset_from_clist:Nn \g__nicematrix_size_seq {1,2,2,1,2,2}}
\ExplSyntaxOff 
\ExplSyntaxOn 
\char_set_catcode_space:n {32}
\tl_gset:cn {c__nicematrix_62_tl}{\seq_gset_from_clist:Nn \g__nicematrix_size_seq {1,2,2,1,2,2}}
\ExplSyntaxOff 
\ExplSyntaxOn 
\char_set_catcode_space:n {32}
\tl_gset:cn {c__nicematrix_63_tl}{\seq_gset_from_clist:Nn \g__nicematrix_size_seq {1,2,2,1,1,1}}
\ExplSyntaxOff 
\ExplSyntaxOn 
\char_set_catcode_space:n {32}
\tl_gset:cn {c__nicematrix_64_tl}{\seq_gset_from_clist:Nn \g__nicematrix_size_seq {1,2,2,1,1,1}}
\ExplSyntaxOff 
\ExplSyntaxOn 
\char_set_catcode_space:n {32}
\tl_gset:cn {c__nicematrix_65_tl}{\seq_gset_from_clist:Nn \g__nicematrix_size_seq {1,2,2,1,1,1}}
\ExplSyntaxOff 
\ExplSyntaxOn 
\char_set_catcode_space:n {32}
\tl_gset:cn {c__nicematrix_66_tl}{\seq_gset_from_clist:Nn \g__nicematrix_size_seq {1,2,2,1,1,1}}
\ExplSyntaxOff 
\gdef\pointsofq@iv{12}
\gdef\bonuspointsofq@iv{0}
\PgInfo{question@4}{4}
\PgInfo{question4@object1}{4}
\newlabel{question@4}{{\textbf  {Problem 4}}{4}{}{}{}}
\newlabel{firstpoints@onpage@4}{{\textbf  {Problem 4}}{4}{}{}{}}
\pgfsyspdfmark {pgfid599}{13849963}{43546959}
\pgfsyspdfmark {pgfid600}{13849964}{42996459}
\pgfsyspdfmark {pgfid601}{14719229}{42996459}
\pgfsyspdfmark {pgfid602}{16498718}{42996459}
\pgfsyspdfmark {pgfid603}{17938691}{42996459}
\pgfsyspdfmark {pgfid604}{19229389}{42996459}
\pgfsyspdfmark {pgfid605}{20532639}{42996459}
\pgfsyspdfmark {pgfid606}{21763072}{42996459}
\pgfsyspdfmark {pgfid607}{23211958}{42996459}
\pgfsyspdfmark {pgfid608}{24660844}{42996459}
\pgfsyspdfmark {pgfid609}{26100817}{42996459}
\pgfsyspdfmark {pgfid610}{13849963}{42760527}
\pgfsyspdfmark {pgfid611}{13849964}{42210027}
\pgfsyspdfmark {pgfid612}{14719229}{42210027}
\pgfsyspdfmark {pgfid613}{16498718}{42210027}
\pgfsyspdfmark {pgfid614}{17827645}{42210027}
\pgfsyspdfmark {pgfid615}{19229389}{42210027}
\pgfsyspdfmark {pgfid616}{20532639}{42210027}
\pgfsyspdfmark {pgfid617}{21763072}{42210027}
\pgfsyspdfmark {pgfid618}{23211958}{42210027}
\pgfsyspdfmark {pgfid619}{24660844}{42210027}
\pgfsyspdfmark {pgfid620}{25989771}{42210027}
\pgfsyspdfmark {pgfid621}{13849963}{41974095}
\pgfsyspdfmark {pgfid622}{13849964}{41423595}
\pgfsyspdfmark {pgfid623}{14719229}{41423595}
\pgfsyspdfmark {pgfid624}{16498718}{41423595}
\pgfsyspdfmark {pgfid625}{18082508}{41423595}
\pgfsyspdfmark {pgfid626}{19229389}{41423595}
\pgfsyspdfmark {pgfid627}{20532639}{41423595}
\pgfsyspdfmark {pgfid628}{21763072}{41423595}
\pgfsyspdfmark {pgfid629}{23211958}{41423595}
\pgfsyspdfmark {pgfid630}{24660844}{41423595}
\pgfsyspdfmark {pgfid631}{26244634}{41423595}
\pgfsyspdfmark {pgfid632}{13849963}{41187663}
\pgfsyspdfmark {pgfid633}{13849963}{41187663}
\pgfsyspdfmark {pgfid634}{15916174}{41187663}
\pgfsyspdfmark {pgfid635}{17081261}{41187663}
\pgfsyspdfmark {pgfid636}{18574028}{41187663}
\pgfsyspdfmark {pgfid637}{19884749}{41187663}
\pgfsyspdfmark {pgfid638}{21180528}{41187663}
\pgfsyspdfmark {pgfid639}{22345615}{41187663}
\pgfsyspdfmark {pgfid640}{24078300}{41187663}
\pgfsyspdfmark {pgfid641}{25243387}{41187663}
\pgfsyspdfmark {pgfid642}{26408474}{41187663}
\pgfsyspdfmark {pgfid643}{26408474}{42203471}
\pgfsyspdfmark {pgfid645}{26408474}{42203471}
\pgfsyspdfmark {pgfid694}{10909309}{39189532}
\pgfsyspdfmark {pgfid695}{11236990}{38639032}
\pgfsyspdfmark {pgfid696}{11400830}{38639032}
\pgfsyspdfmark {pgfid697}{12638734}{38639032}
\pgfsyspdfmark {pgfid698}{10909309}{38403100}
\pgfsyspdfmark {pgfid699}{11236990}{37852600}
\pgfsyspdfmark {pgfid700}{11400830}{37852600}
\pgfsyspdfmark {pgfid701}{12638734}{37852600}
\pgfsyspdfmark {pgfid702}{10909309}{37616668}
\pgfsyspdfmark {pgfid703}{11236990}{37066168}
\pgfsyspdfmark {pgfid704}{11400830}{37066168}
\pgfsyspdfmark {pgfid705}{12638734}{37066168}
\pgfsyspdfmark {pgfid706}{10909309}{36830236}
\pgfsyspdfmark {pgfid707}{10909309}{36830236}
\pgfsyspdfmark {pgfid708}{11892350}{36830236}
\pgfsyspdfmark {pgfid709}{13385117}{36830236}
\pgfsyspdfmark {pgfid710}{13494345}{37819830}
\pgfsyspdfmark {pgfid712}{13494345}{37819830}
\pgfsyspdfmark {pgfid713}{20700796}{38796316}
\pgfsyspdfmark {pgfid714}{21028477}{38245816}
\pgfsyspdfmark {pgfid715}{21348686}{38245816}
\pgfsyspdfmark {pgfid716}{20700796}{38009884}
\pgfsyspdfmark {pgfid717}{21028477}{37459384}
\pgfsyspdfmark {pgfid718}{21348686}{37459384}
\pgfsyspdfmark {pgfid719}{20700796}{37223452}
\pgfsyspdfmark {pgfid720}{20700796}{37223452}
\pgfsyspdfmark {pgfid721}{21996575}{37223452}
\pgfsyspdfmark {pgfid722}{21996575}{37223452}
\pgfsyspdfmark {pgfid723}{22014781}{37819830}
\pgfsyspdfmark {pgfid725}{22014781}{37819830}
\pgfsyspdfmark {pgfid726}{29221685}{39189532}
\pgfsyspdfmark {pgfid727}{29771458}{38639032}
\pgfsyspdfmark {pgfid728}{30079115}{38639032}
\pgfsyspdfmark {pgfid729}{29221685}{38403100}
\pgfsyspdfmark {pgfid730}{29549366}{37852600}
\pgfsyspdfmark {pgfid731}{29968069}{37852600}
\pgfsyspdfmark {pgfid732}{29221685}{37616668}
\pgfsyspdfmark {pgfid733}{30059092}{37066168}
\pgfsyspdfmark {pgfid734}{30222932}{37066168}
\pgfsyspdfmark {pgfid735}{29221685}{36830236}
\pgfsyspdfmark {pgfid736}{29221685}{36830236}
\pgfsyspdfmark {pgfid737}{30714452}{36830236}
\pgfsyspdfmark {pgfid738}{30714452}{36830236}
\pgfsyspdfmark {pgfid739}{30823680}{37819830}
\pgfsyspdfmark {pgfid741}{30823680}{37819830}
\pgfsyspdfmark {pgfid1032}{5817069}{33879275}
\pgfsyspdfmark {pgfid1033}{6654476}{33328775}
\pgfsyspdfmark {pgfid1034}{6818316}{33328775}
\pgfsyspdfmark {pgfid1035}{8311083}{33328775}
\pgfsyspdfmark {pgfid1036}{9803850}{33328775}
\pgfsyspdfmark {pgfid1037}{5817069}{33092843}
\pgfsyspdfmark {pgfid1038}{6144750}{32542343}
\pgfsyspdfmark {pgfid1039}{6563453}{32542343}
\pgfsyspdfmark {pgfid1040}{8056220}{32542343}
\pgfsyspdfmark {pgfid1041}{9548987}{32542343}
\pgfsyspdfmark {pgfid1042}{5817069}{32306411}
\pgfsyspdfmark {pgfid1043}{5817069}{32306411}
\pgfsyspdfmark {pgfid1044}{7309836}{32306411}
\pgfsyspdfmark {pgfid1045}{8802603}{32306411}
\pgfsyspdfmark {pgfid1046}{10295370}{32306411}
\pgfsyspdfmark {pgfid1047}{10313576}{32902789}
\pgfsyspdfmark {pgfid1049}{10313576}{32902789}
\pgfsyspdfmark {pgfid1088}{10422804}{34272491}
\pgfsyspdfmark {pgfid1089}{10750485}{33721991}
\pgfsyspdfmark {pgfid1090}{10914325}{33721991}
\pgfsyspdfmark {pgfid1091}{12152229}{33721991}
\pgfsyspdfmark {pgfid1092}{10422804}{33486059}
\pgfsyspdfmark {pgfid1093}{10750485}{32935559}
\pgfsyspdfmark {pgfid1094}{10914325}{32935559}
\pgfsyspdfmark {pgfid1095}{12152229}{32935559}
\pgfsyspdfmark {pgfid1096}{10422804}{32699627}
\pgfsyspdfmark {pgfid1097}{10750485}{32149127}
\pgfsyspdfmark {pgfid1098}{10914325}{32149127}
\pgfsyspdfmark {pgfid1099}{12152229}{32149127}
\pgfsyspdfmark {pgfid1100}{10422804}{31913195}
\pgfsyspdfmark {pgfid1101}{10422804}{31913195}
\pgfsyspdfmark {pgfid1102}{11405845}{31913195}
\pgfsyspdfmark {pgfid1103}{12898612}{31913195}
\pgfsyspdfmark {pgfid1104}{13007840}{32902789}
\pgfsyspdfmark {pgfid1106}{13007840}{32902789}
\pgfsyspdfmark {pgfid1107}{13899852}{33879275}
\pgfsyspdfmark {pgfid1108}{14737259}{33328775}
\pgfsyspdfmark {pgfid1109}{14901099}{33328775}
\pgfsyspdfmark {pgfid1110}{16139003}{33328775}
\pgfsyspdfmark {pgfid1111}{13899852}{33092843}
\pgfsyspdfmark {pgfid1112}{14227533}{32542343}
\pgfsyspdfmark {pgfid1113}{14646236}{32542343}
\pgfsyspdfmark {pgfid1114}{16230025}{32542343}
\pgfsyspdfmark {pgfid1115}{13899852}{32306411}
\pgfsyspdfmark {pgfid1116}{13899852}{32306411}
\pgfsyspdfmark {pgfid1117}{15392619}{32306411}
\pgfsyspdfmark {pgfid1118}{16885386}{32306411}
\pgfsyspdfmark {pgfid1119}{16903592}{32902789}
\pgfsyspdfmark {pgfid1121}{16903592}{32902789}
\pgfsyspdfmark {pgfid1122}{20416808}{33879275}
\pgfsyspdfmark {pgfid1123}{20744489}{33328775}
\pgfsyspdfmark {pgfid1124}{21064698}{33328775}
\pgfsyspdfmark {pgfid1125}{20416808}{33092843}
\pgfsyspdfmark {pgfid1126}{20744489}{32542343}
\pgfsyspdfmark {pgfid1127}{21064698}{32542343}
\pgfsyspdfmark {pgfid1128}{20416808}{32306411}
\pgfsyspdfmark {pgfid1129}{20416808}{32306411}
\pgfsyspdfmark {pgfid1130}{21712587}{32306411}
\pgfsyspdfmark {pgfid1131}{21712587}{32306411}
\pgfsyspdfmark {pgfid1132}{21730793}{32902789}
\pgfsyspdfmark {pgfid1134}{21730793}{32902789}
\pgfsyspdfmark {pgfid1171}{23995647}{33879275}
\pgfsyspdfmark {pgfid1172}{24833054}{33328775}
\pgfsyspdfmark {pgfid1173}{24996894}{33328775}
\pgfsyspdfmark {pgfid1174}{26489661}{33328775}
\pgfsyspdfmark {pgfid1175}{27982428}{33328775}
\pgfsyspdfmark {pgfid1176}{23995647}{33092843}
\pgfsyspdfmark {pgfid1177}{24323328}{32542343}
\pgfsyspdfmark {pgfid1178}{24742031}{32542343}
\pgfsyspdfmark {pgfid1179}{26234798}{32542343}
\pgfsyspdfmark {pgfid1180}{27727565}{32542343}
\pgfsyspdfmark {pgfid1181}{23995647}{32306411}
\pgfsyspdfmark {pgfid1182}{23995647}{32306411}
\pgfsyspdfmark {pgfid1183}{25488414}{32306411}
\pgfsyspdfmark {pgfid1184}{26981181}{32306411}
\pgfsyspdfmark {pgfid1185}{28473948}{32306411}
\pgfsyspdfmark {pgfid1186}{28492154}{32902789}
\pgfsyspdfmark {pgfid1188}{28492154}{32902789}
\pgfsyspdfmark {pgfid1221}{28601382}{34272491}
\pgfsyspdfmark {pgfid1222}{29151155}{33721991}
\pgfsyspdfmark {pgfid1223}{29458812}{33721991}
\pgfsyspdfmark {pgfid1224}{28601382}{33486059}
\pgfsyspdfmark {pgfid1225}{28929063}{32935559}
\pgfsyspdfmark {pgfid1226}{29347766}{32935559}
\pgfsyspdfmark {pgfid1227}{28601382}{32699627}
\pgfsyspdfmark {pgfid1228}{29438789}{32149127}
\pgfsyspdfmark {pgfid1229}{29602629}{32149127}
\pgfsyspdfmark {pgfid1230}{28601382}{31913195}
\pgfsyspdfmark {pgfid1231}{28601382}{31913195}
\pgfsyspdfmark {pgfid1232}{30094149}{31913195}
\pgfsyspdfmark {pgfid1233}{30094149}{31913195}
\pgfsyspdfmark {pgfid1234}{30203377}{32902789}
\pgfsyspdfmark {pgfid1236}{30203377}{32902789}
\pgfsyspdfmark {pgfid1237}{31095389}{33879275}
\pgfsyspdfmark {pgfid1238}{33498372}{33328775}
\pgfsyspdfmark {pgfid1239}{33806029}{33328775}
\pgfsyspdfmark {pgfid1240}{31095389}{33092843}
\pgfsyspdfmark {pgfid1241}{31423070}{32542343}
\pgfsyspdfmark {pgfid1242}{32768378}{32542343}
\pgfsyspdfmark {pgfid1243}{31095389}{32306411}
\pgfsyspdfmark {pgfid1244}{31095389}{32306411}
\pgfsyspdfmark {pgfid1245}{34441366}{32306411}
\pgfsyspdfmark {pgfid1246}{34441366}{32306411}
\pgfsyspdfmark {pgfid1247}{34459572}{32902789}
\pgfsyspdfmark {pgfid1249}{34459572}{32902789}
\pgfsyspdfmark {pgfid1280}{16506529}{28375798}
\pgfsyspdfmark {pgfid1281}{17343936}{27825298}
\pgfsyspdfmark {pgfid1282}{17507776}{27825298}
\pgfsyspdfmark {pgfid1283}{18745680}{27825298}
\pgfsyspdfmark {pgfid1284}{16506529}{27589366}
\pgfsyspdfmark {pgfid1285}{16834210}{27038866}
\pgfsyspdfmark {pgfid1286}{17252913}{27038866}
\pgfsyspdfmark {pgfid1287}{18836702}{27038866}
\pgfsyspdfmark {pgfid1288}{16506529}{26802934}
\pgfsyspdfmark {pgfid1289}{16506529}{26802934}
\pgfsyspdfmark {pgfid1290}{17999296}{26802934}
\pgfsyspdfmark {pgfid1291}{19492063}{26802934}
\pgfsyspdfmark {pgfid1292}{19510269}{27399312}
\pgfsyspdfmark {pgfid1294}{19510269}{27399312}
\pgfsyspdfmark {pgfid1321}{19528475}{28375798}
\pgfsyspdfmark {pgfid1322}{19856156}{27825298}
\pgfsyspdfmark {pgfid1323}{20274859}{27825298}
\pgfsyspdfmark {pgfid1324}{19528475}{27589366}
\pgfsyspdfmark {pgfid1325}{19856156}{27038866}
\pgfsyspdfmark {pgfid1326}{20274859}{27038866}
\pgfsyspdfmark {pgfid1327}{19528475}{26802934}
\pgfsyspdfmark {pgfid1328}{19528475}{26802934}
\pgfsyspdfmark {pgfid1329}{21021242}{26802934}
\pgfsyspdfmark {pgfid1330}{21021242}{26802934}
\pgfsyspdfmark {pgfid1331}{21039448}{27399312}
\pgfsyspdfmark {pgfid1333}{21039448}{27399312}
\pgfsyspdfmark {pgfid1334}{21931460}{28375798}
\pgfsyspdfmark {pgfid1335}{23096549}{27825298}
\pgfsyspdfmark {pgfid1336}{23260389}{27825298}
\pgfsyspdfmark {pgfid1337}{21931460}{27589366}
\pgfsyspdfmark {pgfid1338}{22259141}{27038866}
\pgfsyspdfmark {pgfid1339}{22841685}{27038866}
\pgfsyspdfmark {pgfid1340}{21931460}{26802934}
\pgfsyspdfmark {pgfid1341}{21931460}{26802934}
\pgfsyspdfmark {pgfid1342}{23751909}{26802934}
\pgfsyspdfmark {pgfid1343}{23751909}{26802934}
\pgfsyspdfmark {pgfid1344}{23770115}{27399312}
\pgfsyspdfmark {pgfid1346}{23770115}{27399312}
\gdef\exam@lastpage{4}
\gdef\exam@lastcoverpage{1}
\gdef\exam@totalpages{5}
\gdef\exam@numpoints{100}
\gdef\exam@numbonuspoints{0}
\gdef\exam@numquestions{4}
\gdef\exam@numparts{13}
\gdef\exam@numsubparts{0}
\gdef\exam@numsubsubparts{0}
\gdef\pointsonpage@iv{12}
\gdef\lastpage@withpoints{4}
\gdef\lastpage@withbonuspoints{0}
\gdef \@abspage@last{5}
