PWD /home/brian/repos/218-exams/terms/f24/exam02
INPUT /usr/share/texmf-dist/web2c/texmf.cnf
INPUT /var/lib/texmf/web2c/pdftex/pdflatex.fmt
INPUT 218f24-exam02.tex
OUTPUT 218f24-exam02.log
INPUT /home/brian/.local/share/texmf/tex/latex/local/exm.cls
INPUT /home/brian/.local/share/texmf/tex/latex/local/exm.cls
INPUT /usr/share/texmf-dist/tex/latex/exam/exam.cls
INPUT /usr/share/texmf-dist/tex/latex/exam/exam.cls
INPUT /usr/share/texmf-dist/tex/latex/base/ifthen.sty
INPUT /usr/share/texmf-dist/tex/latex/base/ifthen.sty
INPUT /usr/share/texmf-dist/tex/latex/base/article.cls
INPUT /usr/share/texmf-dist/tex/latex/base/article.cls
INPUT /usr/share/texmf-dist/tex/latex/base/size10.clo
INPUT /usr/share/texmf-dist/tex/latex/base/size10.clo
INPUT /usr/share/texmf-dist/tex/latex/base/size10.clo
INPUT /usr/share/texmf-dist/tex/latex/etoolbox/etoolbox.sty
INPUT /usr/share/texmf-dist/tex/latex/etoolbox/etoolbox.sty
INPUT /home/brian/.local/share/texmf/tex/latex/local/mth.sty
INPUT /home/brian/.local/share/texmf/tex/latex/local/mth.sty
INPUT /usr/share/texmf-dist/tex/latex/mathtools/mathtools.sty
INPUT /usr/share/texmf-dist/tex/latex/mathtools/mathtools.sty
INPUT /usr/share/texmf-dist/tex/latex/graphics/keyval.sty
INPUT /usr/share/texmf-dist/tex/latex/graphics/keyval.sty
INPUT /usr/share/texmf-dist/tex/latex/tools/calc.sty
INPUT /usr/share/texmf-dist/tex/latex/tools/calc.sty
INPUT /usr/share/texmf-dist/tex/latex/mathtools/mhsetup.sty
INPUT /usr/share/texmf-dist/tex/latex/mathtools/mhsetup.sty
INPUT /usr/share/texmf-dist/tex/latex/amsmath/amsmath.sty
INPUT /usr/share/texmf-dist/tex/latex/amsmath/amsmath.sty
INPUT /usr/share/texmf-dist/tex/latex/amsmath/amsopn.sty
INPUT /usr/share/texmf-dist/tex/latex/amsmath/amstext.sty
INPUT /usr/share/texmf-dist/tex/latex/amsmath/amstext.sty
INPUT /usr/share/texmf-dist/tex/latex/amsmath/amsgen.sty
INPUT /usr/share/texmf-dist/tex/latex/amsmath/amsgen.sty
INPUT /usr/share/texmf-dist/tex/latex/amsmath/amsbsy.sty
INPUT /usr/share/texmf-dist/tex/latex/amsmath/amsbsy.sty
INPUT /usr/share/texmf-dist/tex/latex/amsmath/amsopn.sty
INPUT /usr/share/texmf-dist/tex/latex/amsfonts/amssymb.sty
INPUT /usr/share/texmf-dist/tex/latex/amsfonts/amssymb.sty
INPUT /usr/share/texmf-dist/tex/latex/amsfonts/amsfonts.sty
INPUT /usr/share/texmf-dist/tex/latex/amsfonts/amsfonts.sty
INPUT /usr/share/texmf-dist/tex/latex/amscls/amsthm.sty
INPUT /usr/share/texmf-dist/tex/latex/amscls/amsthm.sty
INPUT /usr/share/texmf-dist/tex/latex/jknapltx/mathrsfs.sty
INPUT /usr/share/texmf-dist/tex/latex/jknapltx/mathrsfs.sty
INPUT /usr/share/texmf-dist/tex/latex/nicematrix/nicematrix.sty
INPUT /usr/share/texmf-dist/tex/latex/nicematrix/nicematrix.sty
INPUT /usr/share/texmf-dist/tex/latex/pgf/basiclayer/pgfcore.sty
INPUT /usr/share/texmf-dist/tex/latex/pgf/basiclayer/pgfcore.sty
INPUT /usr/share/texmf-dist/tex/latex/graphics/graphicx.sty
INPUT /usr/share/texmf-dist/tex/latex/graphics/graphicx.sty
INPUT /usr/share/texmf-dist/tex/latex/graphics/graphics.sty
INPUT /usr/share/texmf-dist/tex/latex/graphics/graphics.sty
INPUT /usr/share/texmf-dist/tex/latex/graphics/trig.sty
INPUT /usr/share/texmf-dist/tex/latex/graphics/trig.sty
INPUT /usr/share/texmf-dist/tex/latex/graphics-cfg/graphics.cfg
INPUT /usr/share/texmf-dist/tex/latex/graphics-cfg/graphics.cfg
INPUT /usr/share/texmf-dist/tex/latex/graphics-cfg/graphics.cfg
INPUT /usr/share/texmf-dist/tex/latex/graphics-def/pdftex.def
INPUT /usr/share/texmf-dist/tex/latex/graphics-def/pdftex.def
INPUT /usr/share/texmf-dist/tex/latex/graphics-def/pdftex.def
INPUT /usr/share/texmf-dist/tex/latex/pgf/systemlayer/pgfsys.sty
INPUT /usr/share/texmf-dist/tex/latex/pgf/systemlayer/pgfsys.sty
INPUT /usr/share/texmf-dist/tex/latex/pgf/utilities/pgfrcs.sty
INPUT /usr/share/texmf-dist/tex/latex/pgf/utilities/pgfrcs.sty
INPUT /usr/share/texmf-dist/tex/generic/pgf/utilities/pgfutil-common.tex
INPUT /usr/share/texmf-dist/tex/generic/pgf/utilities/pgfutil-latex.def
INPUT /usr/share/texmf-dist/tex/generic/pgf/utilities/pgfrcs.code.tex
INPUT /usr/share/texmf-dist/tex/generic/pgf/utilities/pgfrcs.code.tex
INPUT /usr/share/texmf-dist/tex/generic/pgf/utilities/pgfrcs.code.tex
INPUT /usr/share/texmf-dist/tex/generic/pgf/pgf.revision.tex
INPUT /usr/share/texmf-dist/tex/generic/pgf/pgf.revision.tex
INPUT /usr/share/texmf-dist/tex/generic/pgf/systemlayer/pgfsys.code.tex
INPUT /usr/share/texmf-dist/tex/generic/pgf/systemlayer/pgfsys.code.tex
INPUT /usr/share/texmf-dist/tex/generic/pgf/systemlayer/pgfsys.code.tex
INPUT /usr/share/texmf-dist/tex/generic/pgf/utilities/pgfkeys.code.tex
INPUT /usr/share/texmf-dist/tex/generic/pgf/utilities/pgfkeyslibraryfiltered.code.tex
INPUT /usr/share/texmf-dist/tex/generic/pgf/systemlayer/pgf.cfg
INPUT /usr/share/texmf-dist/tex/generic/pgf/systemlayer/pgfsys-pdftex.def
INPUT /usr/share/texmf-dist/tex/generic/pgf/systemlayer/pgfsys-pdftex.def
INPUT /usr/share/texmf-dist/tex/generic/pgf/systemlayer/pgfsys-common-pdf.def
INPUT /usr/share/texmf-dist/tex/generic/pgf/systemlayer/pgfsyssoftpath.code.tex
INPUT /usr/share/texmf-dist/tex/generic/pgf/systemlayer/pgfsyssoftpath.code.tex
INPUT /usr/share/texmf-dist/tex/generic/pgf/systemlayer/pgfsyssoftpath.code.tex
INPUT /usr/share/texmf-dist/tex/generic/pgf/systemlayer/pgfsysprotocol.code.tex
INPUT /usr/share/texmf-dist/tex/generic/pgf/systemlayer/pgfsysprotocol.code.tex
INPUT /usr/share/texmf-dist/tex/generic/pgf/systemlayer/pgfsysprotocol.code.tex
INPUT /usr/share/texmf-dist/tex/latex/xcolor/xcolor.sty
INPUT /usr/share/texmf-dist/tex/latex/xcolor/xcolor.sty
INPUT /usr/share/texmf-dist/tex/latex/graphics-cfg/color.cfg
INPUT /usr/share/texmf-dist/tex/latex/graphics-cfg/color.cfg
INPUT /usr/share/texmf-dist/tex/latex/graphics-cfg/color.cfg
INPUT /usr/share/texmf-dist/tex/latex/graphics/mathcolor.ltx
INPUT /usr/share/texmf-dist/tex/latex/graphics/mathcolor.ltx
INPUT /usr/share/texmf-dist/tex/latex/graphics/mathcolor.ltx
INPUT /usr/share/texmf-dist/tex/generic/pgf/basiclayer/pgfcore.code.tex
INPUT /usr/share/texmf-dist/tex/generic/pgf/basiclayer/pgfcore.code.tex
INPUT /usr/share/texmf-dist/tex/generic/pgf/basiclayer/pgfcore.code.tex
INPUT /usr/share/texmf-dist/tex/generic/pgf/math/pgfmath.code.tex
INPUT /usr/share/texmf-dist/tex/generic/pgf/math/pgfmathutil.code.tex
INPUT /usr/share/texmf-dist/tex/generic/pgf/math/pgfmathparser.code.tex
INPUT /usr/share/texmf-dist/tex/generic/pgf/math/pgfmathfunctions.code.tex
INPUT /usr/share/texmf-dist/tex/generic/pgf/math/pgfmathfunctions.basic.code.tex
INPUT /usr/share/texmf-dist/tex/generic/pgf/math/pgfmathfunctions.trigonometric.code.tex
INPUT /usr/share/texmf-dist/tex/generic/pgf/math/pgfmathfunctions.random.code.tex
INPUT /usr/share/texmf-dist/tex/generic/pgf/math/pgfmathfunctions.comparison.code.tex
INPUT /usr/share/texmf-dist/tex/generic/pgf/math/pgfmathfunctions.base.code.tex
INPUT /usr/share/texmf-dist/tex/generic/pgf/math/pgfmathfunctions.round.code.tex
INPUT /usr/share/texmf-dist/tex/generic/pgf/math/pgfmathfunctions.misc.code.tex
INPUT /usr/share/texmf-dist/tex/generic/pgf/math/pgfmathfunctions.integerarithmetics.code.tex
INPUT /usr/share/texmf-dist/tex/generic/pgf/math/pgfmathcalc.code.tex
INPUT /usr/share/texmf-dist/tex/generic/pgf/math/pgfmathfloat.code.tex
INPUT /usr/share/texmf-dist/tex/generic/pgf/math/pgfint.code.tex
INPUT /usr/share/texmf-dist/tex/generic/pgf/basiclayer/pgfcorepoints.code.tex
INPUT /usr/share/texmf-dist/tex/generic/pgf/basiclayer/pgfcorepathconstruct.code.tex
INPUT /usr/share/texmf-dist/tex/generic/pgf/basiclayer/pgfcorepathusage.code.tex
INPUT /usr/share/texmf-dist/tex/generic/pgf/basiclayer/pgfcorescopes.code.tex
INPUT /usr/share/texmf-dist/tex/generic/pgf/basiclayer/pgfcoregraphicstate.code.tex
INPUT /usr/share/texmf-dist/tex/generic/pgf/basiclayer/pgfcoretransformations.code.tex
INPUT /usr/share/texmf-dist/tex/generic/pgf/basiclayer/pgfcorequick.code.tex
INPUT /usr/share/texmf-dist/tex/generic/pgf/basiclayer/pgfcoreobjects.code.tex
INPUT /usr/share/texmf-dist/tex/generic/pgf/basiclayer/pgfcorepathprocessing.code.tex
INPUT /usr/share/texmf-dist/tex/generic/pgf/basiclayer/pgfcorearrows.code.tex
INPUT /usr/share/texmf-dist/tex/generic/pgf/basiclayer/pgfcoreshade.code.tex
INPUT /usr/share/texmf-dist/tex/generic/pgf/basiclayer/pgfcoreimage.code.tex
INPUT /usr/share/texmf-dist/tex/generic/pgf/basiclayer/pgfcoreexternal.code.tex
INPUT /usr/share/texmf-dist/tex/generic/pgf/basiclayer/pgfcorelayers.code.tex
INPUT /usr/share/texmf-dist/tex/generic/pgf/basiclayer/pgfcoretransparency.code.tex
INPUT /usr/share/texmf-dist/tex/generic/pgf/basiclayer/pgfcorepatterns.code.tex
INPUT /usr/share/texmf-dist/tex/generic/pgf/basiclayer/pgfcorerdf.code.tex
INPUT /usr/share/texmf-dist/tex/generic/pgf/modules/pgfmoduleshapes.code.tex
INPUT /usr/share/texmf-dist/tex/latex/l3packages/l3keys2e/l3keys2e.sty
INPUT /usr/share/texmf-dist/tex/latex/l3packages/l3keys2e/l3keys2e.sty
INPUT /usr/share/texmf-dist/tex/latex/l3kernel/expl3.sty
INPUT /usr/share/texmf-dist/tex/latex/l3kernel/expl3.sty
INPUT /usr/share/texmf-dist/tex/latex/l3backend/l3backend-pdftex.def
INPUT /usr/share/texmf-dist/tex/latex/l3backend/l3backend-pdftex.def
INPUT /usr/share/texmf-dist/tex/latex/tools/array.sty
INPUT /usr/share/texmf-dist/tex/latex/tools/array.sty
INPUT /usr/share/texmf-dist/tex/latex/esvect/esvect.sty
INPUT /usr/share/texmf-dist/tex/latex/esvect/esvect.sty
INPUT /usr/share/texmf-dist/tex/latex/xfrac/xfrac.sty
INPUT /usr/share/texmf-dist/tex/latex/xfrac/xfrac.sty
INPUT /usr/share/texmf-dist/tex/latex/l3packages/xtemplate/xtemplate.sty
INPUT /usr/share/texmf-dist/tex/latex/l3packages/xtemplate/xtemplate.sty
INPUT /usr/share/texmf-dist/tex/latex/l3packages/xtemplate/xtemplate-2023-10-10.sty
INPUT /usr/share/texmf-dist/tex/latex/l3packages/xtemplate/xtemplate-2023-10-10.sty
INPUT /usr/share/texmf-dist/tex/latex/l3packages/xtemplate/xtemplate-2023-10-10.sty
INPUT /home/brian/.local/share/texmf/tex/latex/local/sgtx.sty
INPUT /home/brian/.local/share/texmf/tex/latex/local/sgtx.sty
INPUT /usr/share/texmf/tex/latex/sagetex/sagetex.sty
INPUT /usr/share/texmf/tex/latex/sagetex/sagetex.sty
INPUT /usr/share/texmf-dist/tex/latex/tools/verbatim.sty
INPUT /usr/share/texmf-dist/tex/latex/tools/verbatim.sty
INPUT /usr/share/texmf-dist/tex/latex/fancyvrb/fancyvrb.sty
INPUT /usr/share/texmf-dist/tex/latex/fancyvrb/fancyvrb.sty
INPUT /usr/share/texmf-dist/tex/latex/listings/listings.sty
INPUT /usr/share/texmf-dist/tex/latex/listings/listings.sty
INPUT /usr/share/texmf-dist/tex/latex/listings/lstpatch.sty
INPUT /usr/share/texmf-dist/tex/latex/listings/lstpatch.sty
INPUT /usr/share/texmf-dist/tex/latex/listings/lstpatch.sty
INPUT /usr/share/texmf-dist/tex/latex/listings/lstmisc.sty
INPUT /usr/share/texmf-dist/tex/latex/listings/lstmisc.sty
INPUT /usr/share/texmf-dist/tex/latex/listings/lstmisc.sty
INPUT /usr/share/texmf-dist/tex/latex/listings/listings.cfg
INPUT /usr/share/texmf-dist/tex/latex/listings/listings.cfg
INPUT /usr/share/texmf-dist/tex/latex/listings/listings.cfg
INPUT /usr/share/texmf-dist/tex/latex/makecmds/makecmds.sty
INPUT /usr/share/texmf-dist/tex/latex/makecmds/makecmds.sty
INPUT /usr/share/texmf-dist/tex/generic/iftex/ifpdf.sty
INPUT /usr/share/texmf-dist/tex/generic/iftex/ifpdf.sty
INPUT /usr/share/texmf-dist/tex/generic/iftex/iftex.sty
INPUT /usr/share/texmf-dist/tex/generic/iftex/iftex.sty
INPUT /usr/share/texmf-dist/tex/generic/iftex/ifxetex.sty
INPUT /usr/share/texmf-dist/tex/generic/iftex/ifxetex.sty
INPUT /usr/share/texmf-dist/tex/generic/iftex/ifxetex.sty
INPUT ./218f24-exam02.sagetex.sout
INPUT ./218f24-exam02.sagetex.sout
INPUT 218f24-exam02.sagetex.sout
INPUT /home/brian/.local/share/texmf/tex/latex/local/grph.sty
INPUT /home/brian/.local/share/texmf/tex/latex/local/grph.sty
INPUT /home/brian/.local/share/texmf/tex/latex/local/clr.sty
INPUT /home/brian/.local/share/texmf/tex/latex/local/clr.sty
INPUT /usr/share/texmf-dist/tex/latex/pgf/frontendlayer/tikz.sty
INPUT /usr/share/texmf-dist/tex/latex/pgf/frontendlayer/tikz.sty
INPUT /usr/share/texmf-dist/tex/latex/pgf/basiclayer/pgf.sty
INPUT /usr/share/texmf-dist/tex/latex/pgf/basiclayer/pgf.sty
INPUT /usr/share/texmf-dist/tex/generic/pgf/modules/pgfmoduleplot.code.tex
INPUT /usr/share/texmf-dist/tex/latex/pgf/compatibility/pgfcomp-version-0-65.sty
INPUT /usr/share/texmf-dist/tex/latex/pgf/compatibility/pgfcomp-version-0-65.sty
INPUT /usr/share/texmf-dist/tex/latex/pgf/compatibility/pgfcomp-version-1-18.sty
INPUT /usr/share/texmf-dist/tex/latex/pgf/compatibility/pgfcomp-version-1-18.sty
INPUT /usr/share/texmf-dist/tex/latex/pgf/utilities/pgffor.sty
INPUT /usr/share/texmf-dist/tex/latex/pgf/utilities/pgffor.sty
INPUT /usr/share/texmf-dist/tex/latex/pgf/utilities/pgfkeys.sty
INPUT /usr/share/texmf-dist/tex/latex/pgf/utilities/pgfkeys.sty
INPUT /usr/share/texmf-dist/tex/generic/pgf/utilities/pgfkeys.code.tex
INPUT /usr/share/texmf-dist/tex/generic/pgf/utilities/pgfkeys.code.tex
INPUT /usr/share/texmf-dist/tex/generic/pgf/utilities/pgfkeys.code.tex
INPUT /usr/share/texmf-dist/tex/latex/pgf/math/pgfmath.sty
INPUT /usr/share/texmf-dist/tex/latex/pgf/math/pgfmath.sty
INPUT /usr/share/texmf-dist/tex/generic/pgf/math/pgfmath.code.tex
INPUT /usr/share/texmf-dist/tex/generic/pgf/math/pgfmath.code.tex
INPUT /usr/share/texmf-dist/tex/generic/pgf/math/pgfmath.code.tex
INPUT /usr/share/texmf-dist/tex/generic/pgf/utilities/pgffor.code.tex
INPUT /usr/share/texmf-dist/tex/generic/pgf/utilities/pgffor.code.tex
INPUT /usr/share/texmf-dist/tex/generic/pgf/utilities/pgffor.code.tex
INPUT /usr/share/texmf-dist/tex/generic/pgf/frontendlayer/tikz/tikz.code.tex
INPUT /usr/share/texmf-dist/tex/generic/pgf/frontendlayer/tikz/tikz.code.tex
INPUT /usr/share/texmf-dist/tex/generic/pgf/frontendlayer/tikz/tikz.code.tex
INPUT /usr/share/texmf-dist/tex/generic/pgf/libraries/pgflibraryplothandlers.code.tex
INPUT /usr/share/texmf-dist/tex/generic/pgf/libraries/pgflibraryplothandlers.code.tex
INPUT /usr/share/texmf-dist/tex/generic/pgf/modules/pgfmodulematrix.code.tex
INPUT /usr/share/texmf-dist/tex/generic/pgf/frontendlayer/tikz/libraries/tikzlibrarytopaths.code.tex
INPUT /usr/share/texmf-dist/tex/generic/pgf/frontendlayer/tikz/libraries/tikzlibrarytopaths.code.tex
INPUT /usr/share/texmf-dist/tex/generic/pgf/frontendlayer/tikz/libraries/tikzlibrarypositioning.code.tex
INPUT /usr/share/texmf-dist/tex/generic/pgf/frontendlayer/tikz/libraries/tikzlibrarypositioning.code.tex
INPUT /usr/share/texmf-dist/tex/latex/tcolorbox/tcolorbox.sty
INPUT /usr/share/texmf-dist/tex/latex/tcolorbox/tcolorbox.sty
INPUT /usr/share/texmf-dist/tex/latex/environ/environ.sty
INPUT /usr/share/texmf-dist/tex/latex/environ/environ.sty
INPUT /usr/share/texmf-dist/tex/latex/trimspaces/trimspaces.sty
INPUT /usr/share/texmf-dist/tex/latex/trimspaces/trimspaces.sty
INPUT /usr/share/texmf-dist/tex/latex/tools/afterpage.sty
INPUT /usr/share/texmf-dist/tex/latex/tools/afterpage.sty
INPUT /usr/share/texmf-dist/tex/latex/booktabs/booktabs.sty
INPUT /usr/share/texmf-dist/tex/latex/booktabs/booktabs.sty
INPUT /usr/share/texmf-dist/tex/latex/currfile/currfile.sty
INPUT /usr/share/texmf-dist/tex/latex/currfile/currfile.sty
INPUT /usr/share/texmf-dist/tex/latex/kvoptions/kvoptions.sty
INPUT /usr/share/texmf-dist/tex/latex/kvoptions/kvoptions.sty
INPUT /usr/share/texmf-dist/tex/generic/ltxcmds/ltxcmds.sty
INPUT /usr/share/texmf-dist/tex/generic/ltxcmds/ltxcmds.sty
INPUT /usr/share/texmf-dist/tex/latex/kvsetkeys/kvsetkeys.sty
INPUT /usr/share/texmf-dist/tex/latex/kvsetkeys/kvsetkeys.sty
INPUT /usr/share/texmf-dist/tex/latex/filehook/filehook.sty
INPUT /usr/share/texmf-dist/tex/latex/filehook/filehook.sty
INPUT /usr/share/texmf-dist/tex/latex/filehook/filehook-2020.sty
INPUT /usr/share/texmf-dist/tex/latex/filehook/filehook-2020.sty
INPUT /usr/share/texmf-dist/tex/generic/xstring/xstring.sty
INPUT /usr/share/texmf-dist/tex/generic/xstring/xstring.sty
INPUT /usr/share/texmf-dist/tex/generic/xstring/xstring.tex
INPUT /usr/share/texmf-dist/tex/latex/datetime2/datetime2.sty
INPUT /usr/share/texmf-dist/tex/latex/datetime2/datetime2.sty
INPUT /usr/share/texmf-dist/tex/latex/tracklang/tracklang.sty
INPUT /usr/share/texmf-dist/tex/latex/tracklang/tracklang.sty
INPUT /usr/share/texmf-dist/tex/generic/tracklang/tracklang.tex
INPUT /usr/share/texmf-dist/tex/generic/tracklang/tracklang.tex
INPUT /usr/share/texmf-dist/tex/generic/tracklang/tracklang.tex
INPUT /usr/share/texmf-dist/tex/generic/tracklang/tracklang.tex
INPUT /usr/share/texmf-dist/tex/generic/tracklang/tracklang.tex
INPUT /usr/share/texmf-dist/tex/latex/xkeyval/xkeyval.sty
INPUT /usr/share/texmf-dist/tex/latex/xkeyval/xkeyval.sty
INPUT /usr/share/texmf-dist/tex/generic/xkeyval/xkeyval.tex
INPUT /usr/share/texmf-dist/tex/generic/xkeyval/xkvutils.tex
INPUT /usr/share/texmf-dist/tex/latex/datetime2-english/datetime2-en-US.ldf
INPUT /usr/share/texmf-dist/tex/latex/datetime2-english/datetime2-en-US.ldf
INPUT /usr/share/texmf-dist/tex/latex/datetime2-english/datetime2-en-US.ldf
INPUT /usr/share/texmf-dist/tex/latex/datetime2-english/datetime2-english-base.ldf
INPUT /usr/share/texmf-dist/tex/latex/datetime2-english/datetime2-english-base.ldf
INPUT /usr/share/texmf-dist/tex/latex/datetime2-english/datetime2-english-base.ldf
INPUT ../../courseinfo.tex
INPUT ../../courseinfo.tex
INPUT ../../courseinfo.tex
INPUT ./218f24-exam02.aux
INPUT ./218f24-exam02.aux
INPUT 218f24-exam02.aux
OUTPUT 218f24-exam02.aux
INPUT /usr/share/texmf-dist/tex/context/base/mkii/supp-pdf.mkii
INPUT /usr/share/texmf-dist/tex/context/base/mkii/supp-pdf.mkii
INPUT /usr/share/texmf-dist/tex/context/base/mkii/supp-pdf.mkii
INPUT /usr/share/texmf-dist/tex/latex/epstopdf-pkg/epstopdf-base.sty
INPUT /usr/share/texmf-dist/tex/latex/epstopdf-pkg/epstopdf-base.sty
INPUT /usr/share/texmf-dist/tex/latex/latexconfig/epstopdf-sys.cfg
INPUT /usr/share/texmf-dist/tex/latex/latexconfig/epstopdf-sys.cfg
INPUT /usr/share/texmf-dist/tex/latex/latexconfig/epstopdf-sys.cfg
OUTPUT 218f24-exam02.sagetex.sage
INPUT /home/brian/.local/share/texmf/tex/latex/local/sgtx.tex
INPUT /home/brian/.local/share/texmf/tex/latex/local/sgtx.tex
INPUT /home/brian/.local/share/texmf/tex/latex/local/sgtx.tex
INPUT /usr/share/texmf-dist/fonts/map/fontname/texfonts.map
INPUT /usr/share/texmf-dist/fonts/tfm/public/cm/cmcsc10.tfm
INPUT /usr/share/texmf-dist/fonts/tfm/public/cm/cmcsc10.tfm
INPUT /usr/share/texmf-dist/fonts/tfm/public/cm/cmcsc10.tfm
INPUT /usr/share/texmf-dist/fonts/tfm/public/cm/cmcsc10.tfm
INPUT /usr/share/texmf-dist/fonts/tfm/public/cm/cmr17.tfm
INPUT /usr/share/texmf-dist/fonts/tfm/public/cm/cmbx12.tfm
INPUT /usr/share/texmf-dist/fonts/tfm/public/cm/cmr12.tfm
INPUT /usr/share/texmf-dist/fonts/tfm/public/cm/cmti12.tfm
INPUT /usr/share/texmf-dist/fonts/tfm/public/amsfonts/cmextra/cmex7.tfm
INPUT /usr/share/texmf-dist/fonts/tfm/public/amsfonts/cmextra/cmex7.tfm
INPUT /usr/share/texmf-dist/tex/latex/amsfonts/umsa.fd
INPUT /usr/share/texmf-dist/tex/latex/amsfonts/umsa.fd
INPUT /usr/share/texmf-dist/tex/latex/amsfonts/umsa.fd
INPUT /usr/share/texmf-dist/fonts/tfm/public/amsfonts/symbols/msam10.tfm
INPUT /usr/share/texmf-dist/fonts/tfm/public/amsfonts/symbols/msam7.tfm
INPUT /usr/share/texmf-dist/fonts/tfm/public/amsfonts/symbols/msam5.tfm
INPUT /usr/share/texmf-dist/tex/latex/amsfonts/umsb.fd
INPUT /usr/share/texmf-dist/tex/latex/amsfonts/umsb.fd
INPUT /usr/share/texmf-dist/tex/latex/amsfonts/umsb.fd
INPUT /usr/share/texmf-dist/fonts/tfm/public/amsfonts/symbols/msbm10.tfm
INPUT /usr/share/texmf-dist/fonts/tfm/public/amsfonts/symbols/msbm7.tfm
INPUT /usr/share/texmf-dist/fonts/tfm/public/amsfonts/symbols/msbm5.tfm
INPUT /usr/share/texmf-dist/tex/latex/jknapltx/ursfs.fd
INPUT /usr/share/texmf-dist/tex/latex/jknapltx/ursfs.fd
INPUT /usr/share/texmf-dist/tex/latex/jknapltx/ursfs.fd
INPUT /usr/share/texmf-dist/fonts/tfm/public/rsfs/rsfs10.tfm
INPUT /usr/share/texmf-dist/fonts/tfm/public/rsfs/rsfs7.tfm
INPUT /usr/share/texmf-dist/fonts/tfm/public/rsfs/rsfs5.tfm
INPUT /usr/share/texmf-dist/tex/latex/esvect/uesvect.fd
INPUT /usr/share/texmf-dist/tex/latex/esvect/uesvect.fd
INPUT /usr/share/texmf-dist/tex/latex/esvect/uesvect.fd
INPUT /usr/share/texmf-dist/fonts/tfm/public/esvect/vect10.tfm
INPUT /usr/share/texmf-dist/fonts/tfm/public/esvect/vect7.tfm
INPUT /usr/share/texmf-dist/fonts/tfm/public/esvect/vect5.tfm
INPUT /usr/share/texmf-dist/fonts/tfm/public/cm/cmti10.tfm
INPUT /usr/share/texmf-dist/fonts/tfm/jknappen/ec/tcrm1000.tfm
INPUT ../../dukemath.pdf
INPUT ../../dukemath.pdf
INPUT ../../dukemath.pdf
INPUT ../../dukemath.pdf
OUTPUT 218f24-exam02.pdf
INPUT ../../dukemath.pdf
INPUT /var/lib/texmf/fonts/map/pdftex/updmap/pdftex.map
INPUT /usr/share/texmf-dist/fonts/enc/dvips/cm-super/cm-super-ts1.enc
INPUT /usr/share/texmf-dist/fonts/tfm/public/cm/cmbx10.tfm
INPUT /usr/share/texmf-dist/fonts/tfm/public/cm/cmbx7.tfm
INPUT /usr/share/texmf-dist/fonts/tfm/public/cm/cmbx5.tfm
INPUT /usr/share/texmf-dist/fonts/tfm/public/cm/cmmib10.tfm
INPUT /usr/share/texmf-dist/fonts/tfm/public/amsfonts/cmextra/cmmib7.tfm
INPUT /usr/share/texmf-dist/fonts/tfm/public/amsfonts/cmextra/cmmib5.tfm
INPUT /usr/share/texmf-dist/fonts/tfm/public/cm/cmbsy10.tfm
INPUT /usr/share/texmf-dist/fonts/tfm/public/amsfonts/cmextra/cmbsy7.tfm
INPUT /usr/share/texmf-dist/fonts/tfm/public/amsfonts/cmextra/cmbsy5.tfm
INPUT 218f24-exam02.aux
INPUT /usr/share/texmf-dist/fonts/type1/public/amsfonts/cm/cmbx10.pfb
INPUT /usr/share/texmf-dist/fonts/type1/public/amsfonts/cm/cmbx12.pfb
INPUT /usr/share/texmf-dist/fonts/type1/public/amsfonts/cm/cmcsc10.pfb
INPUT /usr/share/texmf-dist/fonts/type1/public/amsfonts/cm/cmex10.pfb
INPUT /usr/share/texmf-dist/fonts/type1/public/amsfonts/cm/cmmi10.pfb
INPUT /usr/share/texmf-dist/fonts/type1/public/amsfonts/cm/cmmi7.pfb
INPUT /usr/share/texmf-dist/fonts/type1/public/amsfonts/cm/cmmib10.pfb
INPUT /usr/share/texmf-dist/fonts/type1/public/amsfonts/cm/cmr10.pfb
INPUT /usr/share/texmf-dist/fonts/type1/public/amsfonts/cm/cmr12.pfb
INPUT /usr/share/texmf-dist/fonts/type1/public/amsfonts/cm/cmr7.pfb
INPUT /usr/share/texmf-dist/fonts/type1/public/amsfonts/cm/cmsy10.pfb
INPUT /usr/share/texmf-dist/fonts/type1/public/amsfonts/cm/cmsy7.pfb
INPUT /usr/share/texmf-dist/fonts/type1/public/amsfonts/cm/cmti10.pfb
INPUT /usr/share/texmf-dist/fonts/type1/public/amsfonts/cm/cmti12.pfb
INPUT /usr/share/texmf-dist/fonts/type1/public/amsfonts/symbols/msam7.pfb
INPUT /usr/share/texmf-dist/fonts/type1/public/amsfonts/symbols/msbm10.pfb
INPUT /usr/share/texmf-dist/fonts/type1/public/cm-super/sfrm1000.pfb
