\relax 
\nicematrix@redefine@check@rerun 
\PgInfo{question@1}{1}
\PgInfo{question1@object1}{1}
\newlabel{question@1}{{\textbf  {Problem 1}}{1}{}{}{}}
\PgInfo{part@1@1}{1}
\PgInfo{question1@object2}{1}
\newlabel{part@1@1}{{a}{1}{}{}{}}
\newlabel{firstpoints@onpage@1}{{a}{1}{}{}{}}
\PgInfo{part@1@2}{1}
\PgInfo{question1@object3}{1}
\newlabel{part@1@2}{{b}{1}{}{}{}}
\PgInfo{question1@object4}{1}
\PgInfo{question1@object5}{1}
\PgInfo{question1@object6}{1}
\PgInfo{question1@object7}{1}
\PgInfo{question1@object8}{1}
\PgInfo{part@1@3}{1}
\PgInfo{question1@object9}{1}
\newlabel{part@1@3}{{c}{1}{}{}{}}
\PgInfo{question1@object10}{1}
\PgInfo{question1@object11}{1}
\PgInfo{question1@object12}{1}
\PgInfo{question1@object13}{1}
\PgInfo{part@1@4}{1}
\PgInfo{question1@object14}{1}
\newlabel{part@1@4}{{d}{1}{}{}{}}
\PgInfo{part@1@5}{1}
\PgInfo{question1@object15}{1}
\newlabel{part@1@5}{{e}{1}{}{}{}}
\PgInfo{question1@object16}{1}
\PgInfo{question1@object17}{1}
\PgInfo{question1@object18}{1}
\PgInfo{question1@object19}{1}
\PgInfo{question1@object20}{1}
\PgInfo{question1@object21}{1}
\gdef\pointsofq@i{28}
\gdef\bonuspointsofq@i{0}
\ExplSyntaxOn \cs_if_free:NT \pgfsyspdfmark {\cs_set_eq:NN \pgfsyspdfmark \@gobblethree }\ExplSyntaxOff 
\ExplSyntaxOn 
\char_set_catcode_space:n {32}
\tl_gset:cn {c__nicematrix_1_tl}{\seq_gset_from_clist:Nn \g__nicematrix_size_seq {1,6,6,1,7,7}}
\ExplSyntaxOff 
\ExplSyntaxOn 
\char_set_catcode_space:n {32}
\tl_gset:cn {c__nicematrix_2_tl}{\seq_gset_from_clist:Nn \g__nicematrix_size_seq {1,7,7,1,6,6}}
\ExplSyntaxOff 
\gdef\pointsonpage@i{28}
\ExplSyntaxOn 
\char_set_catcode_space:n {32}
\tl_gset:cn {c__nicematrix_3_tl}{\seq_gset_from_clist:Nn \g__nicematrix_size_seq {1,1,1,1,6,6}}
\ExplSyntaxOff 
\ExplSyntaxOn 
\char_set_catcode_space:n {32}
\tl_gset:cn {c__nicematrix_4_tl}{\seq_gset_from_clist:Nn \g__nicematrix_size_seq {1,1,1,1,6,6}}
\ExplSyntaxOff 
\ExplSyntaxOn 
\char_set_catcode_space:n {32}
\tl_gset:cn {c__nicematrix_5_tl}{\seq_gset_from_clist:Nn \g__nicematrix_size_seq {1,1,1,1,6,6}}
\ExplSyntaxOff 
\ExplSyntaxOn 
\char_set_catcode_space:n {32}
\tl_gset:cn {c__nicematrix_6_tl}{\seq_gset_from_clist:Nn \g__nicematrix_size_seq {1,1,1,1,6,6}}
\ExplSyntaxOff 
\PgInfo{question@2}{2}
\PgInfo{question2@object1}{2}
\newlabel{question@2}{{\textbf  {Problem 2}}{2}{}{}{}}
\pgfsyspdfmark {pgfid3}{16255721}{49363981}
\pgfsyspdfmark {pgfid4}{16583402}{48813481}
\pgfsyspdfmark {pgfid5}{16747242}{48813481}
\pgfsyspdfmark {pgfid6}{17730283}{48813481}
\pgfsyspdfmark {pgfid7}{18713324}{48813481}
\pgfsyspdfmark {pgfid8}{19696365}{48813481}
\pgfsyspdfmark {pgfid9}{20934269}{48813481}
\pgfsyspdfmark {pgfid10}{22172173}{48813481}
\pgfsyspdfmark {pgfid11}{23155214}{48813481}
\pgfsyspdfmark {pgfid12}{16255721}{48577549}
\pgfsyspdfmark {pgfid13}{16583402}{48027049}
\pgfsyspdfmark {pgfid14}{16747242}{48027049}
\pgfsyspdfmark {pgfid15}{17730283}{48027049}
\pgfsyspdfmark {pgfid16}{18713324}{48027049}
\pgfsyspdfmark {pgfid17}{19696365}{48027049}
\pgfsyspdfmark {pgfid18}{21189132}{48027049}
\pgfsyspdfmark {pgfid19}{22172173}{48027049}
\pgfsyspdfmark {pgfid20}{23155214}{48027049}
\pgfsyspdfmark {pgfid21}{16255721}{47791117}
\pgfsyspdfmark {pgfid22}{16583402}{47240617}
\pgfsyspdfmark {pgfid23}{16747242}{47240617}
\pgfsyspdfmark {pgfid24}{17730283}{47240617}
\pgfsyspdfmark {pgfid25}{18713324}{47240617}
\pgfsyspdfmark {pgfid26}{19696365}{47240617}
\pgfsyspdfmark {pgfid27}{20934269}{47240617}
\pgfsyspdfmark {pgfid28}{22172173}{47240617}
\pgfsyspdfmark {pgfid29}{23155214}{47240617}
\pgfsyspdfmark {pgfid30}{16255721}{47004685}
\pgfsyspdfmark {pgfid31}{16583402}{46454185}
\pgfsyspdfmark {pgfid32}{16747242}{46454185}
\pgfsyspdfmark {pgfid33}{17730283}{46454185}
\pgfsyspdfmark {pgfid34}{18713324}{46454185}
\pgfsyspdfmark {pgfid35}{19696365}{46454185}
\pgfsyspdfmark {pgfid36}{20934269}{46454185}
\pgfsyspdfmark {pgfid37}{22172173}{46454185}
\pgfsyspdfmark {pgfid38}{23155214}{46454185}
\pgfsyspdfmark {pgfid39}{16255721}{46218253}
\pgfsyspdfmark {pgfid40}{16583402}{45667753}
\pgfsyspdfmark {pgfid41}{16747242}{45667753}
\pgfsyspdfmark {pgfid42}{17730283}{45667753}
\pgfsyspdfmark {pgfid43}{18713324}{45667753}
\pgfsyspdfmark {pgfid44}{19696365}{45667753}
\pgfsyspdfmark {pgfid45}{21189132}{45667753}
\pgfsyspdfmark {pgfid46}{22172173}{45667753}
\pgfsyspdfmark {pgfid47}{23155214}{45667753}
\pgfsyspdfmark {pgfid48}{16255721}{45431821}
\pgfsyspdfmark {pgfid49}{16583402}{44881321}
\pgfsyspdfmark {pgfid50}{16747242}{44881321}
\pgfsyspdfmark {pgfid51}{17730283}{44881321}
\pgfsyspdfmark {pgfid52}{18713324}{44881321}
\pgfsyspdfmark {pgfid53}{19696365}{44881321}
\pgfsyspdfmark {pgfid54}{21189132}{44881321}
\pgfsyspdfmark {pgfid55}{22172173}{44881321}
\pgfsyspdfmark {pgfid56}{23155214}{44881321}
\pgfsyspdfmark {pgfid57}{16255721}{44645389}
\pgfsyspdfmark {pgfid58}{16255721}{44645389}
\pgfsyspdfmark {pgfid59}{17238762}{44645389}
\pgfsyspdfmark {pgfid60}{18221803}{44645389}
\pgfsyspdfmark {pgfid61}{19204844}{44645389}
\pgfsyspdfmark {pgfid62}{20187885}{44645389}
\pgfsyspdfmark {pgfid63}{21680652}{44645389}
\pgfsyspdfmark {pgfid64}{22663693}{44645389}
\pgfsyspdfmark {pgfid65}{23646734}{44645389}
\pgfsyspdfmark {pgfid66}{23755962}{46814631}
\pgfsyspdfmark {pgfid68}{23755962}{46814631}
\pgfsyspdfmark {pgfid69}{28618371}{49757197}
\pgfsyspdfmark {pgfid70}{28946052}{49206697}
\pgfsyspdfmark {pgfid71}{29109892}{49206697}
\pgfsyspdfmark {pgfid72}{30092933}{49206697}
\pgfsyspdfmark {pgfid73}{31075974}{49206697}
\pgfsyspdfmark {pgfid74}{32059015}{49206697}
\pgfsyspdfmark {pgfid75}{33042056}{49206697}
\pgfsyspdfmark {pgfid76}{34025097}{49206697}
\pgfsyspdfmark {pgfid77}{28618371}{48970765}
\pgfsyspdfmark {pgfid78}{28946052}{48420265}
\pgfsyspdfmark {pgfid79}{29109892}{48420265}
\pgfsyspdfmark {pgfid80}{30092933}{48420265}
\pgfsyspdfmark {pgfid81}{31075974}{48420265}
\pgfsyspdfmark {pgfid82}{32059015}{48420265}
\pgfsyspdfmark {pgfid83}{33042056}{48420265}
\pgfsyspdfmark {pgfid84}{34025097}{48420265}
\pgfsyspdfmark {pgfid85}{28618371}{48184333}
\pgfsyspdfmark {pgfid86}{28946052}{47633833}
\pgfsyspdfmark {pgfid87}{29109892}{47633833}
\pgfsyspdfmark {pgfid88}{30092933}{47633833}
\pgfsyspdfmark {pgfid89}{31075974}{47633833}
\pgfsyspdfmark {pgfid90}{32059015}{47633833}
\pgfsyspdfmark {pgfid91}{33042056}{47633833}
\pgfsyspdfmark {pgfid92}{34025097}{47633833}
\pgfsyspdfmark {pgfid93}{28618371}{47397901}
\pgfsyspdfmark {pgfid94}{28946052}{46847401}
\pgfsyspdfmark {pgfid95}{29109892}{46847401}
\pgfsyspdfmark {pgfid96}{30092933}{46847401}
\pgfsyspdfmark {pgfid97}{31075974}{46847401}
\pgfsyspdfmark {pgfid98}{32059015}{46847401}
\pgfsyspdfmark {pgfid99}{33042056}{46847401}
\pgfsyspdfmark {pgfid100}{34025097}{46847401}
\pgfsyspdfmark {pgfid101}{28618371}{46611469}
\pgfsyspdfmark {pgfid102}{28946052}{46060969}
\pgfsyspdfmark {pgfid103}{29109892}{46060969}
\pgfsyspdfmark {pgfid104}{30092933}{46060969}
\pgfsyspdfmark {pgfid105}{31075974}{46060969}
\pgfsyspdfmark {pgfid106}{32059015}{46060969}
\pgfsyspdfmark {pgfid107}{33042056}{46060969}
\pgfsyspdfmark {pgfid108}{34025097}{46060969}
\pgfsyspdfmark {pgfid109}{28618371}{45825037}
\pgfsyspdfmark {pgfid110}{28946052}{45274537}
\pgfsyspdfmark {pgfid111}{29109892}{45274537}
\pgfsyspdfmark {pgfid112}{30092933}{45274537}
\pgfsyspdfmark {pgfid113}{31075974}{45274537}
\pgfsyspdfmark {pgfid114}{32059015}{45274537}
\pgfsyspdfmark {pgfid115}{33042056}{45274537}
\pgfsyspdfmark {pgfid116}{34025097}{45274537}
\pgfsyspdfmark {pgfid117}{28618371}{45038605}
\pgfsyspdfmark {pgfid118}{28946052}{44488105}
\pgfsyspdfmark {pgfid119}{29109892}{44488105}
\pgfsyspdfmark {pgfid120}{30092933}{44488105}
\pgfsyspdfmark {pgfid121}{31075974}{44488105}
\pgfsyspdfmark {pgfid122}{32059015}{44488105}
\pgfsyspdfmark {pgfid123}{33042056}{44488105}
\pgfsyspdfmark {pgfid124}{34025097}{44488105}
\pgfsyspdfmark {pgfid125}{28618371}{44252173}
\pgfsyspdfmark {pgfid126}{28618371}{44252173}
\pgfsyspdfmark {pgfid127}{29601412}{44252173}
\pgfsyspdfmark {pgfid128}{30584453}{44252173}
\pgfsyspdfmark {pgfid129}{31567494}{44252173}
\pgfsyspdfmark {pgfid130}{32550535}{44252173}
\pgfsyspdfmark {pgfid131}{33533576}{44252173}
\pgfsyspdfmark {pgfid132}{34516617}{44252173}
\pgfsyspdfmark {pgfid133}{34625845}{46814631}
\pgfsyspdfmark {pgfid135}{34625845}{46814631}
\PgInfo{part@2@1}{2}
\PgInfo{question2@object2}{2}
\newlabel{part@2@1}{{a}{2}{}{}{}}
\newlabel{firstpoints@onpage@2}{{a}{2}{}{}{}}
\PgInfo{part@2@2}{2}
\PgInfo{question2@object3}{2}
\newlabel{part@2@2}{{b}{2}{}{}{}}
\PgInfo{question2@object4}{2}
\PgInfo{question2@object5}{2}
\PgInfo{question2@object6}{2}
\PgInfo{question2@object7}{2}
\PgInfo{question2@object8}{2}
\PgInfo{part@2@3}{2}
\PgInfo{question2@object9}{2}
\newlabel{part@2@3}{{c}{2}{}{}{}}
\PgInfo{question2@object10}{2}
\PgInfo{question2@object11}{2}
\PgInfo{question2@object12}{2}
\PgInfo{question2@object13}{2}
\PgInfo{part@2@4}{2}
\PgInfo{question2@object14}{2}
\newlabel{part@2@4}{{d}{2}{}{}{}}
\PgInfo{part@2@5}{2}
\PgInfo{question2@object15}{2}
\newlabel{part@2@5}{{e}{2}{}{}{}}
\gdef\pointsofq@ii{31}
\gdef\bonuspointsofq@ii{0}
\ExplSyntaxOn 
\char_set_catcode_space:n {32}
\tl_gset:cn {c__nicematrix_7_tl}{\seq_gset_from_clist:Nn \g__nicematrix_size_seq {1,4,4,1,4,4}}
\ExplSyntaxOff 
\gdef\pointsonpage@ii{31}
\ExplSyntaxOn 
\char_set_catcode_space:n {32}
\tl_gset:cn {c__nicematrix_8_tl}{\seq_gset_from_clist:Nn \g__nicematrix_size_seq {1,4,4,1,4,4}}
\ExplSyntaxOff 
\ExplSyntaxOn 
\char_set_catcode_space:n {32}
\tl_gset:cn {c__nicematrix_9_tl}{\seq_gset_from_clist:Nn \g__nicematrix_size_seq {1,4,4,1,4,4}}
\ExplSyntaxOff 
\ExplSyntaxOn 
\char_set_catcode_space:n {32}
\tl_gset:cn {c__nicematrix_10_tl}{\seq_gset_from_clist:Nn \g__nicematrix_size_seq {1,4,4,1,4,4}}
\ExplSyntaxOff 
\ExplSyntaxOn 
\char_set_catcode_space:n {32}
\tl_gset:cn {c__nicematrix_11_tl}{\seq_gset_from_clist:Nn \g__nicematrix_size_seq {1,4,4,1,4,4}}
\ExplSyntaxOff 
\ExplSyntaxOn 
\char_set_catcode_space:n {32}
\tl_gset:cn {c__nicematrix_12_tl}{\seq_gset_from_clist:Nn \g__nicematrix_size_seq {1,4,4,1,4,4}}
\ExplSyntaxOff 
\ExplSyntaxOn 
\char_set_catcode_space:n {32}
\tl_gset:cn {c__nicematrix_13_tl}{\seq_gset_from_clist:Nn \g__nicematrix_size_seq {1,4,4,1,4,4}}
\ExplSyntaxOff 
\ExplSyntaxOn 
\char_set_catcode_space:n {32}
\tl_gset:cn {c__nicematrix_14_tl}{\seq_gset_from_clist:Nn \g__nicematrix_size_seq {1,4,4,1,1,1}}
\ExplSyntaxOff 
\ExplSyntaxOn 
\char_set_catcode_space:n {32}
\tl_gset:cn {c__nicematrix_15_tl}{\seq_gset_from_clist:Nn \g__nicematrix_size_seq {1,4,4,1,1,1}}
\ExplSyntaxOff 
\ExplSyntaxOn 
\char_set_catcode_space:n {32}
\tl_gset:cn {c__nicematrix_16_tl}{\seq_gset_from_clist:Nn \g__nicematrix_size_seq {1,1,1,1,4,4}}
\ExplSyntaxOff 
\ExplSyntaxOn 
\char_set_catcode_space:n {32}
\tl_gset:cn {c__nicematrix_17_tl}{\seq_gset_from_clist:Nn \g__nicematrix_size_seq {1,1,1,1,4,4}}
\ExplSyntaxOff 
\ExplSyntaxOn 
\char_set_catcode_space:n {32}
\tl_gset:cn {c__nicematrix_18_tl}{\seq_gset_from_clist:Nn \g__nicematrix_size_seq {1,1,1,1,4,4}}
\ExplSyntaxOff 
\ExplSyntaxOn 
\char_set_catcode_space:n {32}
\tl_gset:cn {c__nicematrix_19_tl}{\seq_gset_from_clist:Nn \g__nicematrix_size_seq {1,1,1,1,4,4}}
\ExplSyntaxOff 
\ExplSyntaxOn 
\char_set_catcode_space:n {32}
\tl_gset:cn {c__nicematrix_20_tl}{\seq_gset_from_clist:Nn \g__nicematrix_size_seq {1,4,4,1,1,1}}
\ExplSyntaxOff 
\ExplSyntaxOn 
\char_set_catcode_space:n {32}
\tl_gset:cn {c__nicematrix_21_tl}{\seq_gset_from_clist:Nn \g__nicematrix_size_seq {1,4,4,1,1,1}}
\ExplSyntaxOff 
\ExplSyntaxOn 
\char_set_catcode_space:n {32}
\tl_gset:cn {c__nicematrix_22_tl}{\seq_gset_from_clist:Nn \g__nicematrix_size_seq {1,4,4,1,1,1}}
\ExplSyntaxOff 
\PgInfo{question@3}{3}
\PgInfo{question3@object1}{3}
\newlabel{question@3}{{\textbf  {Problem 3}}{3}{}{}{}}
\pgfsyspdfmark {pgfid213}{16390434}{49757209}
\pgfsyspdfmark {pgfid214}{17555523}{49206709}
\pgfsyspdfmark {pgfid215}{17719363}{49206709}
\pgfsyspdfmark {pgfid216}{18957267}{49206709}
\pgfsyspdfmark {pgfid217}{21032579}{49206709}
\pgfsyspdfmark {pgfid218}{22270483}{49206709}
\pgfsyspdfmark {pgfid219}{16390434}{48970777}
\pgfsyspdfmark {pgfid220}{17227841}{48420277}
\pgfsyspdfmark {pgfid221}{17555522}{48420277}
\pgfsyspdfmark {pgfid222}{19212130}{48420277}
\pgfsyspdfmark {pgfid223}{20868738}{48420277}
\pgfsyspdfmark {pgfid224}{22270483}{48420277}
\pgfsyspdfmark {pgfid225}{16390434}{48184345}
\pgfsyspdfmark {pgfid226}{17045797}{47633845}
\pgfsyspdfmark {pgfid227}{17464500}{47633845}
\pgfsyspdfmark {pgfid228}{19212130}{47633845}
\pgfsyspdfmark {pgfid229}{21032579}{47633845}
\pgfsyspdfmark {pgfid230}{22525346}{47633845}
\pgfsyspdfmark {pgfid231}{16390434}{47397913}
\pgfsyspdfmark {pgfid232}{16718115}{46847413}
\pgfsyspdfmark {pgfid233}{17300659}{46847413}
\pgfsyspdfmark {pgfid234}{19212130}{46847413}
\pgfsyspdfmark {pgfid235}{20613875}{46847413}
\pgfsyspdfmark {pgfid236}{22525346}{46847413}
\pgfsyspdfmark {pgfid237}{16390434}{46611481}
\pgfsyspdfmark {pgfid238}{16390434}{46611481}
\pgfsyspdfmark {pgfid239}{18210883}{46611481}
\pgfsyspdfmark {pgfid240}{19703650}{46611481}
\pgfsyspdfmark {pgfid241}{21524099}{46611481}
\pgfsyspdfmark {pgfid242}{23016866}{46611481}
\pgfsyspdfmark {pgfid243}{23126094}{47994291}
\pgfsyspdfmark {pgfid245}{23126094}{47994291}
\PgInfo{part@3@1}{3}
\PgInfo{question3@object2}{3}
\newlabel{part@3@1}{{a}{3}{}{}{}}
\newlabel{firstpoints@onpage@3}{{a}{3}{}{}{}}
\PgInfo{part@3@2}{3}
\PgInfo{question3@object3}{3}
\newlabel{part@3@2}{{b}{3}{}{}{}}
\PgInfo{question3@object4}{3}
\PgInfo{question3@object5}{3}
\PgInfo{question3@object6}{3}
\PgInfo{question3@object7}{3}
\PgInfo{question3@object8}{3}
\PgInfo{question3@object9}{3}
\PgInfo{part@3@3}{3}
\PgInfo{question3@object10}{3}
\newlabel{part@3@3}{{c}{3}{}{}{}}
\pgfsyspdfmark {pgfid482}{7394341}{23695398}
\pgfsyspdfmark {pgfid483}{7722022}{23144898}
\pgfsyspdfmark {pgfid484}{7885862}{23144898}
\pgfsyspdfmark {pgfid485}{8868903}{23144898}
\pgfsyspdfmark {pgfid486}{9851944}{23144898}
\pgfsyspdfmark {pgfid487}{10834985}{23144898}
\pgfsyspdfmark {pgfid488}{7394341}{22908966}
\pgfsyspdfmark {pgfid489}{7394341}{22908966}
\pgfsyspdfmark {pgfid490}{8377382}{22908966}
\pgfsyspdfmark {pgfid491}{9360423}{22908966}
\pgfsyspdfmark {pgfid492}{10343464}{22908966}
\pgfsyspdfmark {pgfid493}{11326505}{22908966}
\pgfsyspdfmark {pgfid494}{11271893}{23112128}
\pgfsyspdfmark {pgfid496}{11271893}{23112128}
\pgfsyspdfmark {pgfid497}{24855584}{22807923}
\pgfsyspdfmark {pgfid498}{25183265}{22257423}
\pgfsyspdfmark {pgfid499}{25601968}{22257423}
\pgfsyspdfmark {pgfid500}{27094735}{22257423}
\pgfsyspdfmark {pgfid501}{28332639}{22257423}
\pgfsyspdfmark {pgfid502}{29315680}{22257423}
\pgfsyspdfmark {pgfid503}{24855584}{22021491}
\pgfsyspdfmark {pgfid504}{24855584}{22021491}
\pgfsyspdfmark {pgfid505}{26348351}{22021491}
\pgfsyspdfmark {pgfid506}{27841118}{22021491}
\pgfsyspdfmark {pgfid507}{28824159}{22021491}
\pgfsyspdfmark {pgfid508}{29807200}{22021491}
\pgfsyspdfmark {pgfid509}{29752588}{22224653}
\pgfsyspdfmark {pgfid511}{29752588}{22224653}
\gdef\pointsofq@iii{29}
\gdef\bonuspointsofq@iii{0}
\gdef\pointsonpage@iii{29}
\ExplSyntaxOn 
\char_set_catcode_space:n {32}
\tl_gset:cn {c__nicematrix_23_tl}{\seq_gset_from_clist:Nn \g__nicematrix_size_seq {1,3,3,1,9,9}}
\ExplSyntaxOff 
\ExplSyntaxOn 
\char_set_catcode_space:n {32}
\tl_gset:cn {c__nicematrix_24_tl}{\seq_gset_from_clist:Nn \g__nicematrix_size_seq {1,3,3,1,2,2}}
\ExplSyntaxOff 
\ExplSyntaxOn 
\char_set_catcode_space:n {32}
\tl_gset:cn {c__nicematrix_25_tl}{\seq_gset_from_clist:Nn \g__nicematrix_size_seq {1,2,2,1,1,1}}
\ExplSyntaxOff 
\ExplSyntaxOn 
\char_set_catcode_space:n {32}
\tl_gset:cn {c__nicematrix_26_tl}{\seq_gset_from_clist:Nn \g__nicematrix_size_seq {1,3,3,1,1,1}}
\ExplSyntaxOff 
\ExplSyntaxOn 
\char_set_catcode_space:n {32}
\tl_gset:cn {c__nicematrix_27_tl}{\seq_gset_from_clist:Nn \g__nicematrix_size_seq {1,3,3,1,2,2}}
\ExplSyntaxOff 
\ExplSyntaxOn 
\char_set_catcode_space:n {32}
\tl_gset:cn {c__nicematrix_28_tl}{\seq_gset_from_clist:Nn \g__nicematrix_size_seq {1,2,2,1,1,1}}
\ExplSyntaxOff 
\ExplSyntaxOn 
\char_set_catcode_space:n {32}
\tl_gset:cn {c__nicematrix_29_tl}{\seq_gset_from_clist:Nn \g__nicematrix_size_seq {1,3,3,1,1,1}}
\ExplSyntaxOff 
\ExplSyntaxOn 
\char_set_catcode_space:n {32}
\tl_gset:cn {c__nicematrix_30_tl}{\seq_gset_from_clist:Nn \g__nicematrix_size_seq {1,2,2,1,3,3}}
\ExplSyntaxOff 
\ExplSyntaxOn 
\char_set_catcode_space:n {32}
\tl_gset:cn {c__nicematrix_31_tl}{\seq_gset_from_clist:Nn \g__nicematrix_size_seq {1,2,2,1,3,3}}
\ExplSyntaxOff 
\ExplSyntaxOn 
\char_set_catcode_space:n {32}
\tl_gset:cn {c__nicematrix_32_tl}{\seq_gset_from_clist:Nn \g__nicematrix_size_seq {1,2,2,1,3,3}}
\ExplSyntaxOff 
\ExplSyntaxOn 
\char_set_catcode_space:n {32}
\tl_gset:cn {c__nicematrix_33_tl}{\seq_gset_from_clist:Nn \g__nicematrix_size_seq {1,3,3,1,2,2}}
\ExplSyntaxOff 
\ExplSyntaxOn 
\char_set_catcode_space:n {32}
\tl_gset:cn {c__nicematrix_34_tl}{\seq_gset_from_clist:Nn \g__nicematrix_size_seq {1,3,3,1,2,2}}
\ExplSyntaxOff 
\ExplSyntaxOn 
\char_set_catcode_space:n {32}
\tl_gset:cn {c__nicematrix_35_tl}{\seq_gset_from_clist:Nn \g__nicematrix_size_seq {1,3,3,1,2,2}}
\ExplSyntaxOff 
\ExplSyntaxOn 
\char_set_catcode_space:n {32}
\tl_gset:cn {c__nicematrix_36_tl}{\seq_gset_from_clist:Nn \g__nicematrix_size_seq {1,2,2,1,2,2}}
\ExplSyntaxOff 
\ExplSyntaxOn 
\char_set_catcode_space:n {32}
\tl_gset:cn {c__nicematrix_37_tl}{\seq_gset_from_clist:Nn \g__nicematrix_size_seq {1,2,2,1,1,1}}
\ExplSyntaxOff 
\ExplSyntaxOn 
\char_set_catcode_space:n {32}
\tl_gset:cn {c__nicematrix_38_tl}{\seq_gset_from_clist:Nn \g__nicematrix_size_seq {1,2,2,1,3,3}}
\ExplSyntaxOff 
\ExplSyntaxOn 
\char_set_catcode_space:n {32}
\tl_gset:cn {c__nicematrix_39_tl}{\seq_gset_from_clist:Nn \g__nicematrix_size_seq {1,2,2,1,3,3}}
\ExplSyntaxOff 
\ExplSyntaxOn 
\char_set_catcode_space:n {32}
\tl_gset:cn {c__nicematrix_40_tl}{\seq_gset_from_clist:Nn \g__nicematrix_size_seq {1,2,2,1,3,3}}
\ExplSyntaxOff 
\ExplSyntaxOn 
\char_set_catcode_space:n {32}
\tl_gset:cn {c__nicematrix_41_tl}{\seq_gset_from_clist:Nn \g__nicematrix_size_seq {1,3,3,1,1,1}}
\ExplSyntaxOff 
\ExplSyntaxOn 
\char_set_catcode_space:n {32}
\tl_gset:cn {c__nicematrix_42_tl}{\seq_gset_from_clist:Nn \g__nicematrix_size_seq {1,3,3,1,1,1}}
\ExplSyntaxOff 
\ExplSyntaxOn 
\char_set_catcode_space:n {32}
\tl_gset:cn {c__nicematrix_43_tl}{\seq_gset_from_clist:Nn \g__nicematrix_size_seq {1,3,3,1,1,1}}
\ExplSyntaxOff 
\ExplSyntaxOn 
\char_set_catcode_space:n {32}
\tl_gset:cn {c__nicematrix_44_tl}{\seq_gset_from_clist:Nn \g__nicematrix_size_seq {1,2,2,1,1,1}}
\ExplSyntaxOff 
\ExplSyntaxOn 
\char_set_catcode_space:n {32}
\tl_gset:cn {c__nicematrix_45_tl}{\seq_gset_from_clist:Nn \g__nicematrix_size_seq {1,2,2,1,3,3}}
\ExplSyntaxOff 
\ExplSyntaxOn 
\char_set_catcode_space:n {32}
\tl_gset:cn {c__nicematrix_46_tl}{\seq_gset_from_clist:Nn \g__nicematrix_size_seq {1,2,2,1,3,3}}
\ExplSyntaxOff 
\ExplSyntaxOn 
\char_set_catcode_space:n {32}
\tl_gset:cn {c__nicematrix_47_tl}{\seq_gset_from_clist:Nn \g__nicematrix_size_seq {1,2,2,1,3,3}}
\ExplSyntaxOff 
\ExplSyntaxOn 
\char_set_catcode_space:n {32}
\tl_gset:cn {c__nicematrix_48_tl}{\seq_gset_from_clist:Nn \g__nicematrix_size_seq {1,3,3,1,2,2}}
\ExplSyntaxOff 
\ExplSyntaxOn 
\char_set_catcode_space:n {32}
\tl_gset:cn {c__nicematrix_49_tl}{\seq_gset_from_clist:Nn \g__nicematrix_size_seq {1,3,3,1,2,2}}
\ExplSyntaxOff 
\ExplSyntaxOn 
\char_set_catcode_space:n {32}
\tl_gset:cn {c__nicematrix_50_tl}{\seq_gset_from_clist:Nn \g__nicematrix_size_seq {1,3,3,1,2,2}}
\ExplSyntaxOff 
\ExplSyntaxOn 
\char_set_catcode_space:n {32}
\tl_gset:cn {c__nicematrix_51_tl}{\seq_gset_from_clist:Nn \g__nicematrix_size_seq {1,2,2,1,2,2}}
\ExplSyntaxOff 
\ExplSyntaxOn 
\char_set_catcode_space:n {32}
\tl_gset:cn {c__nicematrix_52_tl}{\seq_gset_from_clist:Nn \g__nicematrix_size_seq {1,2,2,1,1,1}}
\ExplSyntaxOff 
\ExplSyntaxOn 
\char_set_catcode_space:n {32}
\tl_gset:cn {c__nicematrix_53_tl}{\seq_gset_from_clist:Nn \g__nicematrix_size_seq {1,2,2,1,3,3}}
\ExplSyntaxOff 
\ExplSyntaxOn 
\char_set_catcode_space:n {32}
\tl_gset:cn {c__nicematrix_54_tl}{\seq_gset_from_clist:Nn \g__nicematrix_size_seq {1,2,2,1,3,3}}
\ExplSyntaxOff 
\ExplSyntaxOn 
\char_set_catcode_space:n {32}
\tl_gset:cn {c__nicematrix_55_tl}{\seq_gset_from_clist:Nn \g__nicematrix_size_seq {1,2,2,1,3,3}}
\ExplSyntaxOff 
\ExplSyntaxOn 
\char_set_catcode_space:n {32}
\tl_gset:cn {c__nicematrix_56_tl}{\seq_gset_from_clist:Nn \g__nicematrix_size_seq {1,3,3,1,1,1}}
\ExplSyntaxOff 
\ExplSyntaxOn 
\char_set_catcode_space:n {32}
\tl_gset:cn {c__nicematrix_57_tl}{\seq_gset_from_clist:Nn \g__nicematrix_size_seq {1,3,3,1,1,1}}
\ExplSyntaxOff 
\ExplSyntaxOn 
\char_set_catcode_space:n {32}
\tl_gset:cn {c__nicematrix_58_tl}{\seq_gset_from_clist:Nn \g__nicematrix_size_seq {1,3,3,1,1,1}}
\ExplSyntaxOff 
\ExplSyntaxOn 
\char_set_catcode_space:n {32}
\tl_gset:cn {c__nicematrix_59_tl}{\seq_gset_from_clist:Nn \g__nicematrix_size_seq {1,2,2,1,1,1}}
\ExplSyntaxOff 
\ExplSyntaxOn 
\char_set_catcode_space:n {32}
\tl_gset:cn {c__nicematrix_60_tl}{\seq_gset_from_clist:Nn \g__nicematrix_size_seq {1,2,2,1,2,2}}
\ExplSyntaxOff 
\ExplSyntaxOn 
\char_set_catcode_space:n {32}
\tl_gset:cn {c__nicematrix_61_tl}{\seq_gset_from_clist:Nn \g__nicematrix_size_seq {1,2,2,1,2,2}}
\ExplSyntaxOff 
\ExplSyntaxOn 
\char_set_catcode_space:n {32}
\tl_gset:cn {c__nicematrix_62_tl}{\seq_gset_from_clist:Nn \g__nicematrix_size_seq {1,2,2,1,2,2}}
\ExplSyntaxOff 
\ExplSyntaxOn 
\char_set_catcode_space:n {32}
\tl_gset:cn {c__nicematrix_63_tl}{\seq_gset_from_clist:Nn \g__nicematrix_size_seq {1,2,2,1,1,1}}
\ExplSyntaxOff 
\ExplSyntaxOn 
\char_set_catcode_space:n {32}
\tl_gset:cn {c__nicematrix_64_tl}{\seq_gset_from_clist:Nn \g__nicematrix_size_seq {1,2,2,1,1,1}}
\ExplSyntaxOff 
\ExplSyntaxOn 
\char_set_catcode_space:n {32}
\tl_gset:cn {c__nicematrix_65_tl}{\seq_gset_from_clist:Nn \g__nicematrix_size_seq {1,2,2,1,1,1}}
\ExplSyntaxOff 
\ExplSyntaxOn 
\char_set_catcode_space:n {32}
\tl_gset:cn {c__nicematrix_66_tl}{\seq_gset_from_clist:Nn \g__nicematrix_size_seq {1,2,2,1,1,1}}
\ExplSyntaxOff 
\gdef\pointsofq@iv{12}
\gdef\bonuspointsofq@iv{0}
\PgInfo{question@4}{4}
\PgInfo{question4@object1}{4}
\newlabel{question@4}{{\textbf  {Problem 4}}{4}{}{}{}}
\newlabel{firstpoints@onpage@4}{{\textbf  {Problem 4}}{4}{}{}{}}
\gdef\exam@lastpage{4}
\gdef\exam@lastcoverpage{1}
\gdef\exam@totalpages{5}
\gdef\exam@numpoints{100}
\gdef\exam@numbonuspoints{0}
\gdef\exam@numquestions{4}
\gdef\exam@numparts{13}
\gdef\exam@numsubparts{0}
\gdef\exam@numsubsubparts{0}
\gdef\pointsonpage@iv{12}
\gdef\lastpage@withpoints{4}
\gdef\lastpage@withbonuspoints{0}
\gdef \@abspage@last{5}
