\relax 
\nicematrix@redefine@check@rerun 
\ExplSyntaxOn \cs_if_free:NT \pgfsyspdfmark {\cs_set_eq:NN \pgfsyspdfmark \@gobblethree }\ExplSyntaxOff 
\ExplSyntaxOn 
\char_set_catcode_space:n {32}
\tl_gset:cn {c__nicematrix_1_tl}{\seq_gset_from_clist:Nn \g__nicematrix_size_seq {1,3,3,1,4,4}}
\ExplSyntaxOff 
\ExplSyntaxOn 
\char_set_catcode_space:n {32}
\tl_gset:cn {c__nicematrix_2_tl}{\seq_gset_from_clist:Nn \g__nicematrix_size_seq {1,3,3,1,4,4}}
\ExplSyntaxOff 
\ExplSyntaxOn 
\char_set_catcode_space:n {32}
\tl_gset:cn {c__nicematrix_3_tl}{\seq_gset_from_clist:Nn \g__nicematrix_size_seq {1,1,1,1,1,1}}
\ExplSyntaxOff 
\ExplSyntaxOn 
\char_set_catcode_space:n {32}
\tl_gset:cn {c__nicematrix_4_tl}{\seq_gset_from_clist:Nn \g__nicematrix_size_seq {1,4,4,1,1,1}}
\ExplSyntaxOff 
\ExplSyntaxOn 
\char_set_catcode_space:n {32}
\tl_gset:cn {c__nicematrix_5_tl}{\seq_gset_from_clist:Nn \g__nicematrix_size_seq {1,5,5,1,1,1}}
\ExplSyntaxOff 
\ExplSyntaxOn 
\char_set_catcode_space:n {32}
\tl_gset:cn {c__nicematrix_6_tl}{\seq_gset_from_clist:Nn \g__nicematrix_size_seq {1,1,1,1,1,1}}
\ExplSyntaxOff 
\ExplSyntaxOn 
\char_set_catcode_space:n {32}
\tl_gset:cn {c__nicematrix_7_tl}{\seq_gset_from_clist:Nn \g__nicematrix_size_seq {1,4,4,1,1,1}}
\ExplSyntaxOff 
\ExplSyntaxOn 
\char_set_catcode_space:n {32}
\tl_gset:cn {c__nicematrix_8_tl}{\seq_gset_from_clist:Nn \g__nicematrix_size_seq {1,5,5,1,1,1}}
\ExplSyntaxOff 
\ExplSyntaxOn 
\char_set_catcode_space:n {32}
\tl_gset:cn {c__nicematrix_9_tl}{\seq_gset_from_clist:Nn \g__nicematrix_size_seq {1,1,1,1,1,1}}
\ExplSyntaxOff 
\ExplSyntaxOn 
\char_set_catcode_space:n {32}
\tl_gset:cn {c__nicematrix_10_tl}{\seq_gset_from_clist:Nn \g__nicematrix_size_seq {1,4,4,1,1,1}}
\ExplSyntaxOff 
\ExplSyntaxOn 
\char_set_catcode_space:n {32}
\tl_gset:cn {c__nicematrix_11_tl}{\seq_gset_from_clist:Nn \g__nicematrix_size_seq {1,5,5,1,1,1}}
\ExplSyntaxOff 
\ExplSyntaxOn 
\char_set_catcode_space:n {32}
\tl_gset:cn {c__nicematrix_12_tl}{\seq_gset_from_clist:Nn \g__nicematrix_size_seq {1,1,1,1,1,1}}
\ExplSyntaxOff 
\ExplSyntaxOn 
\char_set_catcode_space:n {32}
\tl_gset:cn {c__nicematrix_13_tl}{\seq_gset_from_clist:Nn \g__nicematrix_size_seq {1,4,4,1,1,1}}
\ExplSyntaxOff 
\ExplSyntaxOn 
\char_set_catcode_space:n {32}
\tl_gset:cn {c__nicematrix_14_tl}{\seq_gset_from_clist:Nn \g__nicematrix_size_seq {1,5,5,1,1,1}}
\ExplSyntaxOff 
\ExplSyntaxOn 
\char_set_catcode_space:n {32}
\tl_gset:cn {c__nicematrix_15_tl}{\seq_gset_from_clist:Nn \g__nicematrix_size_seq {1,4,4,1,4,4}}
\ExplSyntaxOff 
\ExplSyntaxOn 
\char_set_catcode_space:n {32}
\tl_gset:cn {c__nicematrix_16_tl}{\seq_gset_from_clist:Nn \g__nicematrix_size_seq {1,4,4,1,4,4}}
\ExplSyntaxOff 
\PgInfo{question@1}{1}
\PgInfo{question1@object1}{1}
\newlabel{question@1}{{\textbf  {Problem 1}}{1}{}{}{}}
\pgfsyspdfmark {pgfid23}{10154017}{47032032}
\pgfsyspdfmark {pgfid24}{10836077}{44410588}
\pgfsyspdfmark {pgfid25}{10154017}{44174656}
\pgfsyspdfmark {pgfid26}{10481698}{43624156}
\pgfsyspdfmark {pgfid27}{10836077}{43624156}
\pgfsyspdfmark {pgfid28}{12200196}{43624156}
\pgfsyspdfmark {pgfid29}{13564315}{43624156}
\pgfsyspdfmark {pgfid30}{14928434}{43624156}
\pgfsyspdfmark {pgfid31}{10154017}{43388224}
\pgfsyspdfmark {pgfid32}{10836077}{40766780}
\pgfsyspdfmark {pgfid33}{10154017}{40530848}
\pgfsyspdfmark {pgfid34}{10154017}{40530848}
\pgfsyspdfmark {pgfid35}{11518136}{40530848}
\pgfsyspdfmark {pgfid36}{12882255}{40530848}
\pgfsyspdfmark {pgfid37}{14246374}{40530848}
\pgfsyspdfmark {pgfid38}{15610493}{40530848}
\pgfsyspdfmark {pgfid39}{15719721}{43591386}
\pgfsyspdfmark {pgfid41}{15719721}{43591386}
\pgfsyspdfmark {pgfid42}{15719721}{43591386}
\PgInfo{part@1@1}{1}
\PgInfo{question1@object2}{1}
\newlabel{part@1@1}{{a}{1}{}{}{}}
\newlabel{firstpoints@onpage@1}{{a}{1}{}{}{}}
\PgInfo{part@1@2}{1}
\PgInfo{question1@object3}{1}
\newlabel{part@1@2}{{b}{1}{}{}{}}
\PgInfo{part@1@3}{1}
\PgInfo{question1@object4}{1}
\newlabel{part@1@3}{{c}{1}{}{}{}}
\PgInfo{question1@object5}{1}
\pgfsyspdfmark {pgfid44}{5973412}{29349152}
\pgfsyspdfmark {pgfid45}{6301093}{28082123}
\pgfsyspdfmark {pgfid46}{7038373}{28082123}
\pgfsyspdfmark {pgfid47}{5973412}{27262922}
\pgfsyspdfmark {pgfid48}{5973412}{27262922}
\pgfsyspdfmark {pgfid49}{8103333}{27262922}
\pgfsyspdfmark {pgfid50}{8103333}{27262922}
\pgfsyspdfmark {pgfid51}{8157948}{28115983}
\pgfsyspdfmark {pgfid53}{8157948}{28115983}
\pgfsyspdfmark {pgfid54}{8267176}{29878901}
\pgfsyspdfmark {pgfid55}{8594857}{29328401}
\pgfsyspdfmark {pgfid56}{8758697}{29328401}
\pgfsyspdfmark {pgfid57}{8267176}{29092469}
\pgfsyspdfmark {pgfid58}{8594857}{28541969}
\pgfsyspdfmark {pgfid59}{8758697}{28541969}
\pgfsyspdfmark {pgfid60}{8267176}{28306037}
\pgfsyspdfmark {pgfid61}{8594857}{27755537}
\pgfsyspdfmark {pgfid62}{8758697}{27755537}
\pgfsyspdfmark {pgfid63}{8267176}{27519605}
\pgfsyspdfmark {pgfid64}{8594857}{26969105}
\pgfsyspdfmark {pgfid65}{8758697}{26969105}
\pgfsyspdfmark {pgfid66}{8267176}{26733173}
\pgfsyspdfmark {pgfid67}{8267176}{26733173}
\pgfsyspdfmark {pgfid68}{9250217}{26733173}
\pgfsyspdfmark {pgfid69}{9250217}{26733173}
\pgfsyspdfmark {pgfid70}{9359445}{28115983}
\pgfsyspdfmark {pgfid72}{9359445}{28115983}
\pgfsyspdfmark {pgfid73}{10342479}{30272117}
\pgfsyspdfmark {pgfid74}{10670160}{29721617}
\pgfsyspdfmark {pgfid75}{10834000}{29721617}
\pgfsyspdfmark {pgfid76}{10342479}{29485685}
\pgfsyspdfmark {pgfid77}{10670160}{28935185}
\pgfsyspdfmark {pgfid78}{10834000}{28935185}
\pgfsyspdfmark {pgfid79}{10342479}{28699253}
\pgfsyspdfmark {pgfid80}{10670160}{28148753}
\pgfsyspdfmark {pgfid81}{10834000}{28148753}
\pgfsyspdfmark {pgfid82}{10342479}{27912821}
\pgfsyspdfmark {pgfid83}{10670160}{27362321}
\pgfsyspdfmark {pgfid84}{10834000}{27362321}
\pgfsyspdfmark {pgfid85}{10342479}{27126389}
\pgfsyspdfmark {pgfid86}{10670160}{26575889}
\pgfsyspdfmark {pgfid87}{10834000}{26575889}
\pgfsyspdfmark {pgfid88}{10342479}{26339957}
\pgfsyspdfmark {pgfid89}{10342479}{26339957}
\pgfsyspdfmark {pgfid90}{11325520}{26339957}
\pgfsyspdfmark {pgfid91}{11325520}{26339957}
\pgfsyspdfmark {pgfid92}{11434748}{28115983}
\pgfsyspdfmark {pgfid94}{11434748}{28115983}
\PgInfo{question1@object6}{1}
\pgfsyspdfmark {pgfid95}{13346218}{29349152}
\pgfsyspdfmark {pgfid96}{13673899}{28082123}
\pgfsyspdfmark {pgfid97}{14411179}{28082123}
\pgfsyspdfmark {pgfid98}{13346218}{27262922}
\pgfsyspdfmark {pgfid99}{13346218}{27262922}
\pgfsyspdfmark {pgfid100}{15476139}{27262922}
\pgfsyspdfmark {pgfid101}{15476139}{27262922}
\pgfsyspdfmark {pgfid102}{15530754}{28115983}
\pgfsyspdfmark {pgfid104}{15530754}{28115983}
\pgfsyspdfmark {pgfid105}{15639982}{29878901}
\pgfsyspdfmark {pgfid106}{15967663}{29328401}
\pgfsyspdfmark {pgfid107}{16131503}{29328401}
\pgfsyspdfmark {pgfid108}{15639982}{29092469}
\pgfsyspdfmark {pgfid109}{15967663}{28541969}
\pgfsyspdfmark {pgfid110}{16131503}{28541969}
\pgfsyspdfmark {pgfid111}{15639982}{28306037}
\pgfsyspdfmark {pgfid112}{15967663}{27755537}
\pgfsyspdfmark {pgfid113}{16131503}{27755537}
\pgfsyspdfmark {pgfid114}{15639982}{27519605}
\pgfsyspdfmark {pgfid115}{15967663}{26969105}
\pgfsyspdfmark {pgfid116}{16131503}{26969105}
\pgfsyspdfmark {pgfid117}{15639982}{26733173}
\pgfsyspdfmark {pgfid118}{15639982}{26733173}
\pgfsyspdfmark {pgfid119}{16623023}{26733173}
\pgfsyspdfmark {pgfid120}{16623023}{26733173}
\pgfsyspdfmark {pgfid121}{16732251}{28115983}
\pgfsyspdfmark {pgfid123}{16732251}{28115983}
\pgfsyspdfmark {pgfid124}{17715285}{30272117}
\pgfsyspdfmark {pgfid125}{18042966}{29721617}
\pgfsyspdfmark {pgfid126}{18206806}{29721617}
\pgfsyspdfmark {pgfid127}{17715285}{29485685}
\pgfsyspdfmark {pgfid128}{18042966}{28935185}
\pgfsyspdfmark {pgfid129}{18206806}{28935185}
\pgfsyspdfmark {pgfid130}{17715285}{28699253}
\pgfsyspdfmark {pgfid131}{18042966}{28148753}
\pgfsyspdfmark {pgfid132}{18206806}{28148753}
\pgfsyspdfmark {pgfid133}{17715285}{27912821}
\pgfsyspdfmark {pgfid134}{18042966}{27362321}
\pgfsyspdfmark {pgfid135}{18206806}{27362321}
\pgfsyspdfmark {pgfid136}{17715285}{27126389}
\pgfsyspdfmark {pgfid137}{18042966}{26575889}
\pgfsyspdfmark {pgfid138}{18206806}{26575889}
\pgfsyspdfmark {pgfid139}{17715285}{26339957}
\pgfsyspdfmark {pgfid140}{17715285}{26339957}
\pgfsyspdfmark {pgfid141}{18698326}{26339957}
\pgfsyspdfmark {pgfid142}{18698326}{26339957}
\pgfsyspdfmark {pgfid143}{18807554}{28115983}
\pgfsyspdfmark {pgfid145}{18807554}{28115983}
\PgInfo{question1@object7}{1}
\pgfsyspdfmark {pgfid146}{20609798}{29349152}
\pgfsyspdfmark {pgfid147}{20937479}{28082123}
\pgfsyspdfmark {pgfid148}{21674759}{28082123}
\pgfsyspdfmark {pgfid149}{20609798}{27262922}
\pgfsyspdfmark {pgfid150}{20609798}{27262922}
\pgfsyspdfmark {pgfid151}{22739719}{27262922}
\pgfsyspdfmark {pgfid152}{22739719}{27262922}
\pgfsyspdfmark {pgfid153}{22794334}{28115983}
\pgfsyspdfmark {pgfid155}{22794334}{28115983}
\pgfsyspdfmark {pgfid156}{22903562}{29878901}
\pgfsyspdfmark {pgfid157}{23740969}{29328401}
\pgfsyspdfmark {pgfid158}{23904809}{29328401}
\pgfsyspdfmark {pgfid159}{22903562}{29092469}
\pgfsyspdfmark {pgfid160}{23231243}{28541969}
\pgfsyspdfmark {pgfid161}{23649946}{28541969}
\pgfsyspdfmark {pgfid162}{22903562}{28306037}
\pgfsyspdfmark {pgfid163}{23231243}{27755537}
\pgfsyspdfmark {pgfid164}{23649946}{27755537}
\pgfsyspdfmark {pgfid165}{22903562}{27519605}
\pgfsyspdfmark {pgfid166}{23740969}{26969105}
\pgfsyspdfmark {pgfid167}{23904809}{26969105}
\pgfsyspdfmark {pgfid168}{22903562}{26733173}
\pgfsyspdfmark {pgfid169}{22903562}{26733173}
\pgfsyspdfmark {pgfid170}{24396329}{26733173}
\pgfsyspdfmark {pgfid171}{24396329}{26733173}
\pgfsyspdfmark {pgfid172}{24505557}{28115983}
\pgfsyspdfmark {pgfid174}{24505557}{28115983}
\pgfsyspdfmark {pgfid175}{25488591}{30272117}
\pgfsyspdfmark {pgfid176}{25816272}{29721617}
\pgfsyspdfmark {pgfid177}{25980112}{29721617}
\pgfsyspdfmark {pgfid178}{25488591}{29485685}
\pgfsyspdfmark {pgfid179}{25816272}{28935185}
\pgfsyspdfmark {pgfid180}{25980112}{28935185}
\pgfsyspdfmark {pgfid181}{25488591}{28699253}
\pgfsyspdfmark {pgfid182}{25816272}{28148753}
\pgfsyspdfmark {pgfid183}{25980112}{28148753}
\pgfsyspdfmark {pgfid184}{25488591}{27912821}
\pgfsyspdfmark {pgfid185}{25816272}{27362321}
\pgfsyspdfmark {pgfid186}{25980112}{27362321}
\pgfsyspdfmark {pgfid187}{25488591}{27126389}
\pgfsyspdfmark {pgfid188}{25816272}{26575889}
\pgfsyspdfmark {pgfid189}{25980112}{26575889}
\pgfsyspdfmark {pgfid190}{25488591}{26339957}
\pgfsyspdfmark {pgfid191}{25488591}{26339957}
\pgfsyspdfmark {pgfid192}{26471632}{26339957}
\pgfsyspdfmark {pgfid193}{26471632}{26339957}
\pgfsyspdfmark {pgfid194}{26580860}{28115983}
\pgfsyspdfmark {pgfid196}{26580860}{28115983}
\PgInfo{question1@object8}{1}
\pgfsyspdfmark {pgfid197}{28492330}{29349152}
\pgfsyspdfmark {pgfid198}{28820011}{28082123}
\pgfsyspdfmark {pgfid199}{29557291}{28082123}
\pgfsyspdfmark {pgfid200}{28492330}{27262922}
\pgfsyspdfmark {pgfid201}{28492330}{27262922}
\pgfsyspdfmark {pgfid202}{30622251}{27262922}
\pgfsyspdfmark {pgfid203}{30622251}{27262922}
\pgfsyspdfmark {pgfid204}{30676866}{28115983}
\pgfsyspdfmark {pgfid206}{30676866}{28115983}
\pgfsyspdfmark {pgfid207}{30786094}{29878901}
\pgfsyspdfmark {pgfid208}{31623501}{29328401}
\pgfsyspdfmark {pgfid209}{31787341}{29328401}
\pgfsyspdfmark {pgfid210}{30786094}{29092469}
\pgfsyspdfmark {pgfid211}{31113775}{28541969}
\pgfsyspdfmark {pgfid212}{31532478}{28541969}
\pgfsyspdfmark {pgfid213}{30786094}{28306037}
\pgfsyspdfmark {pgfid214}{31623501}{27755537}
\pgfsyspdfmark {pgfid215}{31787341}{27755537}
\pgfsyspdfmark {pgfid216}{30786094}{27519605}
\pgfsyspdfmark {pgfid217}{31113775}{26969105}
\pgfsyspdfmark {pgfid218}{31532478}{26969105}
\pgfsyspdfmark {pgfid219}{30786094}{26733173}
\pgfsyspdfmark {pgfid220}{30786094}{26733173}
\pgfsyspdfmark {pgfid221}{32278861}{26733173}
\pgfsyspdfmark {pgfid222}{32278861}{26733173}
\pgfsyspdfmark {pgfid223}{32388089}{28115983}
\pgfsyspdfmark {pgfid225}{32388089}{28115983}
\pgfsyspdfmark {pgfid226}{33371123}{30272117}
\pgfsyspdfmark {pgfid227}{33698804}{29721617}
\pgfsyspdfmark {pgfid228}{33862644}{29721617}
\pgfsyspdfmark {pgfid229}{33371123}{29485685}
\pgfsyspdfmark {pgfid230}{33698804}{28935185}
\pgfsyspdfmark {pgfid231}{33862644}{28935185}
\pgfsyspdfmark {pgfid232}{33371123}{28699253}
\pgfsyspdfmark {pgfid233}{33698804}{28148753}
\pgfsyspdfmark {pgfid234}{33862644}{28148753}
\pgfsyspdfmark {pgfid235}{33371123}{27912821}
\pgfsyspdfmark {pgfid236}{33698804}{27362321}
\pgfsyspdfmark {pgfid237}{33862644}{27362321}
\pgfsyspdfmark {pgfid238}{33371123}{27126389}
\pgfsyspdfmark {pgfid239}{33698804}{26575889}
\pgfsyspdfmark {pgfid240}{33862644}{26575889}
\pgfsyspdfmark {pgfid241}{33371123}{26339957}
\pgfsyspdfmark {pgfid242}{33371123}{26339957}
\pgfsyspdfmark {pgfid243}{34354164}{26339957}
\pgfsyspdfmark {pgfid244}{34354164}{26339957}
\pgfsyspdfmark {pgfid245}{34463392}{28115983}
\pgfsyspdfmark {pgfid247}{34463392}{28115983}
\PgInfo{part@1@4}{1}
\PgInfo{question1@object9}{1}
\newlabel{part@1@4}{{d}{1}{}{}{}}
\PgInfo{question1@object10}{1}
\PgInfo{question1@object11}{1}
\PgInfo{question1@object12}{1}
\PgInfo{question1@object13}{1}
\PgInfo{part@1@5}{1}
\PgInfo{question1@object14}{1}
\newlabel{part@1@5}{{e}{1}{}{}{}}
\pgfsyspdfmark {pgfid248}{10993317}{17906254}
\pgfsyspdfmark {pgfid249}{11320998}{17355754}
\pgfsyspdfmark {pgfid250}{12430254}{17355754}
\pgfsyspdfmark {pgfid251}{15304127}{17355754}
\pgfsyspdfmark {pgfid252}{18178000}{17355754}
\pgfsyspdfmark {pgfid253}{21051873}{17355754}
\pgfsyspdfmark {pgfid254}{10993317}{17119822}
\pgfsyspdfmark {pgfid255}{11320998}{16569322}
\pgfsyspdfmark {pgfid256}{12430254}{16569322}
\pgfsyspdfmark {pgfid257}{15304127}{16569322}
\pgfsyspdfmark {pgfid258}{18178000}{16569322}
\pgfsyspdfmark {pgfid259}{21051873}{16569322}
\pgfsyspdfmark {pgfid260}{10993317}{16333390}
\pgfsyspdfmark {pgfid261}{11320998}{15782890}
\pgfsyspdfmark {pgfid262}{12430254}{15782890}
\pgfsyspdfmark {pgfid263}{15304127}{15782890}
\pgfsyspdfmark {pgfid264}{18178000}{15782890}
\pgfsyspdfmark {pgfid265}{21051873}{15782890}
\pgfsyspdfmark {pgfid266}{10993317}{15546958}
\pgfsyspdfmark {pgfid267}{11320998}{14996458}
\pgfsyspdfmark {pgfid268}{12430254}{14996458}
\pgfsyspdfmark {pgfid269}{15304127}{14996458}
\pgfsyspdfmark {pgfid270}{18178000}{14996458}
\pgfsyspdfmark {pgfid271}{21051873}{14996458}
\pgfsyspdfmark {pgfid272}{10993317}{14760526}
\pgfsyspdfmark {pgfid273}{10993317}{14760526}
\pgfsyspdfmark {pgfid274}{13867190}{14760526}
\pgfsyspdfmark {pgfid275}{16741063}{14760526}
\pgfsyspdfmark {pgfid276}{19614936}{14760526}
\pgfsyspdfmark {pgfid277}{22488809}{14760526}
\pgfsyspdfmark {pgfid278}{22598037}{16143336}
\pgfsyspdfmark {pgfid280}{22598037}{16143336}
\pgfsyspdfmark {pgfid281}{23581071}{17906254}
\pgfsyspdfmark {pgfid282}{23908752}{17355754}
\pgfsyspdfmark {pgfid283}{24737814}{17355754}
\pgfsyspdfmark {pgfid284}{27051299}{17355754}
\pgfsyspdfmark {pgfid285}{29364784}{17355754}
\pgfsyspdfmark {pgfid286}{31678269}{17355754}
\pgfsyspdfmark {pgfid287}{23581071}{17119822}
\pgfsyspdfmark {pgfid288}{24573974}{16569322}
\pgfsyspdfmark {pgfid289}{24737814}{16569322}
\pgfsyspdfmark {pgfid290}{27051299}{16569322}
\pgfsyspdfmark {pgfid291}{29364784}{16569322}
\pgfsyspdfmark {pgfid292}{31678269}{16569322}
\pgfsyspdfmark {pgfid293}{23581071}{16333390}
\pgfsyspdfmark {pgfid294}{24573974}{15782890}
\pgfsyspdfmark {pgfid295}{24737814}{15782890}
\pgfsyspdfmark {pgfid296}{27051299}{15782890}
\pgfsyspdfmark {pgfid297}{29364784}{15782890}
\pgfsyspdfmark {pgfid298}{31678269}{15782890}
\pgfsyspdfmark {pgfid299}{23581071}{15546958}
\pgfsyspdfmark {pgfid300}{24573974}{14996458}
\pgfsyspdfmark {pgfid301}{24737814}{14996458}
\pgfsyspdfmark {pgfid302}{27051299}{14996458}
\pgfsyspdfmark {pgfid303}{29364784}{14996458}
\pgfsyspdfmark {pgfid304}{31678269}{14996458}
\pgfsyspdfmark {pgfid305}{23581071}{14760526}
\pgfsyspdfmark {pgfid306}{23581071}{14760526}
\pgfsyspdfmark {pgfid307}{25894556}{14760526}
\pgfsyspdfmark {pgfid308}{28208041}{14760526}
\pgfsyspdfmark {pgfid309}{30521526}{14760526}
\pgfsyspdfmark {pgfid310}{32835011}{14760526}
\pgfsyspdfmark {pgfid311}{32944239}{16143336}
\pgfsyspdfmark {pgfid313}{32944239}{16143336}
\gdef\pointsofq@i{22}
\gdef\bonuspointsofq@i{0}
\ExplSyntaxOn 
\char_set_catcode_space:n {32}
\tl_gset:cn {c__nicematrix_17_tl}{\seq_gset_from_clist:Nn \g__nicematrix_size_seq {1,3,3,1,5,5}}
\ExplSyntaxOff 
\ExplSyntaxOn 
\char_set_catcode_space:n {32}
\tl_gset:cn {c__nicematrix_18_tl}{\seq_gset_from_clist:Nn \g__nicematrix_size_seq {1,5,5,1,5,5}}
\ExplSyntaxOff 
\ExplSyntaxOn 
\char_set_catcode_space:n {32}
\tl_gset:cn {c__nicematrix_19_tl}{\seq_gset_from_clist:Nn \g__nicematrix_size_seq {1,5,5,1,4,4}}
\ExplSyntaxOff 
\ExplSyntaxOn 
\char_set_catcode_space:n {32}
\tl_gset:cn {c__nicematrix_20_tl}{\seq_gset_from_clist:Nn \g__nicematrix_size_seq {1,3,3,1,5,5}}
\ExplSyntaxOff 
\ExplSyntaxOn 
\char_set_catcode_space:n {32}
\tl_gset:cn {c__nicematrix_21_tl}{\seq_gset_from_clist:Nn \g__nicematrix_size_seq {1,5,5,1,5,5}}
\ExplSyntaxOff 
\ExplSyntaxOn 
\char_set_catcode_space:n {32}
\tl_gset:cn {c__nicematrix_22_tl}{\seq_gset_from_clist:Nn \g__nicematrix_size_seq {1,5,5,1,4,4}}
\ExplSyntaxOff 
\gdef\pointsonpage@i{22}
\ExplSyntaxOn 
\char_set_catcode_space:n {32}
\tl_gset:cn {c__nicematrix_23_tl}{\seq_gset_from_clist:Nn \g__nicematrix_size_seq {1,1,1,1,1,1}}
\ExplSyntaxOff 
\ExplSyntaxOn 
\char_set_catcode_space:n {32}
\tl_gset:cn {c__nicematrix_24_tl}{\seq_gset_from_clist:Nn \g__nicematrix_size_seq {1,5,5,1,5,5}}
\ExplSyntaxOff 
\ExplSyntaxOn 
\char_set_catcode_space:n {32}
\tl_gset:cn {c__nicematrix_25_tl}{\seq_gset_from_clist:Nn \g__nicematrix_size_seq {1,5,5,1,5,5}}
\ExplSyntaxOff 
\ExplSyntaxOn 
\char_set_catcode_space:n {32}
\tl_gset:cn {c__nicematrix_26_tl}{\seq_gset_from_clist:Nn \g__nicematrix_size_seq {1,5,5,1,5,5}}
\ExplSyntaxOff 
\ExplSyntaxOn 
\char_set_catcode_space:n {32}
\tl_gset:cn {c__nicematrix_27_tl}{\seq_gset_from_clist:Nn \g__nicematrix_size_seq {1,5,5,1,4,4}}
\ExplSyntaxOff 
\ExplSyntaxOn 
\char_set_catcode_space:n {32}
\tl_gset:cn {c__nicematrix_28_tl}{\seq_gset_from_clist:Nn \g__nicematrix_size_seq {1,5,5,1,4,4}}
\ExplSyntaxOff 
\ExplSyntaxOn 
\char_set_catcode_space:n {32}
\tl_gset:cn {c__nicematrix_29_tl}{\seq_gset_from_clist:Nn \g__nicematrix_size_seq {1,5,5,1,4,4}}
\ExplSyntaxOff 
\ExplSyntaxOn 
\char_set_catcode_space:n {32}
\tl_gset:cn {c__nicematrix_30_tl}{\seq_gset_from_clist:Nn \g__nicematrix_size_seq {1,3,3,1,5,5}}
\ExplSyntaxOff 
\ExplSyntaxOn 
\char_set_catcode_space:n {32}
\tl_gset:cn {c__nicematrix_31_tl}{\seq_gset_from_clist:Nn \g__nicematrix_size_seq {1,3,3,1,5,5}}
\ExplSyntaxOff 
\ExplSyntaxOn 
\char_set_catcode_space:n {32}
\tl_gset:cn {c__nicematrix_32_tl}{\seq_gset_from_clist:Nn \g__nicematrix_size_seq {1,3,3,1,5,5}}
\ExplSyntaxOff 
\ExplSyntaxOn 
\char_set_catcode_space:n {32}
\tl_gset:cn {c__nicematrix_33_tl}{\seq_gset_from_clist:Nn \g__nicematrix_size_seq {1,5,5,1,4,4}}
\ExplSyntaxOff 
\ExplSyntaxOn 
\char_set_catcode_space:n {32}
\tl_gset:cn {c__nicematrix_34_tl}{\seq_gset_from_clist:Nn \g__nicematrix_size_seq {1,3,3,1,4,4}}
\ExplSyntaxOff 
\ExplSyntaxOn 
\char_set_catcode_space:n {32}
\tl_gset:cn {c__nicematrix_35_tl}{\seq_gset_from_clist:Nn \g__nicematrix_size_seq {1,1,1,1,1,1}}
\ExplSyntaxOff 
\ExplSyntaxOn 
\char_set_catcode_space:n {32}
\tl_gset:cn {c__nicematrix_36_tl}{\seq_gset_from_clist:Nn \g__nicematrix_size_seq {1,5,5,1,5,5}}
\ExplSyntaxOff 
\ExplSyntaxOn 
\char_set_catcode_space:n {32}
\tl_gset:cn {c__nicematrix_37_tl}{\seq_gset_from_clist:Nn \g__nicematrix_size_seq {1,5,5,1,5,5}}
\ExplSyntaxOff 
\ExplSyntaxOn 
\char_set_catcode_space:n {32}
\tl_gset:cn {c__nicematrix_38_tl}{\seq_gset_from_clist:Nn \g__nicematrix_size_seq {1,5,5,1,5,5}}
\ExplSyntaxOff 
\ExplSyntaxOn 
\char_set_catcode_space:n {32}
\tl_gset:cn {c__nicematrix_39_tl}{\seq_gset_from_clist:Nn \g__nicematrix_size_seq {1,5,5,1,4,4}}
\ExplSyntaxOff 
\ExplSyntaxOn 
\char_set_catcode_space:n {32}
\tl_gset:cn {c__nicematrix_40_tl}{\seq_gset_from_clist:Nn \g__nicematrix_size_seq {1,5,5,1,4,4}}
\ExplSyntaxOff 
\ExplSyntaxOn 
\char_set_catcode_space:n {32}
\tl_gset:cn {c__nicematrix_41_tl}{\seq_gset_from_clist:Nn \g__nicematrix_size_seq {1,5,5,1,4,4}}
\ExplSyntaxOff 
\ExplSyntaxOn 
\char_set_catcode_space:n {32}
\tl_gset:cn {c__nicematrix_42_tl}{\seq_gset_from_clist:Nn \g__nicematrix_size_seq {1,3,3,1,5,5}}
\ExplSyntaxOff 
\ExplSyntaxOn 
\char_set_catcode_space:n {32}
\tl_gset:cn {c__nicematrix_43_tl}{\seq_gset_from_clist:Nn \g__nicematrix_size_seq {1,3,3,1,5,5}}
\ExplSyntaxOff 
\ExplSyntaxOn 
\char_set_catcode_space:n {32}
\tl_gset:cn {c__nicematrix_44_tl}{\seq_gset_from_clist:Nn \g__nicematrix_size_seq {1,3,3,1,5,5}}
\ExplSyntaxOff 
\ExplSyntaxOn 
\char_set_catcode_space:n {32}
\tl_gset:cn {c__nicematrix_45_tl}{\seq_gset_from_clist:Nn \g__nicematrix_size_seq {1,5,5,1,4,4}}
\ExplSyntaxOff 
\ExplSyntaxOn 
\char_set_catcode_space:n {32}
\tl_gset:cn {c__nicematrix_46_tl}{\seq_gset_from_clist:Nn \g__nicematrix_size_seq {1,3,3,1,4,4}}
\ExplSyntaxOff 
\PgInfo{question@2}{2}
\PgInfo{question2@object1}{2}
\newlabel{question@2}{{\textbf  {Problem 2}}{2}{}{}{}}
\pgfsyspdfmark {pgfid429}{5967869}{47467086}
\pgfsyspdfmark {pgfid430}{6295550}{46916586}
\pgfsyspdfmark {pgfid431}{7041934}{46916586}
\pgfsyspdfmark {pgfid432}{9117246}{46916586}
\pgfsyspdfmark {pgfid433}{11010512}{46916586}
\pgfsyspdfmark {pgfid434}{13413504}{46916586}
\pgfsyspdfmark {pgfid435}{15725473}{46916586}
\pgfsyspdfmark {pgfid436}{5967869}{46680654}
\pgfsyspdfmark {pgfid437}{6805276}{46130154}
\pgfsyspdfmark {pgfid438}{7296797}{46130154}
\pgfsyspdfmark {pgfid439}{9026223}{46130154}
\pgfsyspdfmark {pgfid440}{11265375}{46130154}
\pgfsyspdfmark {pgfid441}{13158641}{46130154}
\pgfsyspdfmark {pgfid442}{15306770}{46130154}
\pgfsyspdfmark {pgfid443}{5967869}{45894222}
\pgfsyspdfmark {pgfid444}{6295550}{45343722}
\pgfsyspdfmark {pgfid445}{7041934}{45343722}
\pgfsyspdfmark {pgfid446}{9117246}{45343722}
\pgfsyspdfmark {pgfid447}{11010512}{45343722}
\pgfsyspdfmark {pgfid448}{13413504}{45343722}
\pgfsyspdfmark {pgfid449}{15561633}{45343722}
\pgfsyspdfmark {pgfid450}{5967869}{45107790}
\pgfsyspdfmark {pgfid451}{5967869}{45107790}
\pgfsyspdfmark {pgfid452}{8115998}{45107790}
\pgfsyspdfmark {pgfid453}{9936447}{45107790}
\pgfsyspdfmark {pgfid454}{12084576}{45107790}
\pgfsyspdfmark {pgfid455}{14232705}{45107790}
\pgfsyspdfmark {pgfid456}{16380834}{45107790}
\pgfsyspdfmark {pgfid457}{16490062}{46097384}
\pgfsyspdfmark {pgfid459}{16490062}{46097384}
\pgfsyspdfmark {pgfid460}{18944172}{48253518}
\pgfsyspdfmark {pgfid461}{19271853}{47703018}
\pgfsyspdfmark {pgfid462}{19763374}{47703018}
\pgfsyspdfmark {pgfid463}{21401777}{47703018}
\pgfsyspdfmark {pgfid464}{23040180}{47703018}
\pgfsyspdfmark {pgfid465}{24678583}{47703018}
\pgfsyspdfmark {pgfid466}{26316986}{47703018}
\pgfsyspdfmark {pgfid467}{18944172}{47467086}
\pgfsyspdfmark {pgfid468}{19271853}{46916586}
\pgfsyspdfmark {pgfid469}{19763374}{46916586}
\pgfsyspdfmark {pgfid470}{21401777}{46916586}
\pgfsyspdfmark {pgfid471}{23040180}{46916586}
\pgfsyspdfmark {pgfid472}{24678583}{46916586}
\pgfsyspdfmark {pgfid473}{26316986}{46916586}
\pgfsyspdfmark {pgfid474}{18944172}{46680654}
\pgfsyspdfmark {pgfid475}{19271853}{46130154}
\pgfsyspdfmark {pgfid476}{19763374}{46130154}
\pgfsyspdfmark {pgfid477}{21401777}{46130154}
\pgfsyspdfmark {pgfid478}{23040180}{46130154}
\pgfsyspdfmark {pgfid479}{24678583}{46130154}
\pgfsyspdfmark {pgfid480}{26316986}{46130154}
\pgfsyspdfmark {pgfid481}{18944172}{45894222}
\pgfsyspdfmark {pgfid482}{19271853}{45343722}
\pgfsyspdfmark {pgfid483}{19763374}{45343722}
\pgfsyspdfmark {pgfid484}{21401777}{45343722}
\pgfsyspdfmark {pgfid485}{23040180}{45343722}
\pgfsyspdfmark {pgfid486}{24678583}{45343722}
\pgfsyspdfmark {pgfid487}{26316986}{45343722}
\pgfsyspdfmark {pgfid488}{18944172}{45107790}
\pgfsyspdfmark {pgfid489}{19271853}{44557290}
\pgfsyspdfmark {pgfid490}{19763374}{44557290}
\pgfsyspdfmark {pgfid491}{21401777}{44557290}
\pgfsyspdfmark {pgfid492}{23040180}{44557290}
\pgfsyspdfmark {pgfid493}{24678583}{44557290}
\pgfsyspdfmark {pgfid494}{26316986}{44557290}
\pgfsyspdfmark {pgfid495}{18944172}{44321358}
\pgfsyspdfmark {pgfid496}{18944172}{44321358}
\pgfsyspdfmark {pgfid497}{20582575}{44321358}
\pgfsyspdfmark {pgfid498}{22220978}{44321358}
\pgfsyspdfmark {pgfid499}{23859381}{44321358}
\pgfsyspdfmark {pgfid500}{25497784}{44321358}
\pgfsyspdfmark {pgfid501}{27136187}{44321358}
\pgfsyspdfmark {pgfid502}{27245415}{46097384}
\pgfsyspdfmark {pgfid504}{27245415}{46097384}
\pgfsyspdfmark {pgfid505}{29684824}{48253518}
\pgfsyspdfmark {pgfid506}{30522231}{47703018}
\pgfsyspdfmark {pgfid507}{30686071}{47703018}
\pgfsyspdfmark {pgfid508}{32178838}{47703018}
\pgfsyspdfmark {pgfid509}{33671605}{47703018}
\pgfsyspdfmark {pgfid510}{35164372}{47703018}
\pgfsyspdfmark {pgfid511}{29684824}{47467086}
\pgfsyspdfmark {pgfid512}{30012505}{46916586}
\pgfsyspdfmark {pgfid513}{30431208}{46916586}
\pgfsyspdfmark {pgfid514}{32178838}{46916586}
\pgfsyspdfmark {pgfid515}{33671605}{46916586}
\pgfsyspdfmark {pgfid516}{35164372}{46916586}
\pgfsyspdfmark {pgfid517}{29684824}{46680654}
\pgfsyspdfmark {pgfid518}{30522231}{46130154}
\pgfsyspdfmark {pgfid519}{30686071}{46130154}
\pgfsyspdfmark {pgfid520}{31923975}{46130154}
\pgfsyspdfmark {pgfid521}{33671605}{46130154}
\pgfsyspdfmark {pgfid522}{35164372}{46130154}
\pgfsyspdfmark {pgfid523}{29684824}{45894222}
\pgfsyspdfmark {pgfid524}{30522231}{45343722}
\pgfsyspdfmark {pgfid525}{30686071}{45343722}
\pgfsyspdfmark {pgfid526}{32178838}{45343722}
\pgfsyspdfmark {pgfid527}{33416742}{45343722}
\pgfsyspdfmark {pgfid528}{35164372}{45343722}
\pgfsyspdfmark {pgfid529}{29684824}{45107790}
\pgfsyspdfmark {pgfid530}{30522231}{44557290}
\pgfsyspdfmark {pgfid531}{30686071}{44557290}
\pgfsyspdfmark {pgfid532}{32178838}{44557290}
\pgfsyspdfmark {pgfid533}{33671605}{44557290}
\pgfsyspdfmark {pgfid534}{34909509}{44557290}
\pgfsyspdfmark {pgfid535}{29684824}{44321358}
\pgfsyspdfmark {pgfid536}{29684824}{44321358}
\pgfsyspdfmark {pgfid537}{31177591}{44321358}
\pgfsyspdfmark {pgfid538}{32670358}{44321358}
\pgfsyspdfmark {pgfid539}{34163125}{44321358}
\pgfsyspdfmark {pgfid540}{35655892}{44321358}
\pgfsyspdfmark {pgfid541}{35765120}{46097384}
\pgfsyspdfmark {pgfid543}{35765120}{46097384}
\PgInfo{part@2@1}{2}
\PgInfo{question2@object2}{2}
\newlabel{part@2@1}{{a}{2}{}{}{}}
\newlabel{firstpoints@onpage@2}{{a}{2}{}{}{}}
\PgInfo{part@2@2}{2}
\PgInfo{question2@object3}{2}
\newlabel{part@2@2}{{b}{2}{}{}{}}
\PgInfo{part@2@3}{2}
\PgInfo{question2@object4}{2}
\newlabel{part@2@3}{{c}{2}{}{}{}}
\PgInfo{question2@object5}{2}
\PgInfo{question2@object6}{2}
\PgInfo{question2@object7}{2}
\PgInfo{question2@object8}{2}
\PgInfo{question2@object9}{2}
\PgInfo{question2@object10}{2}
\PgInfo{part@2@4}{2}
\PgInfo{question2@object11}{2}
\newlabel{part@2@4}{{d}{2}{}{}{}}
\PgInfo{part@2@5}{2}
\PgInfo{question2@object12}{2}
\newlabel{part@2@5}{{e}{2}{}{}{}}
\pgfsyspdfmark {pgfid966}{11143939}{19951386}
\pgfsyspdfmark {pgfid967}{11471620}{18684357}
\pgfsyspdfmark {pgfid968}{13683463}{18684357}
\pgfsyspdfmark {pgfid969}{11143939}{17865156}
\pgfsyspdfmark {pgfid970}{11143939}{17865156}
\pgfsyspdfmark {pgfid971}{16222986}{17865156}
\pgfsyspdfmark {pgfid972}{16222986}{17865156}
\pgfsyspdfmark {pgfid973}{16277601}{18718217}
\pgfsyspdfmark {pgfid975}{16277601}{18718217}
\pgfsyspdfmark {pgfid1066}{17069494}{20874351}
\pgfsyspdfmark {pgfid1067}{17397175}{20323851}
\pgfsyspdfmark {pgfid1068}{17888696}{20323851}
\pgfsyspdfmark {pgfid1069}{19527099}{20323851}
\pgfsyspdfmark {pgfid1070}{21165502}{20323851}
\pgfsyspdfmark {pgfid1071}{22803905}{20323851}
\pgfsyspdfmark {pgfid1072}{24442308}{20323851}
\pgfsyspdfmark {pgfid1073}{17069494}{20087919}
\pgfsyspdfmark {pgfid1074}{17397175}{19537419}
\pgfsyspdfmark {pgfid1075}{17888696}{19537419}
\pgfsyspdfmark {pgfid1076}{19527099}{19537419}
\pgfsyspdfmark {pgfid1077}{21165502}{19537419}
\pgfsyspdfmark {pgfid1078}{22803905}{19537419}
\pgfsyspdfmark {pgfid1079}{24442308}{19537419}
\pgfsyspdfmark {pgfid1080}{17069494}{19301487}
\pgfsyspdfmark {pgfid1081}{17397175}{18750987}
\pgfsyspdfmark {pgfid1082}{17888696}{18750987}
\pgfsyspdfmark {pgfid1083}{19527099}{18750987}
\pgfsyspdfmark {pgfid1084}{21165502}{18750987}
\pgfsyspdfmark {pgfid1085}{22803905}{18750987}
\pgfsyspdfmark {pgfid1086}{24442308}{18750987}
\pgfsyspdfmark {pgfid1087}{17069494}{18515055}
\pgfsyspdfmark {pgfid1088}{17397175}{17964555}
\pgfsyspdfmark {pgfid1089}{17888696}{17964555}
\pgfsyspdfmark {pgfid1090}{19527099}{17964555}
\pgfsyspdfmark {pgfid1091}{21165502}{17964555}
\pgfsyspdfmark {pgfid1092}{22803905}{17964555}
\pgfsyspdfmark {pgfid1093}{24442308}{17964555}
\pgfsyspdfmark {pgfid1094}{17069494}{17728623}
\pgfsyspdfmark {pgfid1095}{17397175}{17178123}
\pgfsyspdfmark {pgfid1096}{17888696}{17178123}
\pgfsyspdfmark {pgfid1097}{19527099}{17178123}
\pgfsyspdfmark {pgfid1098}{21165502}{17178123}
\pgfsyspdfmark {pgfid1099}{22803905}{17178123}
\pgfsyspdfmark {pgfid1100}{24442308}{17178123}
\pgfsyspdfmark {pgfid1101}{17069494}{16942191}
\pgfsyspdfmark {pgfid1102}{17069494}{16942191}
\pgfsyspdfmark {pgfid1103}{18707897}{16942191}
\pgfsyspdfmark {pgfid1104}{20346300}{16942191}
\pgfsyspdfmark {pgfid1105}{21984703}{16942191}
\pgfsyspdfmark {pgfid1106}{23623106}{16942191}
\pgfsyspdfmark {pgfid1107}{25261509}{16942191}
\pgfsyspdfmark {pgfid1108}{25370737}{18718217}
\pgfsyspdfmark {pgfid1110}{25370737}{18718217}
\pgfsyspdfmark {pgfid1189}{25479965}{20874351}
\pgfsyspdfmark {pgfid1190}{26317372}{20323851}
\pgfsyspdfmark {pgfid1191}{26481212}{20323851}
\pgfsyspdfmark {pgfid1192}{27973979}{20323851}
\pgfsyspdfmark {pgfid1193}{29466746}{20323851}
\pgfsyspdfmark {pgfid1194}{30959513}{20323851}
\pgfsyspdfmark {pgfid1195}{25479965}{20087919}
\pgfsyspdfmark {pgfid1196}{25807646}{19537419}
\pgfsyspdfmark {pgfid1197}{26226349}{19537419}
\pgfsyspdfmark {pgfid1198}{27973979}{19537419}
\pgfsyspdfmark {pgfid1199}{29466746}{19537419}
\pgfsyspdfmark {pgfid1200}{30959513}{19537419}
\pgfsyspdfmark {pgfid1201}{25479965}{19301487}
\pgfsyspdfmark {pgfid1202}{26317372}{18750987}
\pgfsyspdfmark {pgfid1203}{26481212}{18750987}
\pgfsyspdfmark {pgfid1204}{27719116}{18750987}
\pgfsyspdfmark {pgfid1205}{29466746}{18750987}
\pgfsyspdfmark {pgfid1206}{30959513}{18750987}
\pgfsyspdfmark {pgfid1207}{25479965}{18515055}
\pgfsyspdfmark {pgfid1208}{26317372}{17964555}
\pgfsyspdfmark {pgfid1209}{26481212}{17964555}
\pgfsyspdfmark {pgfid1210}{27973979}{17964555}
\pgfsyspdfmark {pgfid1211}{29211883}{17964555}
\pgfsyspdfmark {pgfid1212}{30959513}{17964555}
\pgfsyspdfmark {pgfid1213}{25479965}{17728623}
\pgfsyspdfmark {pgfid1214}{26317372}{17178123}
\pgfsyspdfmark {pgfid1215}{26481212}{17178123}
\pgfsyspdfmark {pgfid1216}{27973979}{17178123}
\pgfsyspdfmark {pgfid1217}{29466746}{17178123}
\pgfsyspdfmark {pgfid1218}{30704650}{17178123}
\pgfsyspdfmark {pgfid1219}{25479965}{16942191}
\pgfsyspdfmark {pgfid1220}{25479965}{16942191}
\pgfsyspdfmark {pgfid1221}{26972732}{16942191}
\pgfsyspdfmark {pgfid1222}{28465499}{16942191}
\pgfsyspdfmark {pgfid1223}{29958266}{16942191}
\pgfsyspdfmark {pgfid1224}{31451033}{16942191}
\pgfsyspdfmark {pgfid1225}{31560261}{18718217}
\pgfsyspdfmark {pgfid1227}{31560261}{18718217}
\pgfsyspdfmark {pgfid1290}{11198552}{15500357}
\pgfsyspdfmark {pgfid1291}{11526233}{14949857}
\pgfsyspdfmark {pgfid1292}{12272617}{14949857}
\pgfsyspdfmark {pgfid1293}{14347929}{14949857}
\pgfsyspdfmark {pgfid1294}{16241195}{14949857}
\pgfsyspdfmark {pgfid1295}{18644187}{14949857}
\pgfsyspdfmark {pgfid1296}{20956156}{14949857}
\pgfsyspdfmark {pgfid1297}{11198552}{14713925}
\pgfsyspdfmark {pgfid1298}{12035959}{14163425}
\pgfsyspdfmark {pgfid1299}{12527480}{14163425}
\pgfsyspdfmark {pgfid1300}{14256906}{14163425}
\pgfsyspdfmark {pgfid1301}{16496058}{14163425}
\pgfsyspdfmark {pgfid1302}{18389324}{14163425}
\pgfsyspdfmark {pgfid1303}{20537453}{14163425}
\pgfsyspdfmark {pgfid1304}{11198552}{13927493}
\pgfsyspdfmark {pgfid1305}{11526233}{13376993}
\pgfsyspdfmark {pgfid1306}{12272617}{13376993}
\pgfsyspdfmark {pgfid1307}{14347929}{13376993}
\pgfsyspdfmark {pgfid1308}{16241195}{13376993}
\pgfsyspdfmark {pgfid1309}{18644187}{13376993}
\pgfsyspdfmark {pgfid1310}{20792316}{13376993}
\pgfsyspdfmark {pgfid1311}{11198552}{13141061}
\pgfsyspdfmark {pgfid1312}{11198552}{13141061}
\pgfsyspdfmark {pgfid1313}{13346681}{13141061}
\pgfsyspdfmark {pgfid1314}{15167130}{13141061}
\pgfsyspdfmark {pgfid1315}{17315259}{13141061}
\pgfsyspdfmark {pgfid1316}{19463388}{13141061}
\pgfsyspdfmark {pgfid1317}{21611517}{13141061}
\pgfsyspdfmark {pgfid1318}{21720745}{14130655}
\pgfsyspdfmark {pgfid1320}{21720745}{14130655}
\pgfsyspdfmark {pgfid1321}{21829973}{16286789}
\pgfsyspdfmark {pgfid1322}{22157654}{15736289}
\pgfsyspdfmark {pgfid1323}{22321494}{15736289}
\pgfsyspdfmark {pgfid1324}{23304535}{15736289}
\pgfsyspdfmark {pgfid1325}{24287576}{15736289}
\pgfsyspdfmark {pgfid1326}{25270617}{15736289}
\pgfsyspdfmark {pgfid1327}{21829973}{15500357}
\pgfsyspdfmark {pgfid1328}{22157654}{14949857}
\pgfsyspdfmark {pgfid1329}{22321494}{14949857}
\pgfsyspdfmark {pgfid1330}{23304535}{14949857}
\pgfsyspdfmark {pgfid1331}{24287576}{14949857}
\pgfsyspdfmark {pgfid1332}{25270617}{14949857}
\pgfsyspdfmark {pgfid1333}{21829973}{14713925}
\pgfsyspdfmark {pgfid1334}{22157654}{14163425}
\pgfsyspdfmark {pgfid1335}{22321494}{14163425}
\pgfsyspdfmark {pgfid1336}{23304535}{14163425}
\pgfsyspdfmark {pgfid1337}{24287576}{14163425}
\pgfsyspdfmark {pgfid1338}{25270617}{14163425}
\pgfsyspdfmark {pgfid1339}{21829973}{13927493}
\pgfsyspdfmark {pgfid1340}{22157654}{13376993}
\pgfsyspdfmark {pgfid1341}{22321494}{13376993}
\pgfsyspdfmark {pgfid1342}{23304535}{13376993}
\pgfsyspdfmark {pgfid1343}{24287576}{13376993}
\pgfsyspdfmark {pgfid1344}{25270617}{13376993}
\pgfsyspdfmark {pgfid1345}{21829973}{13141061}
\pgfsyspdfmark {pgfid1346}{22157654}{12590561}
\pgfsyspdfmark {pgfid1347}{22321494}{12590561}
\pgfsyspdfmark {pgfid1348}{23304535}{12590561}
\pgfsyspdfmark {pgfid1349}{24287576}{12590561}
\pgfsyspdfmark {pgfid1350}{25270617}{12590561}
\pgfsyspdfmark {pgfid1351}{21829973}{12354629}
\pgfsyspdfmark {pgfid1352}{21829973}{12354629}
\pgfsyspdfmark {pgfid1353}{22813014}{12354629}
\pgfsyspdfmark {pgfid1354}{23796055}{12354629}
\pgfsyspdfmark {pgfid1355}{24779096}{12354629}
\pgfsyspdfmark {pgfid1356}{25762137}{12354629}
\pgfsyspdfmark {pgfid1357}{25871365}{14130655}
\pgfsyspdfmark {pgfid1359}{25871365}{14130655}
\pgfsyspdfmark {pgfid1360}{11198552}{12092455}
\pgfsyspdfmark {pgfid1361}{11526233}{11541955}
\pgfsyspdfmark {pgfid1362}{12272617}{11541955}
\pgfsyspdfmark {pgfid1363}{14347929}{11541955}
\pgfsyspdfmark {pgfid1364}{16496058}{11541955}
\pgfsyspdfmark {pgfid1365}{18808027}{11541955}
\pgfsyspdfmark {pgfid1366}{11198552}{11306023}
\pgfsyspdfmark {pgfid1367}{12035959}{10755523}
\pgfsyspdfmark {pgfid1368}{12527480}{10755523}
\pgfsyspdfmark {pgfid1369}{14256906}{10755523}
\pgfsyspdfmark {pgfid1370}{16241195}{10755523}
\pgfsyspdfmark {pgfid1371}{18389324}{10755523}
\pgfsyspdfmark {pgfid1372}{11198552}{10519591}
\pgfsyspdfmark {pgfid1373}{11526233}{9969091}
\pgfsyspdfmark {pgfid1374}{12272617}{9969091}
\pgfsyspdfmark {pgfid1375}{14347929}{9969091}
\pgfsyspdfmark {pgfid1376}{16496058}{9969091}
\pgfsyspdfmark {pgfid1377}{18644187}{9969091}
\pgfsyspdfmark {pgfid1378}{11198552}{9733159}
\pgfsyspdfmark {pgfid1379}{11198552}{9733159}
\pgfsyspdfmark {pgfid1380}{13346681}{9733159}
\pgfsyspdfmark {pgfid1381}{15167130}{9733159}
\pgfsyspdfmark {pgfid1382}{17315259}{9733159}
\pgfsyspdfmark {pgfid1383}{19463388}{9733159}
\pgfsyspdfmark {pgfid1384}{19572616}{10722753}
\pgfsyspdfmark {pgfid1386}{19572616}{10722753}
\gdef\pointsofq@ii{34}
\gdef\bonuspointsofq@ii{0}
\ExplSyntaxOn 
\char_set_catcode_space:n {32}
\tl_gset:cn {c__nicematrix_47_tl}{\seq_gset_from_clist:Nn \g__nicematrix_size_seq {1,5,5,1,5,5}}
\ExplSyntaxOff 
\ExplSyntaxOn 
\char_set_catcode_space:n {32}
\tl_gset:cn {c__nicematrix_48_tl}{\seq_gset_from_clist:Nn \g__nicematrix_size_seq {1,5,5,1,5,5}}
\ExplSyntaxOff 
\ExplSyntaxOn 
\char_set_catcode_space:n {32}
\tl_gset:cn {c__nicematrix_49_tl}{\seq_gset_from_clist:Nn \g__nicematrix_size_seq {1,5,5,1,5,5}}
\ExplSyntaxOff 
\ExplSyntaxOn 
\char_set_catcode_space:n {32}
\tl_gset:cn {c__nicematrix_50_tl}{\seq_gset_from_clist:Nn \g__nicematrix_size_seq {1,5,5,1,5,5}}
\ExplSyntaxOff 
\ExplSyntaxOn 
\char_set_catcode_space:n {32}
\tl_gset:cn {c__nicematrix_51_tl}{\seq_gset_from_clist:Nn \g__nicematrix_size_seq {1,5,5,1,5,5}}
\ExplSyntaxOff 
\ExplSyntaxOn 
\char_set_catcode_space:n {32}
\tl_gset:cn {c__nicematrix_52_tl}{\seq_gset_from_clist:Nn \g__nicematrix_size_seq {1,5,5,1,5,5}}
\ExplSyntaxOff 
\ExplSyntaxOn 
\char_set_catcode_space:n {32}
\tl_gset:cn {c__nicematrix_53_tl}{\seq_gset_from_clist:Nn \g__nicematrix_size_seq {1,5,5,1,5,5}}
\ExplSyntaxOff 
\ExplSyntaxOn 
\char_set_catcode_space:n {32}
\tl_gset:cn {c__nicematrix_54_tl}{\seq_gset_from_clist:Nn \g__nicematrix_size_seq {1,5,5,1,5,5}}
\ExplSyntaxOff 
\ExplSyntaxOn 
\char_set_catcode_space:n {32}
\tl_gset:cn {c__nicematrix_55_tl}{\seq_gset_from_clist:Nn \g__nicematrix_size_seq {1,5,5,1,5,5}}
\ExplSyntaxOff 
\ExplSyntaxOn 
\char_set_catcode_space:n {32}
\tl_gset:cn {c__nicematrix_56_tl}{\seq_gset_from_clist:Nn \g__nicematrix_size_seq {1,5,5,1,5,5}}
\ExplSyntaxOff 
\ExplSyntaxOn 
\char_set_catcode_space:n {32}
\tl_gset:cn {c__nicematrix_57_tl}{\seq_gset_from_clist:Nn \g__nicematrix_size_seq {1,5,5,1,5,5}}
\ExplSyntaxOff 
\ExplSyntaxOn 
\char_set_catcode_space:n {32}
\tl_gset:cn {c__nicematrix_58_tl}{\seq_gset_from_clist:Nn \g__nicematrix_size_seq {1,5,5,1,5,5}}
\ExplSyntaxOff 
\ExplSyntaxOn 
\char_set_catcode_space:n {32}
\tl_gset:cn {c__nicematrix_59_tl}{\seq_gset_from_clist:Nn \g__nicematrix_size_seq {1,5,5,1,5,5}}
\ExplSyntaxOff 
\ExplSyntaxOn 
\char_set_catcode_space:n {32}
\tl_gset:cn {c__nicematrix_60_tl}{\seq_gset_from_clist:Nn \g__nicematrix_size_seq {1,5,5,1,5,5}}
\ExplSyntaxOff 
\ExplSyntaxOn 
\char_set_catcode_space:n {32}
\tl_gset:cn {c__nicematrix_61_tl}{\seq_gset_from_clist:Nn \g__nicematrix_size_seq {1,5,5,1,5,5}}
\ExplSyntaxOff 
\ExplSyntaxOn 
\char_set_catcode_space:n {32}
\tl_gset:cn {c__nicematrix_62_tl}{\seq_gset_from_clist:Nn \g__nicematrix_size_seq {1,5,5,1,5,5}}
\ExplSyntaxOff 
\ExplSyntaxOn 
\char_set_catcode_space:n {32}
\tl_gset:cn {c__nicematrix_63_tl}{\seq_gset_from_clist:Nn \g__nicematrix_size_seq {1,5,5,1,5,5}}
\ExplSyntaxOff 
\ExplSyntaxOn 
\char_set_catcode_space:n {32}
\tl_gset:cn {c__nicematrix_64_tl}{\seq_gset_from_clist:Nn \g__nicematrix_size_seq {1,5,5,1,5,5}}
\ExplSyntaxOff 
\gdef\pointsonpage@ii{34}
\ExplSyntaxOn 
\char_set_catcode_space:n {32}
\tl_gset:cn {c__nicematrix_65_tl}{\seq_gset_from_clist:Nn \g__nicematrix_size_seq {1,1,1,1,5,5}}
\ExplSyntaxOff 
\ExplSyntaxOn 
\char_set_catcode_space:n {32}
\tl_gset:cn {c__nicematrix_66_tl}{\seq_gset_from_clist:Nn \g__nicematrix_size_seq {1,1,1,1,5,5}}
\ExplSyntaxOff 
\ExplSyntaxOn 
\char_set_catcode_space:n {32}
\tl_gset:cn {c__nicematrix_67_tl}{\seq_gset_from_clist:Nn \g__nicematrix_size_seq {1,1,1,1,5,5}}
\ExplSyntaxOff 
\ExplSyntaxOn 
\char_set_catcode_space:n {32}
\tl_gset:cn {c__nicematrix_68_tl}{\seq_gset_from_clist:Nn \g__nicematrix_size_seq {1,1,1,1,5,5}}
\ExplSyntaxOff 
\ExplSyntaxOn 
\char_set_catcode_space:n {32}
\tl_gset:cn {c__nicematrix_69_tl}{\seq_gset_from_clist:Nn \g__nicematrix_size_seq {1,5,5,1,5,5}}
\ExplSyntaxOff 
\ExplSyntaxOn 
\char_set_catcode_space:n {32}
\tl_gset:cn {c__nicematrix_70_tl}{\seq_gset_from_clist:Nn \g__nicematrix_size_seq {1,5,5,1,5,5}}
\ExplSyntaxOff 
\ExplSyntaxOn 
\char_set_catcode_space:n {32}
\tl_gset:cn {c__nicematrix_71_tl}{\seq_gset_from_clist:Nn \g__nicematrix_size_seq {1,5,5,1,5,5}}
\ExplSyntaxOff 
\ExplSyntaxOn 
\char_set_catcode_space:n {32}
\tl_gset:cn {c__nicematrix_72_tl}{\seq_gset_from_clist:Nn \g__nicematrix_size_seq {1,3,3,1,5,5}}
\ExplSyntaxOff 
\ExplSyntaxOn 
\char_set_catcode_space:n {32}
\tl_gset:cn {c__nicematrix_73_tl}{\seq_gset_from_clist:Nn \g__nicematrix_size_seq {1,3,3,1,5,5}}
\ExplSyntaxOff 
\ExplSyntaxOn 
\char_set_catcode_space:n {32}
\tl_gset:cn {c__nicematrix_74_tl}{\seq_gset_from_clist:Nn \g__nicematrix_size_seq {1,5,5,1,5,5}}
\ExplSyntaxOff 
\ExplSyntaxOn 
\char_set_catcode_space:n {32}
\tl_gset:cn {c__nicematrix_75_tl}{\seq_gset_from_clist:Nn \g__nicematrix_size_seq {1,5,5,1,5,5}}
\ExplSyntaxOff 
\ExplSyntaxOn 
\char_set_catcode_space:n {32}
\tl_gset:cn {c__nicematrix_76_tl}{\seq_gset_from_clist:Nn \g__nicematrix_size_seq {1,5,5,1,5,5}}
\ExplSyntaxOff 
\ExplSyntaxOn 
\char_set_catcode_space:n {32}
\tl_gset:cn {c__nicematrix_77_tl}{\seq_gset_from_clist:Nn \g__nicematrix_size_seq {1,5,5,1,5,5}}
\ExplSyntaxOff 
\ExplSyntaxOn 
\char_set_catcode_space:n {32}
\tl_gset:cn {c__nicematrix_78_tl}{\seq_gset_from_clist:Nn \g__nicematrix_size_seq {1,5,5,1,5,5}}
\ExplSyntaxOff 
\ExplSyntaxOn 
\char_set_catcode_space:n {32}
\tl_gset:cn {c__nicematrix_79_tl}{\seq_gset_from_clist:Nn \g__nicematrix_size_seq {1,3,3,1,5,5}}
\ExplSyntaxOff 
\ExplSyntaxOn 
\char_set_catcode_space:n {32}
\tl_gset:cn {c__nicematrix_80_tl}{\seq_gset_from_clist:Nn \g__nicematrix_size_seq {1,3,3,1,5,5}}
\ExplSyntaxOff 
\ExplSyntaxOn 
\char_set_catcode_space:n {32}
\tl_gset:cn {c__nicematrix_81_tl}{\seq_gset_from_clist:Nn \g__nicematrix_size_seq {1,5,5,1,5,5}}
\ExplSyntaxOff 
\ExplSyntaxOn 
\char_set_catcode_space:n {32}
\tl_gset:cn {c__nicematrix_82_tl}{\seq_gset_from_clist:Nn \g__nicematrix_size_seq {1,5,5,1,5,5}}
\ExplSyntaxOff 
\PgInfo{question@3}{3}
\PgInfo{question3@object1}{3}
\newlabel{question@3}{{\textbf  {Problem 3}}{3}{}{}{}}
\pgfsyspdfmark {pgfid1882}{9734466}{47743430}
\pgfsyspdfmark {pgfid1883}{10062147}{47192930}
\pgfsyspdfmark {pgfid1884}{10225987}{47192930}
\pgfsyspdfmark {pgfid1885}{11209028}{47192930}
\pgfsyspdfmark {pgfid1886}{12446932}{47192930}
\pgfsyspdfmark {pgfid1887}{14194562}{47192930}
\pgfsyspdfmark {pgfid1888}{15687329}{47192930}
\pgfsyspdfmark {pgfid1889}{9734466}{46956998}
\pgfsyspdfmark {pgfid1890}{10062147}{46406498}
\pgfsyspdfmark {pgfid1891}{10225987}{46406498}
\pgfsyspdfmark {pgfid1892}{11209028}{46406498}
\pgfsyspdfmark {pgfid1893}{12446932}{46406498}
\pgfsyspdfmark {pgfid1894}{13939699}{46406498}
\pgfsyspdfmark {pgfid1895}{15687329}{46406498}
\pgfsyspdfmark {pgfid1896}{9734466}{46170566}
\pgfsyspdfmark {pgfid1897}{10062147}{45620066}
\pgfsyspdfmark {pgfid1898}{10225987}{45620066}
\pgfsyspdfmark {pgfid1899}{11209028}{45620066}
\pgfsyspdfmark {pgfid1900}{12701795}{45620066}
\pgfsyspdfmark {pgfid1901}{14194562}{45620066}
\pgfsyspdfmark {pgfid1902}{15687329}{45620066}
\pgfsyspdfmark {pgfid1903}{9734466}{45384134}
\pgfsyspdfmark {pgfid1904}{10062147}{44833634}
\pgfsyspdfmark {pgfid1905}{10225987}{44833634}
\pgfsyspdfmark {pgfid1906}{11209028}{44833634}
\pgfsyspdfmark {pgfid1907}{12701795}{44833634}
\pgfsyspdfmark {pgfid1908}{13939699}{44833634}
\pgfsyspdfmark {pgfid1909}{15432466}{44833634}
\pgfsyspdfmark {pgfid1910}{9734466}{44597702}
\pgfsyspdfmark {pgfid1911}{10062147}{44047202}
\pgfsyspdfmark {pgfid1912}{10225987}{44047202}
\pgfsyspdfmark {pgfid1913}{11209028}{44047202}
\pgfsyspdfmark {pgfid1914}{12701795}{44047202}
\pgfsyspdfmark {pgfid1915}{14194562}{44047202}
\pgfsyspdfmark {pgfid1916}{15687329}{44047202}
\pgfsyspdfmark {pgfid1917}{9734466}{43811270}
\pgfsyspdfmark {pgfid1918}{9734466}{43811270}
\pgfsyspdfmark {pgfid1919}{10717507}{43811270}
\pgfsyspdfmark {pgfid1920}{11700548}{43811270}
\pgfsyspdfmark {pgfid1921}{13193315}{43811270}
\pgfsyspdfmark {pgfid1922}{14686082}{43811270}
\pgfsyspdfmark {pgfid1923}{16178849}{43811270}
\pgfsyspdfmark {pgfid1924}{16288077}{45587296}
\pgfsyspdfmark {pgfid1926}{16288077}{45587296}
\pgfsyspdfmark {pgfid2017}{16397305}{47743430}
\pgfsyspdfmark {pgfid2018}{17234712}{47192930}
\pgfsyspdfmark {pgfid2019}{17398552}{47192930}
\pgfsyspdfmark {pgfid2020}{18891319}{47192930}
\pgfsyspdfmark {pgfid2021}{20129223}{47192930}
\pgfsyspdfmark {pgfid2022}{21621990}{47192930}
\pgfsyspdfmark {pgfid2023}{23442439}{47192930}
\pgfsyspdfmark {pgfid2024}{16397305}{46956998}
\pgfsyspdfmark {pgfid2025}{16724986}{46406498}
\pgfsyspdfmark {pgfid2026}{17143689}{46406498}
\pgfsyspdfmark {pgfid2027}{18636456}{46406498}
\pgfsyspdfmark {pgfid2028}{20384086}{46406498}
\pgfsyspdfmark {pgfid2029}{21876853}{46406498}
\pgfsyspdfmark {pgfid2030}{23697302}{46406498}
\pgfsyspdfmark {pgfid2031}{16397305}{46170566}
\pgfsyspdfmark {pgfid2032}{17234712}{45620066}
\pgfsyspdfmark {pgfid2033}{17398552}{45620066}
\pgfsyspdfmark {pgfid2034}{18891319}{45620066}
\pgfsyspdfmark {pgfid2035}{20384086}{45620066}
\pgfsyspdfmark {pgfid2036}{21876853}{45620066}
\pgfsyspdfmark {pgfid2037}{23697302}{45620066}
\pgfsyspdfmark {pgfid2038}{16397305}{45384134}
\pgfsyspdfmark {pgfid2039}{16724986}{44833634}
\pgfsyspdfmark {pgfid2040}{17143689}{44833634}
\pgfsyspdfmark {pgfid2041}{18636456}{44833634}
\pgfsyspdfmark {pgfid2042}{20129223}{44833634}
\pgfsyspdfmark {pgfid2043}{21621990}{44833634}
\pgfsyspdfmark {pgfid2044}{23278598}{44833634}
\pgfsyspdfmark {pgfid2045}{16397305}{44597702}
\pgfsyspdfmark {pgfid2046}{17234712}{44047202}
\pgfsyspdfmark {pgfid2047}{17398552}{44047202}
\pgfsyspdfmark {pgfid2048}{18891319}{44047202}
\pgfsyspdfmark {pgfid2049}{20384086}{44047202}
\pgfsyspdfmark {pgfid2050}{21876853}{44047202}
\pgfsyspdfmark {pgfid2051}{23533461}{44047202}
\pgfsyspdfmark {pgfid2052}{16397305}{43811270}
\pgfsyspdfmark {pgfid2053}{16397305}{43811270}
\pgfsyspdfmark {pgfid2054}{17890072}{43811270}
\pgfsyspdfmark {pgfid2055}{19382839}{43811270}
\pgfsyspdfmark {pgfid2056}{20875606}{43811270}
\pgfsyspdfmark {pgfid2057}{22368373}{43811270}
\pgfsyspdfmark {pgfid2058}{24188822}{43811270}
\pgfsyspdfmark {pgfid2059}{24298050}{45587296}
\pgfsyspdfmark {pgfid2061}{24298050}{45587296}
\pgfsyspdfmark {pgfid2152}{25281084}{47743430}
\pgfsyspdfmark {pgfid2153}{25608765}{47192930}
\pgfsyspdfmark {pgfid2154}{25772605}{47192930}
\pgfsyspdfmark {pgfid2155}{26755646}{47192930}
\pgfsyspdfmark {pgfid2156}{27738687}{47192930}
\pgfsyspdfmark {pgfid2157}{28721728}{47192930}
\pgfsyspdfmark {pgfid2158}{30032451}{47192930}
\pgfsyspdfmark {pgfid2159}{25281084}{46956998}
\pgfsyspdfmark {pgfid2160}{25608765}{46406498}
\pgfsyspdfmark {pgfid2161}{25772605}{46406498}
\pgfsyspdfmark {pgfid2162}{26755646}{46406498}
\pgfsyspdfmark {pgfid2163}{27738687}{46406498}
\pgfsyspdfmark {pgfid2164}{28721728}{46406498}
\pgfsyspdfmark {pgfid2165}{29868610}{46406498}
\pgfsyspdfmark {pgfid2166}{25281084}{46170566}
\pgfsyspdfmark {pgfid2167}{25608765}{45620066}
\pgfsyspdfmark {pgfid2168}{25772605}{45620066}
\pgfsyspdfmark {pgfid2169}{26755646}{45620066}
\pgfsyspdfmark {pgfid2170}{27738687}{45620066}
\pgfsyspdfmark {pgfid2171}{28721728}{45620066}
\pgfsyspdfmark {pgfid2172}{30032451}{45620066}
\pgfsyspdfmark {pgfid2173}{25281084}{45384134}
\pgfsyspdfmark {pgfid2174}{25608765}{44833634}
\pgfsyspdfmark {pgfid2175}{25772605}{44833634}
\pgfsyspdfmark {pgfid2176}{26755646}{44833634}
\pgfsyspdfmark {pgfid2177}{27738687}{44833634}
\pgfsyspdfmark {pgfid2178}{28721728}{44833634}
\pgfsyspdfmark {pgfid2179}{30032451}{44833634}
\pgfsyspdfmark {pgfid2180}{25281084}{44597702}
\pgfsyspdfmark {pgfid2181}{25608765}{44047202}
\pgfsyspdfmark {pgfid2182}{25772605}{44047202}
\pgfsyspdfmark {pgfid2183}{26755646}{44047202}
\pgfsyspdfmark {pgfid2184}{27738687}{44047202}
\pgfsyspdfmark {pgfid2185}{28721728}{44047202}
\pgfsyspdfmark {pgfid2186}{30032451}{44047202}
\pgfsyspdfmark {pgfid2187}{25281084}{43811270}
\pgfsyspdfmark {pgfid2188}{25281084}{43811270}
\pgfsyspdfmark {pgfid2189}{26264125}{43811270}
\pgfsyspdfmark {pgfid2190}{27247166}{43811270}
\pgfsyspdfmark {pgfid2191}{28230207}{43811270}
\pgfsyspdfmark {pgfid2192}{29213248}{43811270}
\pgfsyspdfmark {pgfid2193}{30523971}{43811270}
\pgfsyspdfmark {pgfid2194}{30633199}{45587296}
\pgfsyspdfmark {pgfid2196}{30633199}{45587296}
\PgInfo{part@3@1}{3}
\PgInfo{question3@object2}{3}
\newlabel{part@3@1}{{a}{3}{}{}{}}
\newlabel{firstpoints@onpage@3}{{a}{3}{}{}{}}
\PgInfo{part@3@2}{3}
\PgInfo{question3@object3}{3}
\newlabel{part@3@2}{{b}{3}{}{}{}}
\PgInfo{question3@object4}{3}
\PgInfo{question3@object5}{3}
\PgInfo{question3@object6}{3}
\PgInfo{question3@object7}{3}
\PgInfo{question3@object8}{3}
\PgInfo{part@3@3}{3}
\PgInfo{question3@object9}{3}
\newlabel{part@3@3}{{c}{3}{}{}{}}
\PgInfo{question3@object10}{3}
\pgfsyspdfmark {pgfid2197}{7079322}{31490474}
\pgfsyspdfmark {pgfid2198}{7407003}{30939974}
\pgfsyspdfmark {pgfid2199}{7570843}{30939974}
\pgfsyspdfmark {pgfid2200}{8553884}{30939974}
\pgfsyspdfmark {pgfid2201}{9791788}{30939974}
\pgfsyspdfmark {pgfid2202}{11029692}{30939974}
\pgfsyspdfmark {pgfid2203}{12012733}{30939974}
\pgfsyspdfmark {pgfid2204}{7079322}{30704042}
\pgfsyspdfmark {pgfid2205}{7079322}{30704042}
\pgfsyspdfmark {pgfid2206}{8062363}{30704042}
\pgfsyspdfmark {pgfid2207}{9045404}{30704042}
\pgfsyspdfmark {pgfid2208}{10538171}{30704042}
\pgfsyspdfmark {pgfid2209}{11521212}{30704042}
\pgfsyspdfmark {pgfid2210}{12504253}{30704042}
\pgfsyspdfmark {pgfid2211}{12449641}{30907204}
\pgfsyspdfmark {pgfid2213}{12449641}{30907204}
\PgInfo{question3@object11}{3}
\pgfsyspdfmark {pgfid2214}{15796522}{31490474}
\pgfsyspdfmark {pgfid2215}{16124203}{30939974}
\pgfsyspdfmark {pgfid2216}{16288043}{30939974}
\pgfsyspdfmark {pgfid2217}{17271084}{30939974}
\pgfsyspdfmark {pgfid2218}{18254125}{30939974}
\pgfsyspdfmark {pgfid2219}{19237166}{30939974}
\pgfsyspdfmark {pgfid2220}{20220207}{30939974}
\pgfsyspdfmark {pgfid2221}{15796522}{30704042}
\pgfsyspdfmark {pgfid2222}{15796522}{30704042}
\pgfsyspdfmark {pgfid2223}{16779563}{30704042}
\pgfsyspdfmark {pgfid2224}{17762604}{30704042}
\pgfsyspdfmark {pgfid2225}{18745645}{30704042}
\pgfsyspdfmark {pgfid2226}{19728686}{30704042}
\pgfsyspdfmark {pgfid2227}{20711727}{30704042}
\pgfsyspdfmark {pgfid2228}{20657115}{30907204}
\pgfsyspdfmark {pgfid2230}{20657115}{30907204}
\PgInfo{question3@object12}{3}
\pgfsyspdfmark {pgfid2231}{7079322}{29292277}
\pgfsyspdfmark {pgfid2232}{7407003}{28741777}
\pgfsyspdfmark {pgfid2233}{7570843}{28741777}
\pgfsyspdfmark {pgfid2234}{8553884}{28741777}
\pgfsyspdfmark {pgfid2235}{9791788}{28741777}
\pgfsyspdfmark {pgfid2236}{11029692}{28741777}
\pgfsyspdfmark {pgfid2237}{12012733}{28741777}
\pgfsyspdfmark {pgfid2238}{7079322}{28505845}
\pgfsyspdfmark {pgfid2239}{7079322}{28505845}
\pgfsyspdfmark {pgfid2240}{8062363}{28505845}
\pgfsyspdfmark {pgfid2241}{9045404}{28505845}
\pgfsyspdfmark {pgfid2242}{10538171}{28505845}
\pgfsyspdfmark {pgfid2243}{11521212}{28505845}
\pgfsyspdfmark {pgfid2244}{12504253}{28505845}
\pgfsyspdfmark {pgfid2245}{12449641}{28709007}
\pgfsyspdfmark {pgfid2247}{12449641}{28709007}
\PgInfo{question3@object13}{3}
\pgfsyspdfmark {pgfid2248}{15687296}{29292277}
\pgfsyspdfmark {pgfid2249}{16014977}{28741777}
\pgfsyspdfmark {pgfid2250}{16178817}{28741777}
\pgfsyspdfmark {pgfid2251}{17161858}{28741777}
\pgfsyspdfmark {pgfid2252}{18399762}{28741777}
\pgfsyspdfmark {pgfid2253}{19637666}{28741777}
\pgfsyspdfmark {pgfid2254}{20875570}{28741777}
\pgfsyspdfmark {pgfid2255}{15687296}{28505845}
\pgfsyspdfmark {pgfid2256}{15687296}{28505845}
\pgfsyspdfmark {pgfid2257}{16670337}{28505845}
\pgfsyspdfmark {pgfid2258}{17653378}{28505845}
\pgfsyspdfmark {pgfid2259}{19146145}{28505845}
\pgfsyspdfmark {pgfid2260}{20129186}{28505845}
\pgfsyspdfmark {pgfid2261}{21621953}{28505845}
\pgfsyspdfmark {pgfid2262}{21567341}{28709007}
\pgfsyspdfmark {pgfid2264}{21567341}{28709007}
\PgInfo{part@3@4}{3}
\PgInfo{question3@object14}{3}
\newlabel{part@3@4}{{d}{3}{}{}{}}
\pgfsyspdfmark {pgfid2642}{5044984}{20368320}
\pgfsyspdfmark {pgfid2643}{5882391}{19817820}
\pgfsyspdfmark {pgfid2644}{6046231}{19817820}
\pgfsyspdfmark {pgfid2645}{7538998}{19817820}
\pgfsyspdfmark {pgfid2646}{8776902}{19817820}
\pgfsyspdfmark {pgfid2647}{10269669}{19817820}
\pgfsyspdfmark {pgfid2648}{12090118}{19817820}
\pgfsyspdfmark {pgfid2649}{5044984}{19581888}
\pgfsyspdfmark {pgfid2650}{5372665}{19031388}
\pgfsyspdfmark {pgfid2651}{5791368}{19031388}
\pgfsyspdfmark {pgfid2652}{7284135}{19031388}
\pgfsyspdfmark {pgfid2653}{9031765}{19031388}
\pgfsyspdfmark {pgfid2654}{10524532}{19031388}
\pgfsyspdfmark {pgfid2655}{12344981}{19031388}
\pgfsyspdfmark {pgfid2656}{5044984}{18795456}
\pgfsyspdfmark {pgfid2657}{5882391}{18244956}
\pgfsyspdfmark {pgfid2658}{6046231}{18244956}
\pgfsyspdfmark {pgfid2659}{7538998}{18244956}
\pgfsyspdfmark {pgfid2660}{9031765}{18244956}
\pgfsyspdfmark {pgfid2661}{10524532}{18244956}
\pgfsyspdfmark {pgfid2662}{12344981}{18244956}
\pgfsyspdfmark {pgfid2663}{5044984}{18009024}
\pgfsyspdfmark {pgfid2664}{5372665}{17458524}
\pgfsyspdfmark {pgfid2665}{5791368}{17458524}
\pgfsyspdfmark {pgfid2666}{7284135}{17458524}
\pgfsyspdfmark {pgfid2667}{8776902}{17458524}
\pgfsyspdfmark {pgfid2668}{10269669}{17458524}
\pgfsyspdfmark {pgfid2669}{11926277}{17458524}
\pgfsyspdfmark {pgfid2670}{5044984}{17222592}
\pgfsyspdfmark {pgfid2671}{5882391}{16672092}
\pgfsyspdfmark {pgfid2672}{6046231}{16672092}
\pgfsyspdfmark {pgfid2673}{7538998}{16672092}
\pgfsyspdfmark {pgfid2674}{9031765}{16672092}
\pgfsyspdfmark {pgfid2675}{10524532}{16672092}
\pgfsyspdfmark {pgfid2676}{12181140}{16672092}
\pgfsyspdfmark {pgfid2677}{5044984}{16436160}
\pgfsyspdfmark {pgfid2678}{5044984}{16436160}
\pgfsyspdfmark {pgfid2679}{6537751}{16436160}
\pgfsyspdfmark {pgfid2680}{8030518}{16436160}
\pgfsyspdfmark {pgfid2681}{9523285}{16436160}
\pgfsyspdfmark {pgfid2682}{11016052}{16436160}
\pgfsyspdfmark {pgfid2683}{12836501}{16436160}
\pgfsyspdfmark {pgfid2684}{12945729}{18212186}
\pgfsyspdfmark {pgfid2686}{12945729}{18212186}
\pgfsyspdfmark {pgfid2718}{13291862}{20884735}
\pgfsyspdfmark {pgfid2719}{13291863}{20334235}
\pgfsyspdfmark {pgfid2720}{13612110}{20334235}
\pgfsyspdfmark {pgfid2721}{14842581}{20334235}
\pgfsyspdfmark {pgfid2722}{16509956}{20334235}
\pgfsyspdfmark {pgfid2723}{17813244}{20334235}
\pgfsyspdfmark {pgfid2724}{19116532}{20334235}
\pgfsyspdfmark {pgfid2725}{13291862}{20098303}
\pgfsyspdfmark {pgfid2726}{13291863}{19547803}
\pgfsyspdfmark {pgfid2727}{13612110}{19547803}
\pgfsyspdfmark {pgfid2728}{14842581}{19547803}
\pgfsyspdfmark {pgfid2729}{16291504}{19547803}
\pgfsyspdfmark {pgfid2730}{17813244}{19547803}
\pgfsyspdfmark {pgfid2731}{19116532}{19547803}
\pgfsyspdfmark {pgfid2732}{13291862}{19311871}
\pgfsyspdfmark {pgfid2733}{13291863}{18761371}
\pgfsyspdfmark {pgfid2734}{13612110}{18761371}
\pgfsyspdfmark {pgfid2735}{14842581}{18761371}
\pgfsyspdfmark {pgfid2736}{16509956}{18761371}
\pgfsyspdfmark {pgfid2737}{17813244}{18761371}
\pgfsyspdfmark {pgfid2738}{19116532}{18761371}
\pgfsyspdfmark {pgfid2739}{13291862}{18525439}
\pgfsyspdfmark {pgfid2740}{13291862}{18525439}
\pgfsyspdfmark {pgfid2741}{14260037}{18525439}
\pgfsyspdfmark {pgfid2742}{15425124}{18525439}
\pgfsyspdfmark {pgfid2743}{17157883}{18525439}
\pgfsyspdfmark {pgfid2744}{18468604}{18525439}
\pgfsyspdfmark {pgfid2745}{19436779}{18525439}
\pgfsyspdfmark {pgfid2746}{19436779}{19541247}
\pgfsyspdfmark {pgfid2748}{19436779}{19541247}
\pgfsyspdfmark {pgfid2749}{19981644}{20368320}
\pgfsyspdfmark {pgfid2750}{20309325}{19817820}
\pgfsyspdfmark {pgfid2751}{20473165}{19817820}
\pgfsyspdfmark {pgfid2752}{21456206}{19817820}
\pgfsyspdfmark {pgfid2753}{22694110}{19817820}
\pgfsyspdfmark {pgfid2754}{24514559}{19817820}
\pgfsyspdfmark {pgfid2755}{26335008}{19817820}
\pgfsyspdfmark {pgfid2756}{19981644}{19581888}
\pgfsyspdfmark {pgfid2757}{20309325}{19031388}
\pgfsyspdfmark {pgfid2758}{20473165}{19031388}
\pgfsyspdfmark {pgfid2759}{21456206}{19031388}
\pgfsyspdfmark {pgfid2760}{22948973}{19031388}
\pgfsyspdfmark {pgfid2761}{24769422}{19031388}
\pgfsyspdfmark {pgfid2762}{26589871}{19031388}
\pgfsyspdfmark {pgfid2763}{19981644}{18795456}
\pgfsyspdfmark {pgfid2764}{20309325}{18244956}
\pgfsyspdfmark {pgfid2765}{20473165}{18244956}
\pgfsyspdfmark {pgfid2766}{21456206}{18244956}
\pgfsyspdfmark {pgfid2767}{22948973}{18244956}
\pgfsyspdfmark {pgfid2768}{24605581}{18244956}
\pgfsyspdfmark {pgfid2769}{26426030}{18244956}
\pgfsyspdfmark {pgfid2770}{19981644}{18009024}
\pgfsyspdfmark {pgfid2771}{20309325}{17458524}
\pgfsyspdfmark {pgfid2772}{20473165}{17458524}
\pgfsyspdfmark {pgfid2773}{21456206}{17458524}
\pgfsyspdfmark {pgfid2774}{22694110}{17458524}
\pgfsyspdfmark {pgfid2775}{24350718}{17458524}
\pgfsyspdfmark {pgfid2776}{26171167}{17458524}
\pgfsyspdfmark {pgfid2777}{19981644}{17222592}
\pgfsyspdfmark {pgfid2778}{20309325}{16672092}
\pgfsyspdfmark {pgfid2779}{20473165}{16672092}
\pgfsyspdfmark {pgfid2780}{21456206}{16672092}
\pgfsyspdfmark {pgfid2781}{22948973}{16672092}
\pgfsyspdfmark {pgfid2782}{24769422}{16672092}
\pgfsyspdfmark {pgfid2783}{26426030}{16672092}
\pgfsyspdfmark {pgfid2784}{19981644}{16436160}
\pgfsyspdfmark {pgfid2785}{19981644}{16436160}
\pgfsyspdfmark {pgfid2786}{20964685}{16436160}
\pgfsyspdfmark {pgfid2787}{21947726}{16436160}
\pgfsyspdfmark {pgfid2788}{23440493}{16436160}
\pgfsyspdfmark {pgfid2789}{25260942}{16436160}
\pgfsyspdfmark {pgfid2790}{27081391}{16436160}
\pgfsyspdfmark {pgfid2791}{27190619}{18212186}
\pgfsyspdfmark {pgfid2793}{27190619}{18212186}
\pgfsyspdfmark {pgfid2794}{29671542}{20368320}
\pgfsyspdfmark {pgfid2795}{29999223}{19817820}
\pgfsyspdfmark {pgfid2796}{30163063}{19817820}
\pgfsyspdfmark {pgfid2797}{31146104}{19817820}
\pgfsyspdfmark {pgfid2798}{32384008}{19817820}
\pgfsyspdfmark {pgfid2799}{34204457}{19817820}
\pgfsyspdfmark {pgfid2800}{36024906}{19817820}
\pgfsyspdfmark {pgfid2801}{29671542}{19581888}
\pgfsyspdfmark {pgfid2802}{29999223}{19031388}
\pgfsyspdfmark {pgfid2803}{30163063}{19031388}
\pgfsyspdfmark {pgfid2804}{31146104}{19031388}
\pgfsyspdfmark {pgfid2805}{32638871}{19031388}
\pgfsyspdfmark {pgfid2806}{34295479}{19031388}
\pgfsyspdfmark {pgfid2807}{36115928}{19031388}
\pgfsyspdfmark {pgfid2808}{29671542}{18795456}
\pgfsyspdfmark {pgfid2809}{29999223}{18244956}
\pgfsyspdfmark {pgfid2810}{30163063}{18244956}
\pgfsyspdfmark {pgfid2811}{31146104}{18244956}
\pgfsyspdfmark {pgfid2812}{32638871}{18244956}
\pgfsyspdfmark {pgfid2813}{34459320}{18244956}
\pgfsyspdfmark {pgfid2814}{36279769}{18244956}
\pgfsyspdfmark {pgfid2815}{29671542}{18009024}
\pgfsyspdfmark {pgfid2816}{29999223}{17458524}
\pgfsyspdfmark {pgfid2817}{30163063}{17458524}
\pgfsyspdfmark {pgfid2818}{31146104}{17458524}
\pgfsyspdfmark {pgfid2819}{32384008}{17458524}
\pgfsyspdfmark {pgfid2820}{34040616}{17458524}
\pgfsyspdfmark {pgfid2821}{35861065}{17458524}
\pgfsyspdfmark {pgfid2822}{29671542}{17222592}
\pgfsyspdfmark {pgfid2823}{29999223}{16672092}
\pgfsyspdfmark {pgfid2824}{30163063}{16672092}
\pgfsyspdfmark {pgfid2825}{31146104}{16672092}
\pgfsyspdfmark {pgfid2826}{32638871}{16672092}
\pgfsyspdfmark {pgfid2827}{34459320}{16672092}
\pgfsyspdfmark {pgfid2828}{36115928}{16672092}
\pgfsyspdfmark {pgfid2829}{29671542}{16436160}
\pgfsyspdfmark {pgfid2830}{29671542}{16436160}
\pgfsyspdfmark {pgfid2831}{30654583}{16436160}
\pgfsyspdfmark {pgfid2832}{31637624}{16436160}
\pgfsyspdfmark {pgfid2833}{33130391}{16436160}
\pgfsyspdfmark {pgfid2834}{34950840}{16436160}
\pgfsyspdfmark {pgfid2835}{36771289}{16436160}
\pgfsyspdfmark {pgfid2836}{36880517}{18212186}
\pgfsyspdfmark {pgfid2838}{36880517}{18212186}
\gdef\pointsofq@iii{24}
\gdef\bonuspointsofq@iii{0}
\gdef\pointsonpage@iii{24}
\gdef\pointsofq@iv{10}
\gdef\bonuspointsofq@iv{0}
\ExplSyntaxOn 
\char_set_catcode_space:n {32}
\tl_gset:cn {c__nicematrix_83_tl}{\seq_gset_from_clist:Nn \g__nicematrix_size_seq {1,1,1,1,5,5}}
\ExplSyntaxOff 
\ExplSyntaxOn 
\char_set_catcode_space:n {32}
\tl_gset:cn {c__nicematrix_84_tl}{\seq_gset_from_clist:Nn \g__nicematrix_size_seq {1,5,5,1,5,5}}
\ExplSyntaxOff 
\ExplSyntaxOn 
\char_set_catcode_space:n {32}
\tl_gset:cn {c__nicematrix_85_tl}{\seq_gset_from_clist:Nn \g__nicematrix_size_seq {1,5,5,1,4,4}}
\ExplSyntaxOff 
\ExplSyntaxOn 
\char_set_catcode_space:n {32}
\tl_gset:cn {c__nicematrix_86_tl}{\seq_gset_from_clist:Nn \g__nicematrix_size_seq {1,4,4,1,5,5}}
\ExplSyntaxOff 
\ExplSyntaxOn 
\char_set_catcode_space:n {32}
\tl_gset:cn {c__nicematrix_87_tl}{\seq_gset_from_clist:Nn \g__nicematrix_size_seq {1,5,5,1,5,5}}
\ExplSyntaxOff 
\ExplSyntaxOn 
\char_set_catcode_space:n {32}
\tl_gset:cn {c__nicematrix_88_tl}{\seq_gset_from_clist:Nn \g__nicematrix_size_seq {1,5,5,1,5,5}}
\ExplSyntaxOff 
\ExplSyntaxOn 
\char_set_catcode_space:n {32}
\tl_gset:cn {c__nicematrix_89_tl}{\seq_gset_from_clist:Nn \g__nicematrix_size_seq {1,5,5,1,5,5}}
\ExplSyntaxOff 
\ExplSyntaxOn 
\char_set_catcode_space:n {32}
\tl_gset:cn {c__nicematrix_90_tl}{\seq_gset_from_clist:Nn \g__nicematrix_size_seq {1,5,5,1,4,4}}
\ExplSyntaxOff 
\ExplSyntaxOn 
\char_set_catcode_space:n {32}
\tl_gset:cn {c__nicematrix_91_tl}{\seq_gset_from_clist:Nn \g__nicematrix_size_seq {1,4,4,1,5,5}}
\ExplSyntaxOff 
\ExplSyntaxOn 
\char_set_catcode_space:n {32}
\tl_gset:cn {c__nicematrix_92_tl}{\seq_gset_from_clist:Nn \g__nicematrix_size_seq {1,5,5,1,5,5}}
\ExplSyntaxOff 
\ExplSyntaxOn 
\char_set_catcode_space:n {32}
\tl_gset:cn {c__nicematrix_93_tl}{\seq_gset_from_clist:Nn \g__nicematrix_size_seq {1,5,5,1,5,5}}
\ExplSyntaxOff 
\ExplSyntaxOn 
\char_set_catcode_space:n {32}
\tl_gset:cn {c__nicematrix_94_tl}{\seq_gset_from_clist:Nn \g__nicematrix_size_seq {1,1,1,1,4,4}}
\ExplSyntaxOff 
\ExplSyntaxOn 
\char_set_catcode_space:n {32}
\tl_gset:cn {c__nicematrix_95_tl}{\seq_gset_from_clist:Nn \g__nicematrix_size_seq {1,4,4,1,15,15}}
\ExplSyntaxOff 
\ExplSyntaxOn 
\char_set_catcode_space:n {32}
\tl_gset:cn {c__nicematrix_96_tl}{\seq_gset_from_clist:Nn \g__nicematrix_size_seq {1,1,1,1,5,5}}
\ExplSyntaxOff 
\gdef\pointsofq@v{10}
\gdef\bonuspointsofq@v{0}
\PgInfo{question@4}{4}
\PgInfo{question4@object1}{4}
\newlabel{question@4}{{\textbf  {Problem 4}}{4}{}{}{}}
\newlabel{firstpoints@onpage@4}{{\textbf  {Problem 4}}{4}{}{}{}}
\PgInfo{question@5}{4}
\PgInfo{question5@object1}{4}
\newlabel{question@5}{{\textbf  {Problem 5}}{4}{}{}{}}
\pgfsyspdfmark {pgfid2839}{29960580}{40998990}
\pgfsyspdfmark {pgfid2840}{30288261}{40448490}
\pgfsyspdfmark {pgfid2841}{30452101}{40448490}
\pgfsyspdfmark {pgfid2842}{31598983}{40448490}
\pgfsyspdfmark {pgfid2843}{32745865}{40448490}
\pgfsyspdfmark {pgfid2844}{33892747}{40448490}
\pgfsyspdfmark {pgfid2845}{35039629}{40448490}
\pgfsyspdfmark {pgfid2846}{29960580}{40212558}
\pgfsyspdfmark {pgfid2847}{29960580}{40212558}
\pgfsyspdfmark {pgfid2848}{30943621}{40212558}
\pgfsyspdfmark {pgfid2849}{32254344}{40212558}
\pgfsyspdfmark {pgfid2850}{33237385}{40212558}
\pgfsyspdfmark {pgfid2851}{34548108}{40212558}
\pgfsyspdfmark {pgfid2852}{35531149}{40212558}
\pgfsyspdfmark {pgfid2853}{35476537}{40415720}
\pgfsyspdfmark {pgfid2855}{35476537}{40415720}
\pgfsyspdfmark {pgfid3070}{5047022}{39491639}
\pgfsyspdfmark {pgfid3071}{5374703}{38941139}
\pgfsyspdfmark {pgfid3072}{5538543}{38941139}
\pgfsyspdfmark {pgfid3073}{6521584}{38941139}
\pgfsyspdfmark {pgfid3074}{7504625}{38941139}
\pgfsyspdfmark {pgfid3075}{8487666}{38941139}
\pgfsyspdfmark {pgfid3076}{9470707}{38941139}
\pgfsyspdfmark {pgfid3077}{5047022}{38705207}
\pgfsyspdfmark {pgfid3078}{5374703}{38154707}
\pgfsyspdfmark {pgfid3079}{5538543}{38154707}
\pgfsyspdfmark {pgfid3080}{6521584}{38154707}
\pgfsyspdfmark {pgfid3081}{7504625}{38154707}
\pgfsyspdfmark {pgfid3082}{8487666}{38154707}
\pgfsyspdfmark {pgfid3083}{9470707}{38154707}
\pgfsyspdfmark {pgfid3084}{5047022}{37918775}
\pgfsyspdfmark {pgfid3085}{5374703}{37368275}
\pgfsyspdfmark {pgfid3086}{5538543}{37368275}
\pgfsyspdfmark {pgfid3087}{6521584}{37368275}
\pgfsyspdfmark {pgfid3088}{7504625}{37368275}
\pgfsyspdfmark {pgfid3089}{8487666}{37368275}
\pgfsyspdfmark {pgfid3090}{9470707}{37368275}
\pgfsyspdfmark {pgfid3091}{5047022}{37132343}
\pgfsyspdfmark {pgfid3092}{5374703}{36581843}
\pgfsyspdfmark {pgfid3093}{5538543}{36581843}
\pgfsyspdfmark {pgfid3094}{6521584}{36581843}
\pgfsyspdfmark {pgfid3095}{7504625}{36581843}
\pgfsyspdfmark {pgfid3096}{8487666}{36581843}
\pgfsyspdfmark {pgfid3097}{9470707}{36581843}
\pgfsyspdfmark {pgfid3098}{5047022}{36345911}
\pgfsyspdfmark {pgfid3099}{5374703}{35795411}
\pgfsyspdfmark {pgfid3100}{5538543}{35795411}
\pgfsyspdfmark {pgfid3101}{6521584}{35795411}
\pgfsyspdfmark {pgfid3102}{7504625}{35795411}
\pgfsyspdfmark {pgfid3103}{8487666}{35795411}
\pgfsyspdfmark {pgfid3104}{9470707}{35795411}
\pgfsyspdfmark {pgfid3105}{5047022}{35559479}
\pgfsyspdfmark {pgfid3106}{5047022}{35559479}
\pgfsyspdfmark {pgfid3107}{6030063}{35559479}
\pgfsyspdfmark {pgfid3108}{7013104}{35559479}
\pgfsyspdfmark {pgfid3109}{7996145}{35559479}
\pgfsyspdfmark {pgfid3110}{8979186}{35559479}
\pgfsyspdfmark {pgfid3111}{9962227}{35559479}
\pgfsyspdfmark {pgfid3112}{10071455}{37335505}
\pgfsyspdfmark {pgfid3114}{10071455}{37335505}
\pgfsyspdfmark {pgfid3115}{12155859}{39491639}
\pgfsyspdfmark {pgfid3116}{12483540}{38941139}
\pgfsyspdfmark {pgfid3117}{12647380}{38941139}
\pgfsyspdfmark {pgfid3118}{13630421}{38941139}
\pgfsyspdfmark {pgfid3119}{14613462}{38941139}
\pgfsyspdfmark {pgfid3120}{15596503}{38941139}
\pgfsyspdfmark {pgfid3121}{12155859}{38705207}
\pgfsyspdfmark {pgfid3122}{12483540}{38154707}
\pgfsyspdfmark {pgfid3123}{12647380}{38154707}
\pgfsyspdfmark {pgfid3124}{13630421}{38154707}
\pgfsyspdfmark {pgfid3125}{14613462}{38154707}
\pgfsyspdfmark {pgfid3126}{15596503}{38154707}
\pgfsyspdfmark {pgfid3127}{12155859}{37918775}
\pgfsyspdfmark {pgfid3128}{12483540}{37368275}
\pgfsyspdfmark {pgfid3129}{12647380}{37368275}
\pgfsyspdfmark {pgfid3130}{13630421}{37368275}
\pgfsyspdfmark {pgfid3131}{14613462}{37368275}
\pgfsyspdfmark {pgfid3132}{15596503}{37368275}
\pgfsyspdfmark {pgfid3133}{12155859}{37132343}
\pgfsyspdfmark {pgfid3134}{12483540}{36581843}
\pgfsyspdfmark {pgfid3135}{12647380}{36581843}
\pgfsyspdfmark {pgfid3136}{13630421}{36581843}
\pgfsyspdfmark {pgfid3137}{14613462}{36581843}
\pgfsyspdfmark {pgfid3138}{15596503}{36581843}
\pgfsyspdfmark {pgfid3139}{12155859}{36345911}
\pgfsyspdfmark {pgfid3140}{12483540}{35795411}
\pgfsyspdfmark {pgfid3141}{12647380}{35795411}
\pgfsyspdfmark {pgfid3142}{13630421}{35795411}
\pgfsyspdfmark {pgfid3143}{14613462}{35795411}
\pgfsyspdfmark {pgfid3144}{15596503}{35795411}
\pgfsyspdfmark {pgfid3145}{12155859}{35559479}
\pgfsyspdfmark {pgfid3146}{12155859}{35559479}
\pgfsyspdfmark {pgfid3147}{13138900}{35559479}
\pgfsyspdfmark {pgfid3148}{14121941}{35559479}
\pgfsyspdfmark {pgfid3149}{15104982}{35559479}
\pgfsyspdfmark {pgfid3150}{16088023}{35559479}
\pgfsyspdfmark {pgfid3151}{16197251}{37335505}
\pgfsyspdfmark {pgfid3153}{16197251}{37335505}
\pgfsyspdfmark {pgfid3154}{18354561}{39098423}
\pgfsyspdfmark {pgfid3155}{18682242}{38547923}
\pgfsyspdfmark {pgfid3156}{18846082}{38547923}
\pgfsyspdfmark {pgfid3157}{20083986}{38547923}
\pgfsyspdfmark {pgfid3158}{21321890}{38547923}
\pgfsyspdfmark {pgfid3159}{22814657}{38547923}
\pgfsyspdfmark {pgfid3160}{24052561}{38547923}
\pgfsyspdfmark {pgfid3161}{18354561}{38311991}
\pgfsyspdfmark {pgfid3162}{18682242}{37761491}
\pgfsyspdfmark {pgfid3163}{18846082}{37761491}
\pgfsyspdfmark {pgfid3164}{20338849}{37761491}
\pgfsyspdfmark {pgfid3165}{21321890}{37761491}
\pgfsyspdfmark {pgfid3166}{22814657}{37761491}
\pgfsyspdfmark {pgfid3167}{24307424}{37761491}
\pgfsyspdfmark {pgfid3168}{18354561}{37525559}
\pgfsyspdfmark {pgfid3169}{18682242}{36975059}
\pgfsyspdfmark {pgfid3170}{18846082}{36975059}
\pgfsyspdfmark {pgfid3171}{20338849}{36975059}
\pgfsyspdfmark {pgfid3172}{21321890}{36975059}
\pgfsyspdfmark {pgfid3173}{22559794}{36975059}
\pgfsyspdfmark {pgfid3174}{24307424}{36975059}
\pgfsyspdfmark {pgfid3175}{18354561}{36739127}
\pgfsyspdfmark {pgfid3176}{18682242}{36188627}
\pgfsyspdfmark {pgfid3177}{18846082}{36188627}
\pgfsyspdfmark {pgfid3178}{20338849}{36188627}
\pgfsyspdfmark {pgfid3179}{21321890}{36188627}
\pgfsyspdfmark {pgfid3180}{22814657}{36188627}
\pgfsyspdfmark {pgfid3181}{24307424}{36188627}
\pgfsyspdfmark {pgfid3182}{18354561}{35952695}
\pgfsyspdfmark {pgfid3183}{18354561}{35952695}
\pgfsyspdfmark {pgfid3184}{19337602}{35952695}
\pgfsyspdfmark {pgfid3185}{20830369}{35952695}
\pgfsyspdfmark {pgfid3186}{21813410}{35952695}
\pgfsyspdfmark {pgfid3187}{23306177}{35952695}
\pgfsyspdfmark {pgfid3188}{24798944}{35952695}
\pgfsyspdfmark {pgfid3189}{24908172}{37335505}
\pgfsyspdfmark {pgfid3191}{24908172}{37335505}
\pgfsyspdfmark {pgfid3192}{26837844}{39491639}
\pgfsyspdfmark {pgfid3193}{27165525}{38941139}
\pgfsyspdfmark {pgfid3194}{27329365}{38941139}
\pgfsyspdfmark {pgfid3195}{28312406}{38941139}
\pgfsyspdfmark {pgfid3196}{29295447}{38941139}
\pgfsyspdfmark {pgfid3197}{30278488}{38941139}
\pgfsyspdfmark {pgfid3198}{31615425}{38941139}
\pgfsyspdfmark {pgfid3199}{26837844}{38705207}
\pgfsyspdfmark {pgfid3200}{27165525}{38154707}
\pgfsyspdfmark {pgfid3201}{27329365}{38154707}
\pgfsyspdfmark {pgfid3202}{28312406}{38154707}
\pgfsyspdfmark {pgfid3203}{29295447}{38154707}
\pgfsyspdfmark {pgfid3204}{30278488}{38154707}
\pgfsyspdfmark {pgfid3205}{31451584}{38154707}
\pgfsyspdfmark {pgfid3206}{26837844}{37918775}
\pgfsyspdfmark {pgfid3207}{27165525}{37368275}
\pgfsyspdfmark {pgfid3208}{27329365}{37368275}
\pgfsyspdfmark {pgfid3209}{28312406}{37368275}
\pgfsyspdfmark {pgfid3210}{29295447}{37368275}
\pgfsyspdfmark {pgfid3211}{30278488}{37368275}
\pgfsyspdfmark {pgfid3212}{31451584}{37368275}
\pgfsyspdfmark {pgfid3213}{26837844}{37132343}
\pgfsyspdfmark {pgfid3214}{27165525}{36581843}
\pgfsyspdfmark {pgfid3215}{27329365}{36581843}
\pgfsyspdfmark {pgfid3216}{28312406}{36581843}
\pgfsyspdfmark {pgfid3217}{29295447}{36581843}
\pgfsyspdfmark {pgfid3218}{30278488}{36581843}
\pgfsyspdfmark {pgfid3219}{31615425}{36581843}
\pgfsyspdfmark {pgfid3220}{26837844}{36345911}
\pgfsyspdfmark {pgfid3221}{27165525}{35795411}
\pgfsyspdfmark {pgfid3222}{27329365}{35795411}
\pgfsyspdfmark {pgfid3223}{28312406}{35795411}
\pgfsyspdfmark {pgfid3224}{29295447}{35795411}
\pgfsyspdfmark {pgfid3225}{30278488}{35795411}
\pgfsyspdfmark {pgfid3226}{31615425}{35795411}
\pgfsyspdfmark {pgfid3227}{26837844}{35559479}
\pgfsyspdfmark {pgfid3228}{26837844}{35559479}
\pgfsyspdfmark {pgfid3229}{27820885}{35559479}
\pgfsyspdfmark {pgfid3230}{28803926}{35559479}
\pgfsyspdfmark {pgfid3231}{29786967}{35559479}
\pgfsyspdfmark {pgfid3232}{30796222}{35559479}
\pgfsyspdfmark {pgfid3233}{32106945}{35559479}
\pgfsyspdfmark {pgfid3234}{32216173}{37335505}
\pgfsyspdfmark {pgfid3236}{32216173}{37335505}
\pgfsyspdfmark {pgfid3237}{32216173}{37335505}
\pgfsyspdfmark {pgfid3238}{33199207}{39491639}
\pgfsyspdfmark {pgfid3239}{33526888}{38941139}
\pgfsyspdfmark {pgfid3240}{33690728}{38941139}
\pgfsyspdfmark {pgfid3241}{34673769}{38941139}
\pgfsyspdfmark {pgfid3242}{35656810}{38941139}
\pgfsyspdfmark {pgfid3243}{36639851}{38941139}
\pgfsyspdfmark {pgfid3244}{38158832}{38941139}
\pgfsyspdfmark {pgfid3245}{33199207}{38705207}
\pgfsyspdfmark {pgfid3246}{33526888}{38154707}
\pgfsyspdfmark {pgfid3247}{33690728}{38154707}
\pgfsyspdfmark {pgfid3248}{34673769}{38154707}
\pgfsyspdfmark {pgfid3249}{35656810}{38154707}
\pgfsyspdfmark {pgfid3250}{36639851}{38154707}
\pgfsyspdfmark {pgfid3251}{38158832}{38154707}
\pgfsyspdfmark {pgfid3252}{33199207}{37918775}
\pgfsyspdfmark {pgfid3253}{33526888}{37368275}
\pgfsyspdfmark {pgfid3254}{33690728}{37368275}
\pgfsyspdfmark {pgfid3255}{34673769}{37368275}
\pgfsyspdfmark {pgfid3256}{35656810}{37368275}
\pgfsyspdfmark {pgfid3257}{36639851}{37368275}
\pgfsyspdfmark {pgfid3258}{37903969}{37368275}
\pgfsyspdfmark {pgfid3259}{33199207}{37132343}
\pgfsyspdfmark {pgfid3260}{33526888}{36581843}
\pgfsyspdfmark {pgfid3261}{33690728}{36581843}
\pgfsyspdfmark {pgfid3262}{34673769}{36581843}
\pgfsyspdfmark {pgfid3263}{35656810}{36581843}
\pgfsyspdfmark {pgfid3264}{36639851}{36581843}
\pgfsyspdfmark {pgfid3265}{38158832}{36581843}
\pgfsyspdfmark {pgfid3266}{33199207}{36345911}
\pgfsyspdfmark {pgfid3267}{33526888}{35795411}
\pgfsyspdfmark {pgfid3268}{33690728}{35795411}
\pgfsyspdfmark {pgfid3269}{34673769}{35795411}
\pgfsyspdfmark {pgfid3270}{35656810}{35795411}
\pgfsyspdfmark {pgfid3271}{36639851}{35795411}
\pgfsyspdfmark {pgfid3272}{38158832}{35795411}
\pgfsyspdfmark {pgfid3273}{33199207}{35559479}
\pgfsyspdfmark {pgfid3274}{33199207}{35559479}
\pgfsyspdfmark {pgfid3275}{34182248}{35559479}
\pgfsyspdfmark {pgfid3276}{35165289}{35559479}
\pgfsyspdfmark {pgfid3277}{36148330}{35559479}
\pgfsyspdfmark {pgfid3278}{37157585}{35559479}
\pgfsyspdfmark {pgfid3279}{38650352}{35559479}
\pgfsyspdfmark {pgfid3280}{38759580}{37335505}
\pgfsyspdfmark {pgfid3282}{38759580}{37335505}
\pgfsyspdfmark {pgfid3283}{38759580}{37335505}
\pgfsyspdfmark {pgfid3284}{22526186}{31732886}
\pgfsyspdfmark {pgfid3285}{22853867}{31182386}
\pgfsyspdfmark {pgfid3286}{23017707}{31182386}
\pgfsyspdfmark {pgfid3287}{24000748}{31182386}
\pgfsyspdfmark {pgfid3288}{25238652}{31182386}
\pgfsyspdfmark {pgfid3289}{26476556}{31182386}
\pgfsyspdfmark {pgfid3290}{22526186}{30946454}
\pgfsyspdfmark {pgfid3291}{22526186}{30946454}
\pgfsyspdfmark {pgfid3292}{23509227}{30946454}
\pgfsyspdfmark {pgfid3293}{24492268}{30946454}
\pgfsyspdfmark {pgfid3294}{25985035}{30946454}
\pgfsyspdfmark {pgfid3295}{26968076}{30946454}
\pgfsyspdfmark {pgfid3296}{26913464}{31149616}
\pgfsyspdfmark {pgfid3298}{26913464}{31149616}
\pgfsyspdfmark {pgfid3299}{9580640}{25844841}
\pgfsyspdfmark {pgfid3300}{9580641}{25294341}
\pgfsyspdfmark {pgfid3301}{10133373}{25294341}
\pgfsyspdfmark {pgfid3302}{11596329}{25294341}
\pgfsyspdfmark {pgfid3303}{13143709}{25294341}
\pgfsyspdfmark {pgfid3304}{14691089}{25294341}
\pgfsyspdfmark {pgfid3305}{16154045}{25294341}
\pgfsyspdfmark {pgfid3306}{20542913}{25294341}
\pgfsyspdfmark {pgfid3307}{22090293}{25294341}
\pgfsyspdfmark {pgfid3308}{23637673}{25294341}
\pgfsyspdfmark {pgfid3309}{25221463}{25294341}
\pgfsyspdfmark {pgfid3310}{26368344}{25294341}
\pgfsyspdfmark {pgfid3311}{27685664}{25294341}
\pgfsyspdfmark {pgfid3312}{28930167}{25294341}
\pgfsyspdfmark {pgfid3313}{30350116}{25294341}
\pgfsyspdfmark {pgfid3314}{9580640}{25058409}
\pgfsyspdfmark {pgfid3315}{10686105}{24507909}
\pgfsyspdfmark {pgfid3316}{16372498}{24507909}
\pgfsyspdfmark {pgfid3317}{17617001}{24507909}
\pgfsyspdfmark {pgfid3318}{19079957}{24507909}
\pgfsyspdfmark {pgfid3319}{20542913}{24507909}
\pgfsyspdfmark {pgfid3320}{22090293}{24507909}
\pgfsyspdfmark {pgfid3321}{23637673}{24507909}
\pgfsyspdfmark {pgfid3322}{25221463}{24507909}
\pgfsyspdfmark {pgfid3323}{26368344}{24507909}
\pgfsyspdfmark {pgfid3324}{27685664}{24507909}
\pgfsyspdfmark {pgfid3325}{28930167}{24507909}
\pgfsyspdfmark {pgfid3326}{30259094}{24507909}
\pgfsyspdfmark {pgfid3327}{9580640}{24271977}
\pgfsyspdfmark {pgfid3328}{10686105}{23721477}
\pgfsyspdfmark {pgfid3329}{17617001}{23721477}
\pgfsyspdfmark {pgfid3330}{19079957}{23721477}
\pgfsyspdfmark {pgfid3331}{20542913}{23721477}
\pgfsyspdfmark {pgfid3332}{22090293}{23721477}
\pgfsyspdfmark {pgfid3333}{23637673}{23721477}
\pgfsyspdfmark {pgfid3334}{24966600}{23721477}
\pgfsyspdfmark {pgfid3335}{26368344}{23721477}
\pgfsyspdfmark {pgfid3336}{27685664}{23721477}
\pgfsyspdfmark {pgfid3337}{28930167}{23721477}
\pgfsyspdfmark {pgfid3338}{30513957}{23721477}
\pgfsyspdfmark {pgfid3339}{9580640}{23485545}
\pgfsyspdfmark {pgfid3340}{10686105}{22935045}
\pgfsyspdfmark {pgfid3341}{22563609}{22935045}
\pgfsyspdfmark {pgfid3342}{23637673}{22935045}
\pgfsyspdfmark {pgfid3343}{25221463}{22935045}
\pgfsyspdfmark {pgfid3344}{9580640}{22699113}
\pgfsyspdfmark {pgfid3345}{9580640}{22699113}
\pgfsyspdfmark {pgfid3346}{11013785}{22699113}
\pgfsyspdfmark {pgfid3347}{12178872}{22699113}
\pgfsyspdfmark {pgfid3348}{14108545}{22699113}
\pgfsyspdfmark {pgfid3349}{15273632}{22699113}
\pgfsyspdfmark {pgfid3350}{17034457}{22699113}
\pgfsyspdfmark {pgfid3351}{18199544}{22699113}
\pgfsyspdfmark {pgfid3352}{19960369}{22699113}
\pgfsyspdfmark {pgfid3353}{21125456}{22699113}
\pgfsyspdfmark {pgfid3354}{23055129}{22699113}
\pgfsyspdfmark {pgfid3355}{24220216}{22699113}
\pgfsyspdfmark {pgfid3356}{25712983}{22699113}
\pgfsyspdfmark {pgfid3357}{27023704}{22699113}
\pgfsyspdfmark {pgfid3358}{28347623}{22699113}
\pgfsyspdfmark {pgfid3359}{29512710}{22699113}
\pgfsyspdfmark {pgfid3360}{30677797}{22699113}
\pgfsyspdfmark {pgfid3361}{30677797}{24108137}
\pgfsyspdfmark {pgfid3363}{30677797}{24108137}
\pgfsyspdfmark {pgfid3364}{19173921}{21968928}
\pgfsyspdfmark {pgfid3365}{19501602}{21418428}
\pgfsyspdfmark {pgfid3366}{19829283}{21418428}
\pgfsyspdfmark {pgfid3367}{20976165}{21418428}
\pgfsyspdfmark {pgfid3368}{22214069}{21418428}
\pgfsyspdfmark {pgfid3369}{23451973}{21418428}
\pgfsyspdfmark {pgfid3370}{24435014}{21418428}
\pgfsyspdfmark {pgfid3371}{19173921}{21182496}
\pgfsyspdfmark {pgfid3372}{19173921}{21182496}
\pgfsyspdfmark {pgfid3373}{20484644}{21182496}
\pgfsyspdfmark {pgfid3374}{21467685}{21182496}
\pgfsyspdfmark {pgfid3375}{22960452}{21182496}
\pgfsyspdfmark {pgfid3376}{23943493}{21182496}
\pgfsyspdfmark {pgfid3377}{24926534}{21182496}
\pgfsyspdfmark {pgfid3378}{24871922}{21385658}
\pgfsyspdfmark {pgfid3380}{24871922}{21385658}
\gdef\exam@lastpage{4}
\gdef\exam@lastcoverpage{1}
\gdef\exam@totalpages{5}
\gdef\exam@numpoints{100}
\gdef\exam@numbonuspoints{0}
\gdef\exam@numquestions{5}
\gdef\exam@numparts{14}
\gdef\exam@numsubparts{0}
\gdef\exam@numsubsubparts{0}
\gdef\pointsonpage@iv{20}
\gdef\lastpage@withpoints{4}
\gdef\lastpage@withbonuspoints{0}
\gdef \@abspage@last{5}
