\relax 
\nicematrix@redefine@check@rerun 
\ExplSyntaxOn \cs_if_free:NT \pgfsyspdfmark {\cs_set_eq:NN \pgfsyspdfmark \@gobblethree }\ExplSyntaxOff 
\ExplSyntaxOn 
\char_set_catcode_space:n {32}
\tl_gset:cn {c__nicematrix_1_tl}{\seq_gset_from_clist:Nn \g__nicematrix_size_seq {1,3,3,1,4,4}}
\ExplSyntaxOff 
\ExplSyntaxOn 
\char_set_catcode_space:n {32}
\tl_gset:cn {c__nicematrix_2_tl}{\seq_gset_from_clist:Nn \g__nicematrix_size_seq {1,3,3,1,4,4}}
\ExplSyntaxOff 
\ExplSyntaxOn 
\char_set_catcode_space:n {32}
\tl_gset:cn {c__nicematrix_3_tl}{\seq_gset_from_clist:Nn \g__nicematrix_size_seq {1,1,1,1,1,1}}
\ExplSyntaxOff 
\ExplSyntaxOn 
\char_set_catcode_space:n {32}
\tl_gset:cn {c__nicematrix_4_tl}{\seq_gset_from_clist:Nn \g__nicematrix_size_seq {1,4,4,1,1,1}}
\ExplSyntaxOff 
\ExplSyntaxOn 
\char_set_catcode_space:n {32}
\tl_gset:cn {c__nicematrix_5_tl}{\seq_gset_from_clist:Nn \g__nicematrix_size_seq {1,5,5,1,1,1}}
\ExplSyntaxOff 
\ExplSyntaxOn 
\char_set_catcode_space:n {32}
\tl_gset:cn {c__nicematrix_6_tl}{\seq_gset_from_clist:Nn \g__nicematrix_size_seq {1,1,1,1,1,1}}
\ExplSyntaxOff 
\ExplSyntaxOn 
\char_set_catcode_space:n {32}
\tl_gset:cn {c__nicematrix_7_tl}{\seq_gset_from_clist:Nn \g__nicematrix_size_seq {1,4,4,1,1,1}}
\ExplSyntaxOff 
\ExplSyntaxOn 
\char_set_catcode_space:n {32}
\tl_gset:cn {c__nicematrix_8_tl}{\seq_gset_from_clist:Nn \g__nicematrix_size_seq {1,5,5,1,1,1}}
\ExplSyntaxOff 
\ExplSyntaxOn 
\char_set_catcode_space:n {32}
\tl_gset:cn {c__nicematrix_9_tl}{\seq_gset_from_clist:Nn \g__nicematrix_size_seq {1,1,1,1,1,1}}
\ExplSyntaxOff 
\ExplSyntaxOn 
\char_set_catcode_space:n {32}
\tl_gset:cn {c__nicematrix_10_tl}{\seq_gset_from_clist:Nn \g__nicematrix_size_seq {1,4,4,1,1,1}}
\ExplSyntaxOff 
\ExplSyntaxOn 
\char_set_catcode_space:n {32}
\tl_gset:cn {c__nicematrix_11_tl}{\seq_gset_from_clist:Nn \g__nicematrix_size_seq {1,5,5,1,1,1}}
\ExplSyntaxOff 
\ExplSyntaxOn 
\char_set_catcode_space:n {32}
\tl_gset:cn {c__nicematrix_12_tl}{\seq_gset_from_clist:Nn \g__nicematrix_size_seq {1,1,1,1,1,1}}
\ExplSyntaxOff 
\ExplSyntaxOn 
\char_set_catcode_space:n {32}
\tl_gset:cn {c__nicematrix_13_tl}{\seq_gset_from_clist:Nn \g__nicematrix_size_seq {1,4,4,1,1,1}}
\ExplSyntaxOff 
\ExplSyntaxOn 
\char_set_catcode_space:n {32}
\tl_gset:cn {c__nicematrix_14_tl}{\seq_gset_from_clist:Nn \g__nicematrix_size_seq {1,5,5,1,1,1}}
\ExplSyntaxOff 
\ExplSyntaxOn 
\char_set_catcode_space:n {32}
\tl_gset:cn {c__nicematrix_15_tl}{\seq_gset_from_clist:Nn \g__nicematrix_size_seq {1,4,4,1,4,4}}
\ExplSyntaxOff 
\ExplSyntaxOn 
\char_set_catcode_space:n {32}
\tl_gset:cn {c__nicematrix_16_tl}{\seq_gset_from_clist:Nn \g__nicematrix_size_seq {1,4,4,1,4,4}}
\ExplSyntaxOff 
\PgInfo{question@1}{1}
\PgInfo{question1@object1}{1}
\newlabel{question@1}{{\textbf  {Problem 1}}{1}{}{}{}}
\pgfsyspdfmark {pgfid23}{10154017}{46769887}
\pgfsyspdfmark {pgfid24}{10836077}{44148443}
\pgfsyspdfmark {pgfid25}{10154017}{43912511}
\pgfsyspdfmark {pgfid26}{10481698}{43362011}
\pgfsyspdfmark {pgfid27}{10836077}{43362011}
\pgfsyspdfmark {pgfid28}{12200196}{43362011}
\pgfsyspdfmark {pgfid29}{13564315}{43362011}
\pgfsyspdfmark {pgfid30}{14928434}{43362011}
\pgfsyspdfmark {pgfid31}{10154017}{43126079}
\pgfsyspdfmark {pgfid32}{10836077}{40504635}
\pgfsyspdfmark {pgfid33}{10154017}{40268703}
\pgfsyspdfmark {pgfid34}{10154017}{40268703}
\pgfsyspdfmark {pgfid35}{11518136}{40268703}
\pgfsyspdfmark {pgfid36}{12882255}{40268703}
\pgfsyspdfmark {pgfid37}{14246374}{40268703}
\pgfsyspdfmark {pgfid38}{15610493}{40268703}
\pgfsyspdfmark {pgfid39}{15719721}{43329241}
\pgfsyspdfmark {pgfid41}{15719721}{43329241}
\pgfsyspdfmark {pgfid42}{15719721}{43329241}
\PgInfo{part@1@1}{1}
\PgInfo{question1@object2}{1}
\newlabel{part@1@1}{{a}{1}{}{}{}}
\newlabel{firstpoints@onpage@1}{{a}{1}{}{}{}}
\PgInfo{part@1@2}{1}
\PgInfo{question1@object3}{1}
\newlabel{part@1@2}{{b}{1}{}{}{}}
\PgInfo{part@1@3}{1}
\PgInfo{question1@object4}{1}
\newlabel{part@1@3}{{c}{1}{}{}{}}
\PgInfo{question1@object5}{1}
\pgfsyspdfmark {pgfid44}{5973412}{28510288}
\pgfsyspdfmark {pgfid45}{6301093}{27243259}
\pgfsyspdfmark {pgfid46}{7038373}{27243259}
\pgfsyspdfmark {pgfid47}{5973412}{26424058}
\pgfsyspdfmark {pgfid48}{5973412}{26424058}
\pgfsyspdfmark {pgfid49}{8103333}{26424058}
\pgfsyspdfmark {pgfid50}{8103333}{26424058}
\pgfsyspdfmark {pgfid51}{8157948}{27277119}
\pgfsyspdfmark {pgfid53}{8157948}{27277119}
\pgfsyspdfmark {pgfid54}{8267176}{29040037}
\pgfsyspdfmark {pgfid55}{8594857}{28489537}
\pgfsyspdfmark {pgfid56}{8758697}{28489537}
\pgfsyspdfmark {pgfid57}{8267176}{28253605}
\pgfsyspdfmark {pgfid58}{8594857}{27703105}
\pgfsyspdfmark {pgfid59}{8758697}{27703105}
\pgfsyspdfmark {pgfid60}{8267176}{27467173}
\pgfsyspdfmark {pgfid61}{8594857}{26916673}
\pgfsyspdfmark {pgfid62}{8758697}{26916673}
\pgfsyspdfmark {pgfid63}{8267176}{26680741}
\pgfsyspdfmark {pgfid64}{8594857}{26130241}
\pgfsyspdfmark {pgfid65}{8758697}{26130241}
\pgfsyspdfmark {pgfid66}{8267176}{25894309}
\pgfsyspdfmark {pgfid67}{8267176}{25894309}
\pgfsyspdfmark {pgfid68}{9250217}{25894309}
\pgfsyspdfmark {pgfid69}{9250217}{25894309}
\pgfsyspdfmark {pgfid70}{9359445}{27277119}
\pgfsyspdfmark {pgfid72}{9359445}{27277119}
\pgfsyspdfmark {pgfid73}{10342479}{29433253}
\pgfsyspdfmark {pgfid74}{10670160}{28882753}
\pgfsyspdfmark {pgfid75}{10834000}{28882753}
\pgfsyspdfmark {pgfid76}{10342479}{28646821}
\pgfsyspdfmark {pgfid77}{10670160}{28096321}
\pgfsyspdfmark {pgfid78}{10834000}{28096321}
\pgfsyspdfmark {pgfid79}{10342479}{27860389}
\pgfsyspdfmark {pgfid80}{10670160}{27309889}
\pgfsyspdfmark {pgfid81}{10834000}{27309889}
\pgfsyspdfmark {pgfid82}{10342479}{27073957}
\pgfsyspdfmark {pgfid83}{10670160}{26523457}
\pgfsyspdfmark {pgfid84}{10834000}{26523457}
\pgfsyspdfmark {pgfid85}{10342479}{26287525}
\pgfsyspdfmark {pgfid86}{10670160}{25737025}
\pgfsyspdfmark {pgfid87}{10834000}{25737025}
\pgfsyspdfmark {pgfid88}{10342479}{25501093}
\pgfsyspdfmark {pgfid89}{10342479}{25501093}
\pgfsyspdfmark {pgfid90}{11325520}{25501093}
\pgfsyspdfmark {pgfid91}{11325520}{25501093}
\pgfsyspdfmark {pgfid92}{11434748}{27277119}
\pgfsyspdfmark {pgfid94}{11434748}{27277119}
\PgInfo{question1@object6}{1}
\pgfsyspdfmark {pgfid95}{13346218}{28510288}
\pgfsyspdfmark {pgfid96}{13673899}{27243259}
\pgfsyspdfmark {pgfid97}{14411179}{27243259}
\pgfsyspdfmark {pgfid98}{13346218}{26424058}
\pgfsyspdfmark {pgfid99}{13346218}{26424058}
\pgfsyspdfmark {pgfid100}{15476139}{26424058}
\pgfsyspdfmark {pgfid101}{15476139}{26424058}
\pgfsyspdfmark {pgfid102}{15530754}{27277119}
\pgfsyspdfmark {pgfid104}{15530754}{27277119}
\pgfsyspdfmark {pgfid105}{15639982}{29040037}
\pgfsyspdfmark {pgfid106}{15967663}{28489537}
\pgfsyspdfmark {pgfid107}{16131503}{28489537}
\pgfsyspdfmark {pgfid108}{15639982}{28253605}
\pgfsyspdfmark {pgfid109}{15967663}{27703105}
\pgfsyspdfmark {pgfid110}{16131503}{27703105}
\pgfsyspdfmark {pgfid111}{15639982}{27467173}
\pgfsyspdfmark {pgfid112}{15967663}{26916673}
\pgfsyspdfmark {pgfid113}{16131503}{26916673}
\pgfsyspdfmark {pgfid114}{15639982}{26680741}
\pgfsyspdfmark {pgfid115}{15967663}{26130241}
\pgfsyspdfmark {pgfid116}{16131503}{26130241}
\pgfsyspdfmark {pgfid117}{15639982}{25894309}
\pgfsyspdfmark {pgfid118}{15639982}{25894309}
\pgfsyspdfmark {pgfid119}{16623023}{25894309}
\pgfsyspdfmark {pgfid120}{16623023}{25894309}
\pgfsyspdfmark {pgfid121}{16732251}{27277119}
\pgfsyspdfmark {pgfid123}{16732251}{27277119}
\pgfsyspdfmark {pgfid124}{17715285}{29433253}
\pgfsyspdfmark {pgfid125}{18042966}{28882753}
\pgfsyspdfmark {pgfid126}{18206806}{28882753}
\pgfsyspdfmark {pgfid127}{17715285}{28646821}
\pgfsyspdfmark {pgfid128}{18042966}{28096321}
\pgfsyspdfmark {pgfid129}{18206806}{28096321}
\pgfsyspdfmark {pgfid130}{17715285}{27860389}
\pgfsyspdfmark {pgfid131}{18042966}{27309889}
\pgfsyspdfmark {pgfid132}{18206806}{27309889}
\pgfsyspdfmark {pgfid133}{17715285}{27073957}
\pgfsyspdfmark {pgfid134}{18042966}{26523457}
\pgfsyspdfmark {pgfid135}{18206806}{26523457}
\pgfsyspdfmark {pgfid136}{17715285}{26287525}
\pgfsyspdfmark {pgfid137}{18042966}{25737025}
\pgfsyspdfmark {pgfid138}{18206806}{25737025}
\pgfsyspdfmark {pgfid139}{17715285}{25501093}
\pgfsyspdfmark {pgfid140}{17715285}{25501093}
\pgfsyspdfmark {pgfid141}{18698326}{25501093}
\pgfsyspdfmark {pgfid142}{18698326}{25501093}
\pgfsyspdfmark {pgfid143}{18807554}{27277119}
\pgfsyspdfmark {pgfid145}{18807554}{27277119}
\PgInfo{question1@object7}{1}
\pgfsyspdfmark {pgfid146}{20719024}{28510288}
\pgfsyspdfmark {pgfid147}{21046705}{27243259}
\pgfsyspdfmark {pgfid148}{21783985}{27243259}
\pgfsyspdfmark {pgfid149}{20719024}{26424058}
\pgfsyspdfmark {pgfid150}{20719024}{26424058}
\pgfsyspdfmark {pgfid151}{22848945}{26424058}
\pgfsyspdfmark {pgfid152}{22848945}{26424058}
\pgfsyspdfmark {pgfid153}{22903560}{27277119}
\pgfsyspdfmark {pgfid155}{22903560}{27277119}
\pgfsyspdfmark {pgfid156}{23012788}{29040037}
\pgfsyspdfmark {pgfid157}{23850195}{28489537}
\pgfsyspdfmark {pgfid158}{24014035}{28489537}
\pgfsyspdfmark {pgfid159}{23012788}{28253605}
\pgfsyspdfmark {pgfid160}{23340469}{27703105}
\pgfsyspdfmark {pgfid161}{23759172}{27703105}
\pgfsyspdfmark {pgfid162}{23012788}{27467173}
\pgfsyspdfmark {pgfid163}{23340469}{26916673}
\pgfsyspdfmark {pgfid164}{23759172}{26916673}
\pgfsyspdfmark {pgfid165}{23012788}{26680741}
\pgfsyspdfmark {pgfid166}{23850195}{26130241}
\pgfsyspdfmark {pgfid167}{24014035}{26130241}
\pgfsyspdfmark {pgfid168}{23012788}{25894309}
\pgfsyspdfmark {pgfid169}{23012788}{25894309}
\pgfsyspdfmark {pgfid170}{24505555}{25894309}
\pgfsyspdfmark {pgfid171}{24505555}{25894309}
\pgfsyspdfmark {pgfid172}{24614783}{27277119}
\pgfsyspdfmark {pgfid174}{24614783}{27277119}
\pgfsyspdfmark {pgfid175}{25597817}{29433253}
\pgfsyspdfmark {pgfid176}{25925498}{28882753}
\pgfsyspdfmark {pgfid177}{26089338}{28882753}
\pgfsyspdfmark {pgfid178}{25597817}{28646821}
\pgfsyspdfmark {pgfid179}{25925498}{28096321}
\pgfsyspdfmark {pgfid180}{26089338}{28096321}
\pgfsyspdfmark {pgfid181}{25597817}{27860389}
\pgfsyspdfmark {pgfid182}{25925498}{27309889}
\pgfsyspdfmark {pgfid183}{26089338}{27309889}
\pgfsyspdfmark {pgfid184}{25597817}{27073957}
\pgfsyspdfmark {pgfid185}{25925498}{26523457}
\pgfsyspdfmark {pgfid186}{26089338}{26523457}
\pgfsyspdfmark {pgfid187}{25597817}{26287525}
\pgfsyspdfmark {pgfid188}{25925498}{25737025}
\pgfsyspdfmark {pgfid189}{26089338}{25737025}
\pgfsyspdfmark {pgfid190}{25597817}{25501093}
\pgfsyspdfmark {pgfid191}{25597817}{25501093}
\pgfsyspdfmark {pgfid192}{26580858}{25501093}
\pgfsyspdfmark {pgfid193}{26580858}{25501093}
\pgfsyspdfmark {pgfid194}{26690086}{27277119}
\pgfsyspdfmark {pgfid196}{26690086}{27277119}
\PgInfo{question1@object8}{1}
\pgfsyspdfmark {pgfid197}{28601556}{28510288}
\pgfsyspdfmark {pgfid198}{28929237}{27243259}
\pgfsyspdfmark {pgfid199}{29666517}{27243259}
\pgfsyspdfmark {pgfid200}{28601556}{26424058}
\pgfsyspdfmark {pgfid201}{28601556}{26424058}
\pgfsyspdfmark {pgfid202}{30731477}{26424058}
\pgfsyspdfmark {pgfid203}{30731477}{26424058}
\pgfsyspdfmark {pgfid204}{30786092}{27277119}
\pgfsyspdfmark {pgfid206}{30786092}{27277119}
\pgfsyspdfmark {pgfid207}{30895320}{29040037}
\pgfsyspdfmark {pgfid208}{31732727}{28489537}
\pgfsyspdfmark {pgfid209}{31896567}{28489537}
\pgfsyspdfmark {pgfid210}{30895320}{28253605}
\pgfsyspdfmark {pgfid211}{31223001}{27703105}
\pgfsyspdfmark {pgfid212}{31641704}{27703105}
\pgfsyspdfmark {pgfid213}{30895320}{27467173}
\pgfsyspdfmark {pgfid214}{31732727}{26916673}
\pgfsyspdfmark {pgfid215}{31896567}{26916673}
\pgfsyspdfmark {pgfid216}{30895320}{26680741}
\pgfsyspdfmark {pgfid217}{31223001}{26130241}
\pgfsyspdfmark {pgfid218}{31641704}{26130241}
\pgfsyspdfmark {pgfid219}{30895320}{25894309}
\pgfsyspdfmark {pgfid220}{30895320}{25894309}
\pgfsyspdfmark {pgfid221}{32388087}{25894309}
\pgfsyspdfmark {pgfid222}{32388087}{25894309}
\pgfsyspdfmark {pgfid223}{32497315}{27277119}
\pgfsyspdfmark {pgfid225}{32497315}{27277119}
\pgfsyspdfmark {pgfid226}{33480349}{29433253}
\pgfsyspdfmark {pgfid227}{33808030}{28882753}
\pgfsyspdfmark {pgfid228}{33971870}{28882753}
\pgfsyspdfmark {pgfid229}{33480349}{28646821}
\pgfsyspdfmark {pgfid230}{33808030}{28096321}
\pgfsyspdfmark {pgfid231}{33971870}{28096321}
\pgfsyspdfmark {pgfid232}{33480349}{27860389}
\pgfsyspdfmark {pgfid233}{33808030}{27309889}
\pgfsyspdfmark {pgfid234}{33971870}{27309889}
\pgfsyspdfmark {pgfid235}{33480349}{27073957}
\pgfsyspdfmark {pgfid236}{33808030}{26523457}
\pgfsyspdfmark {pgfid237}{33971870}{26523457}
\pgfsyspdfmark {pgfid238}{33480349}{26287525}
\pgfsyspdfmark {pgfid239}{33808030}{25737025}
\pgfsyspdfmark {pgfid240}{33971870}{25737025}
\pgfsyspdfmark {pgfid241}{33480349}{25501093}
\pgfsyspdfmark {pgfid242}{33480349}{25501093}
\pgfsyspdfmark {pgfid243}{34463390}{25501093}
\pgfsyspdfmark {pgfid244}{34463390}{25501093}
\pgfsyspdfmark {pgfid245}{34572618}{27277119}
\pgfsyspdfmark {pgfid247}{34572618}{27277119}
\PgInfo{part@1@4}{1}
\PgInfo{question1@object9}{1}
\newlabel{part@1@4}{{d}{1}{}{}{}}
\PgInfo{question1@object10}{1}
\PgInfo{question1@object11}{1}
\PgInfo{question1@object12}{1}
\PgInfo{question1@object13}{1}
\PgInfo{part@1@5}{1}
\PgInfo{question1@object14}{1}
\newlabel{part@1@5}{{e}{1}{}{}{}}
\gdef\pointsofq@i{22}
\gdef\bonuspointsofq@i{0}
\ExplSyntaxOn 
\char_set_catcode_space:n {32}
\tl_gset:cn {c__nicematrix_17_tl}{\seq_gset_from_clist:Nn \g__nicematrix_size_seq {1,3,3,1,5,5}}
\ExplSyntaxOff 
\ExplSyntaxOn 
\char_set_catcode_space:n {32}
\tl_gset:cn {c__nicematrix_18_tl}{\seq_gset_from_clist:Nn \g__nicematrix_size_seq {1,5,5,1,5,5}}
\ExplSyntaxOff 
\ExplSyntaxOn 
\char_set_catcode_space:n {32}
\tl_gset:cn {c__nicematrix_19_tl}{\seq_gset_from_clist:Nn \g__nicematrix_size_seq {1,5,5,1,4,4}}
\ExplSyntaxOff 
\ExplSyntaxOn 
\char_set_catcode_space:n {32}
\tl_gset:cn {c__nicematrix_20_tl}{\seq_gset_from_clist:Nn \g__nicematrix_size_seq {1,3,3,1,5,5}}
\ExplSyntaxOff 
\ExplSyntaxOn 
\char_set_catcode_space:n {32}
\tl_gset:cn {c__nicematrix_21_tl}{\seq_gset_from_clist:Nn \g__nicematrix_size_seq {1,5,5,1,5,5}}
\ExplSyntaxOff 
\ExplSyntaxOn 
\char_set_catcode_space:n {32}
\tl_gset:cn {c__nicematrix_22_tl}{\seq_gset_from_clist:Nn \g__nicematrix_size_seq {1,5,5,1,4,4}}
\ExplSyntaxOff 
\gdef\pointsonpage@i{22}
\ExplSyntaxOn 
\char_set_catcode_space:n {32}
\tl_gset:cn {c__nicematrix_23_tl}{\seq_gset_from_clist:Nn \g__nicematrix_size_seq {1,1,1,1,1,1}}
\ExplSyntaxOff 
\ExplSyntaxOn 
\char_set_catcode_space:n {32}
\tl_gset:cn {c__nicematrix_24_tl}{\seq_gset_from_clist:Nn \g__nicematrix_size_seq {1,5,5,1,5,5}}
\ExplSyntaxOff 
\ExplSyntaxOn 
\char_set_catcode_space:n {32}
\tl_gset:cn {c__nicematrix_25_tl}{\seq_gset_from_clist:Nn \g__nicematrix_size_seq {1,5,5,1,5,5}}
\ExplSyntaxOff 
\ExplSyntaxOn 
\char_set_catcode_space:n {32}
\tl_gset:cn {c__nicematrix_26_tl}{\seq_gset_from_clist:Nn \g__nicematrix_size_seq {1,5,5,1,5,5}}
\ExplSyntaxOff 
\ExplSyntaxOn 
\char_set_catcode_space:n {32}
\tl_gset:cn {c__nicematrix_27_tl}{\seq_gset_from_clist:Nn \g__nicematrix_size_seq {1,5,5,1,4,4}}
\ExplSyntaxOff 
\ExplSyntaxOn 
\char_set_catcode_space:n {32}
\tl_gset:cn {c__nicematrix_28_tl}{\seq_gset_from_clist:Nn \g__nicematrix_size_seq {1,5,5,1,4,4}}
\ExplSyntaxOff 
\ExplSyntaxOn 
\char_set_catcode_space:n {32}
\tl_gset:cn {c__nicematrix_29_tl}{\seq_gset_from_clist:Nn \g__nicematrix_size_seq {1,5,5,1,4,4}}
\ExplSyntaxOff 
\ExplSyntaxOn 
\char_set_catcode_space:n {32}
\tl_gset:cn {c__nicematrix_30_tl}{\seq_gset_from_clist:Nn \g__nicematrix_size_seq {1,3,3,1,5,5}}
\ExplSyntaxOff 
\ExplSyntaxOn 
\char_set_catcode_space:n {32}
\tl_gset:cn {c__nicematrix_31_tl}{\seq_gset_from_clist:Nn \g__nicematrix_size_seq {1,3,3,1,5,5}}
\ExplSyntaxOff 
\ExplSyntaxOn 
\char_set_catcode_space:n {32}
\tl_gset:cn {c__nicematrix_32_tl}{\seq_gset_from_clist:Nn \g__nicematrix_size_seq {1,3,3,1,5,5}}
\ExplSyntaxOff 
\ExplSyntaxOn 
\char_set_catcode_space:n {32}
\tl_gset:cn {c__nicematrix_33_tl}{\seq_gset_from_clist:Nn \g__nicematrix_size_seq {1,5,5,1,4,4}}
\ExplSyntaxOff 
\ExplSyntaxOn 
\char_set_catcode_space:n {32}
\tl_gset:cn {c__nicematrix_34_tl}{\seq_gset_from_clist:Nn \g__nicematrix_size_seq {1,3,3,1,4,4}}
\ExplSyntaxOff 
\ExplSyntaxOn 
\char_set_catcode_space:n {32}
\tl_gset:cn {c__nicematrix_35_tl}{\seq_gset_from_clist:Nn \g__nicematrix_size_seq {1,1,1,1,1,1}}
\ExplSyntaxOff 
\ExplSyntaxOn 
\char_set_catcode_space:n {32}
\tl_gset:cn {c__nicematrix_36_tl}{\seq_gset_from_clist:Nn \g__nicematrix_size_seq {1,5,5,1,5,5}}
\ExplSyntaxOff 
\ExplSyntaxOn 
\char_set_catcode_space:n {32}
\tl_gset:cn {c__nicematrix_37_tl}{\seq_gset_from_clist:Nn \g__nicematrix_size_seq {1,5,5,1,5,5}}
\ExplSyntaxOff 
\ExplSyntaxOn 
\char_set_catcode_space:n {32}
\tl_gset:cn {c__nicematrix_38_tl}{\seq_gset_from_clist:Nn \g__nicematrix_size_seq {1,5,5,1,5,5}}
\ExplSyntaxOff 
\ExplSyntaxOn 
\char_set_catcode_space:n {32}
\tl_gset:cn {c__nicematrix_39_tl}{\seq_gset_from_clist:Nn \g__nicematrix_size_seq {1,5,5,1,4,4}}
\ExplSyntaxOff 
\ExplSyntaxOn 
\char_set_catcode_space:n {32}
\tl_gset:cn {c__nicematrix_40_tl}{\seq_gset_from_clist:Nn \g__nicematrix_size_seq {1,5,5,1,4,4}}
\ExplSyntaxOff 
\ExplSyntaxOn 
\char_set_catcode_space:n {32}
\tl_gset:cn {c__nicematrix_41_tl}{\seq_gset_from_clist:Nn \g__nicematrix_size_seq {1,5,5,1,4,4}}
\ExplSyntaxOff 
\ExplSyntaxOn 
\char_set_catcode_space:n {32}
\tl_gset:cn {c__nicematrix_42_tl}{\seq_gset_from_clist:Nn \g__nicematrix_size_seq {1,3,3,1,5,5}}
\ExplSyntaxOff 
\ExplSyntaxOn 
\char_set_catcode_space:n {32}
\tl_gset:cn {c__nicematrix_43_tl}{\seq_gset_from_clist:Nn \g__nicematrix_size_seq {1,3,3,1,5,5}}
\ExplSyntaxOff 
\ExplSyntaxOn 
\char_set_catcode_space:n {32}
\tl_gset:cn {c__nicematrix_44_tl}{\seq_gset_from_clist:Nn \g__nicematrix_size_seq {1,3,3,1,5,5}}
\ExplSyntaxOff 
\ExplSyntaxOn 
\char_set_catcode_space:n {32}
\tl_gset:cn {c__nicematrix_45_tl}{\seq_gset_from_clist:Nn \g__nicematrix_size_seq {1,5,5,1,4,4}}
\ExplSyntaxOff 
\ExplSyntaxOn 
\char_set_catcode_space:n {32}
\tl_gset:cn {c__nicematrix_46_tl}{\seq_gset_from_clist:Nn \g__nicematrix_size_seq {1,3,3,1,4,4}}
\ExplSyntaxOff 
\PgInfo{question@2}{2}
\PgInfo{question2@object1}{2}
\newlabel{question@2}{{\textbf  {Problem 2}}{2}{}{}{}}
\pgfsyspdfmark {pgfid429}{5967869}{47467086}
\pgfsyspdfmark {pgfid430}{6295550}{46916586}
\pgfsyspdfmark {pgfid431}{7041934}{46916586}
\pgfsyspdfmark {pgfid432}{9117246}{46916586}
\pgfsyspdfmark {pgfid433}{11010512}{46916586}
\pgfsyspdfmark {pgfid434}{13413504}{46916586}
\pgfsyspdfmark {pgfid435}{15725473}{46916586}
\pgfsyspdfmark {pgfid436}{5967869}{46680654}
\pgfsyspdfmark {pgfid437}{6805276}{46130154}
\pgfsyspdfmark {pgfid438}{7296797}{46130154}
\pgfsyspdfmark {pgfid439}{9026223}{46130154}
\pgfsyspdfmark {pgfid440}{11265375}{46130154}
\pgfsyspdfmark {pgfid441}{13158641}{46130154}
\pgfsyspdfmark {pgfid442}{15306770}{46130154}
\pgfsyspdfmark {pgfid443}{5967869}{45894222}
\pgfsyspdfmark {pgfid444}{6295550}{45343722}
\pgfsyspdfmark {pgfid445}{7041934}{45343722}
\pgfsyspdfmark {pgfid446}{9117246}{45343722}
\pgfsyspdfmark {pgfid447}{11010512}{45343722}
\pgfsyspdfmark {pgfid448}{13413504}{45343722}
\pgfsyspdfmark {pgfid449}{15561633}{45343722}
\pgfsyspdfmark {pgfid450}{5967869}{45107790}
\pgfsyspdfmark {pgfid451}{5967869}{45107790}
\pgfsyspdfmark {pgfid452}{8115998}{45107790}
\pgfsyspdfmark {pgfid453}{9936447}{45107790}
\pgfsyspdfmark {pgfid454}{12084576}{45107790}
\pgfsyspdfmark {pgfid455}{14232705}{45107790}
\pgfsyspdfmark {pgfid456}{16380834}{45107790}
\pgfsyspdfmark {pgfid457}{16490062}{46097384}
\pgfsyspdfmark {pgfid459}{16490062}{46097384}
\pgfsyspdfmark {pgfid460}{18944172}{48253518}
\pgfsyspdfmark {pgfid461}{19271853}{47703018}
\pgfsyspdfmark {pgfid462}{19763374}{47703018}
\pgfsyspdfmark {pgfid463}{21401777}{47703018}
\pgfsyspdfmark {pgfid464}{23040180}{47703018}
\pgfsyspdfmark {pgfid465}{24678583}{47703018}
\pgfsyspdfmark {pgfid466}{26316986}{47703018}
\pgfsyspdfmark {pgfid467}{18944172}{47467086}
\pgfsyspdfmark {pgfid468}{19271853}{46916586}
\pgfsyspdfmark {pgfid469}{19763374}{46916586}
\pgfsyspdfmark {pgfid470}{21401777}{46916586}
\pgfsyspdfmark {pgfid471}{23040180}{46916586}
\pgfsyspdfmark {pgfid472}{24678583}{46916586}
\pgfsyspdfmark {pgfid473}{26316986}{46916586}
\pgfsyspdfmark {pgfid474}{18944172}{46680654}
\pgfsyspdfmark {pgfid475}{19271853}{46130154}
\pgfsyspdfmark {pgfid476}{19763374}{46130154}
\pgfsyspdfmark {pgfid477}{21401777}{46130154}
\pgfsyspdfmark {pgfid478}{23040180}{46130154}
\pgfsyspdfmark {pgfid479}{24678583}{46130154}
\pgfsyspdfmark {pgfid480}{26316986}{46130154}
\pgfsyspdfmark {pgfid481}{18944172}{45894222}
\pgfsyspdfmark {pgfid482}{19271853}{45343722}
\pgfsyspdfmark {pgfid483}{19763374}{45343722}
\pgfsyspdfmark {pgfid484}{21401777}{45343722}
\pgfsyspdfmark {pgfid485}{23040180}{45343722}
\pgfsyspdfmark {pgfid486}{24678583}{45343722}
\pgfsyspdfmark {pgfid487}{26316986}{45343722}
\pgfsyspdfmark {pgfid488}{18944172}{45107790}
\pgfsyspdfmark {pgfid489}{19271853}{44557290}
\pgfsyspdfmark {pgfid490}{19763374}{44557290}
\pgfsyspdfmark {pgfid491}{21401777}{44557290}
\pgfsyspdfmark {pgfid492}{23040180}{44557290}
\pgfsyspdfmark {pgfid493}{24678583}{44557290}
\pgfsyspdfmark {pgfid494}{26316986}{44557290}
\pgfsyspdfmark {pgfid495}{18944172}{44321358}
\pgfsyspdfmark {pgfid496}{18944172}{44321358}
\pgfsyspdfmark {pgfid497}{20582575}{44321358}
\pgfsyspdfmark {pgfid498}{22220978}{44321358}
\pgfsyspdfmark {pgfid499}{23859381}{44321358}
\pgfsyspdfmark {pgfid500}{25497784}{44321358}
\pgfsyspdfmark {pgfid501}{27136187}{44321358}
\pgfsyspdfmark {pgfid502}{27245415}{46097384}
\pgfsyspdfmark {pgfid504}{27245415}{46097384}
\pgfsyspdfmark {pgfid505}{29684824}{48253518}
\pgfsyspdfmark {pgfid506}{30522231}{47703018}
\pgfsyspdfmark {pgfid507}{30686071}{47703018}
\pgfsyspdfmark {pgfid508}{32178838}{47703018}
\pgfsyspdfmark {pgfid509}{33671605}{47703018}
\pgfsyspdfmark {pgfid510}{35164372}{47703018}
\pgfsyspdfmark {pgfid511}{29684824}{47467086}
\pgfsyspdfmark {pgfid512}{30012505}{46916586}
\pgfsyspdfmark {pgfid513}{30431208}{46916586}
\pgfsyspdfmark {pgfid514}{32178838}{46916586}
\pgfsyspdfmark {pgfid515}{33671605}{46916586}
\pgfsyspdfmark {pgfid516}{35164372}{46916586}
\pgfsyspdfmark {pgfid517}{29684824}{46680654}
\pgfsyspdfmark {pgfid518}{30522231}{46130154}
\pgfsyspdfmark {pgfid519}{30686071}{46130154}
\pgfsyspdfmark {pgfid520}{31923975}{46130154}
\pgfsyspdfmark {pgfid521}{33671605}{46130154}
\pgfsyspdfmark {pgfid522}{35164372}{46130154}
\pgfsyspdfmark {pgfid523}{29684824}{45894222}
\pgfsyspdfmark {pgfid524}{30522231}{45343722}
\pgfsyspdfmark {pgfid525}{30686071}{45343722}
\pgfsyspdfmark {pgfid526}{32178838}{45343722}
\pgfsyspdfmark {pgfid527}{33416742}{45343722}
\pgfsyspdfmark {pgfid528}{35164372}{45343722}
\pgfsyspdfmark {pgfid529}{29684824}{45107790}
\pgfsyspdfmark {pgfid530}{30522231}{44557290}
\pgfsyspdfmark {pgfid531}{30686071}{44557290}
\pgfsyspdfmark {pgfid532}{32178838}{44557290}
\pgfsyspdfmark {pgfid533}{33671605}{44557290}
\pgfsyspdfmark {pgfid534}{34909509}{44557290}
\pgfsyspdfmark {pgfid535}{29684824}{44321358}
\pgfsyspdfmark {pgfid536}{29684824}{44321358}
\pgfsyspdfmark {pgfid537}{31177591}{44321358}
\pgfsyspdfmark {pgfid538}{32670358}{44321358}
\pgfsyspdfmark {pgfid539}{34163125}{44321358}
\pgfsyspdfmark {pgfid540}{35655892}{44321358}
\pgfsyspdfmark {pgfid541}{35765120}{46097384}
\pgfsyspdfmark {pgfid543}{35765120}{46097384}
\PgInfo{part@2@1}{2}
\PgInfo{question2@object2}{2}
\newlabel{part@2@1}{{a}{2}{}{}{}}
\newlabel{firstpoints@onpage@2}{{a}{2}{}{}{}}
\PgInfo{part@2@2}{2}
\PgInfo{question2@object3}{2}
\newlabel{part@2@2}{{b}{2}{}{}{}}
\PgInfo{part@2@3}{2}
\PgInfo{question2@object4}{2}
\newlabel{part@2@3}{{c}{2}{}{}{}}
\PgInfo{question2@object5}{2}
\PgInfo{question2@object6}{2}
\PgInfo{question2@object7}{2}
\PgInfo{question2@object8}{2}
\PgInfo{question2@object9}{2}
\PgInfo{question2@object10}{2}
\PgInfo{part@2@4}{2}
\PgInfo{question2@object11}{2}
\newlabel{part@2@4}{{d}{2}{}{}{}}
\PgInfo{part@2@5}{2}
\PgInfo{question2@object12}{2}
\newlabel{part@2@5}{{e}{2}{}{}{}}
\gdef\pointsofq@ii{34}
\gdef\bonuspointsofq@ii{0}
\ExplSyntaxOn 
\char_set_catcode_space:n {32}
\tl_gset:cn {c__nicematrix_47_tl}{\seq_gset_from_clist:Nn \g__nicematrix_size_seq {1,5,5,1,5,5}}
\ExplSyntaxOff 
\ExplSyntaxOn 
\char_set_catcode_space:n {32}
\tl_gset:cn {c__nicematrix_48_tl}{\seq_gset_from_clist:Nn \g__nicematrix_size_seq {1,5,5,1,5,5}}
\ExplSyntaxOff 
\ExplSyntaxOn 
\char_set_catcode_space:n {32}
\tl_gset:cn {c__nicematrix_49_tl}{\seq_gset_from_clist:Nn \g__nicematrix_size_seq {1,5,5,1,5,5}}
\ExplSyntaxOff 
\ExplSyntaxOn 
\char_set_catcode_space:n {32}
\tl_gset:cn {c__nicematrix_50_tl}{\seq_gset_from_clist:Nn \g__nicematrix_size_seq {1,5,5,1,5,5}}
\ExplSyntaxOff 
\ExplSyntaxOn 
\char_set_catcode_space:n {32}
\tl_gset:cn {c__nicematrix_51_tl}{\seq_gset_from_clist:Nn \g__nicematrix_size_seq {1,5,5,1,5,5}}
\ExplSyntaxOff 
\ExplSyntaxOn 
\char_set_catcode_space:n {32}
\tl_gset:cn {c__nicematrix_52_tl}{\seq_gset_from_clist:Nn \g__nicematrix_size_seq {1,5,5,1,5,5}}
\ExplSyntaxOff 
\ExplSyntaxOn 
\char_set_catcode_space:n {32}
\tl_gset:cn {c__nicematrix_53_tl}{\seq_gset_from_clist:Nn \g__nicematrix_size_seq {1,5,5,1,5,5}}
\ExplSyntaxOff 
\ExplSyntaxOn 
\char_set_catcode_space:n {32}
\tl_gset:cn {c__nicematrix_54_tl}{\seq_gset_from_clist:Nn \g__nicematrix_size_seq {1,5,5,1,5,5}}
\ExplSyntaxOff 
\ExplSyntaxOn 
\char_set_catcode_space:n {32}
\tl_gset:cn {c__nicematrix_55_tl}{\seq_gset_from_clist:Nn \g__nicematrix_size_seq {1,5,5,1,5,5}}
\ExplSyntaxOff 
\ExplSyntaxOn 
\char_set_catcode_space:n {32}
\tl_gset:cn {c__nicematrix_56_tl}{\seq_gset_from_clist:Nn \g__nicematrix_size_seq {1,5,5,1,5,5}}
\ExplSyntaxOff 
\ExplSyntaxOn 
\char_set_catcode_space:n {32}
\tl_gset:cn {c__nicematrix_57_tl}{\seq_gset_from_clist:Nn \g__nicematrix_size_seq {1,5,5,1,5,5}}
\ExplSyntaxOff 
\ExplSyntaxOn 
\char_set_catcode_space:n {32}
\tl_gset:cn {c__nicematrix_58_tl}{\seq_gset_from_clist:Nn \g__nicematrix_size_seq {1,5,5,1,5,5}}
\ExplSyntaxOff 
\ExplSyntaxOn 
\char_set_catcode_space:n {32}
\tl_gset:cn {c__nicematrix_59_tl}{\seq_gset_from_clist:Nn \g__nicematrix_size_seq {1,5,5,1,5,5}}
\ExplSyntaxOff 
\ExplSyntaxOn 
\char_set_catcode_space:n {32}
\tl_gset:cn {c__nicematrix_60_tl}{\seq_gset_from_clist:Nn \g__nicematrix_size_seq {1,5,5,1,5,5}}
\ExplSyntaxOff 
\ExplSyntaxOn 
\char_set_catcode_space:n {32}
\tl_gset:cn {c__nicematrix_61_tl}{\seq_gset_from_clist:Nn \g__nicematrix_size_seq {1,5,5,1,5,5}}
\ExplSyntaxOff 
\ExplSyntaxOn 
\char_set_catcode_space:n {32}
\tl_gset:cn {c__nicematrix_62_tl}{\seq_gset_from_clist:Nn \g__nicematrix_size_seq {1,5,5,1,5,5}}
\ExplSyntaxOff 
\ExplSyntaxOn 
\char_set_catcode_space:n {32}
\tl_gset:cn {c__nicematrix_63_tl}{\seq_gset_from_clist:Nn \g__nicematrix_size_seq {1,5,5,1,5,5}}
\ExplSyntaxOff 
\ExplSyntaxOn 
\char_set_catcode_space:n {32}
\tl_gset:cn {c__nicematrix_64_tl}{\seq_gset_from_clist:Nn \g__nicematrix_size_seq {1,5,5,1,5,5}}
\ExplSyntaxOff 
\gdef\pointsonpage@ii{34}
\ExplSyntaxOn 
\char_set_catcode_space:n {32}
\tl_gset:cn {c__nicematrix_65_tl}{\seq_gset_from_clist:Nn \g__nicematrix_size_seq {1,1,1,1,5,5}}
\ExplSyntaxOff 
\ExplSyntaxOn 
\char_set_catcode_space:n {32}
\tl_gset:cn {c__nicematrix_66_tl}{\seq_gset_from_clist:Nn \g__nicematrix_size_seq {1,1,1,1,5,5}}
\ExplSyntaxOff 
\ExplSyntaxOn 
\char_set_catcode_space:n {32}
\tl_gset:cn {c__nicematrix_67_tl}{\seq_gset_from_clist:Nn \g__nicematrix_size_seq {1,1,1,1,5,5}}
\ExplSyntaxOff 
\ExplSyntaxOn 
\char_set_catcode_space:n {32}
\tl_gset:cn {c__nicematrix_68_tl}{\seq_gset_from_clist:Nn \g__nicematrix_size_seq {1,1,1,1,5,5}}
\ExplSyntaxOff 
\ExplSyntaxOn 
\char_set_catcode_space:n {32}
\tl_gset:cn {c__nicematrix_69_tl}{\seq_gset_from_clist:Nn \g__nicematrix_size_seq {1,5,5,1,5,5}}
\ExplSyntaxOff 
\ExplSyntaxOn 
\char_set_catcode_space:n {32}
\tl_gset:cn {c__nicematrix_70_tl}{\seq_gset_from_clist:Nn \g__nicematrix_size_seq {1,5,5,1,5,5}}
\ExplSyntaxOff 
\ExplSyntaxOn 
\char_set_catcode_space:n {32}
\tl_gset:cn {c__nicematrix_71_tl}{\seq_gset_from_clist:Nn \g__nicematrix_size_seq {1,5,5,1,5,5}}
\ExplSyntaxOff 
\ExplSyntaxOn 
\char_set_catcode_space:n {32}
\tl_gset:cn {c__nicematrix_72_tl}{\seq_gset_from_clist:Nn \g__nicematrix_size_seq {1,3,3,1,5,5}}
\ExplSyntaxOff 
\ExplSyntaxOn 
\char_set_catcode_space:n {32}
\tl_gset:cn {c__nicematrix_73_tl}{\seq_gset_from_clist:Nn \g__nicematrix_size_seq {1,3,3,1,5,5}}
\ExplSyntaxOff 
\ExplSyntaxOn 
\char_set_catcode_space:n {32}
\tl_gset:cn {c__nicematrix_74_tl}{\seq_gset_from_clist:Nn \g__nicematrix_size_seq {1,5,5,1,5,5}}
\ExplSyntaxOff 
\ExplSyntaxOn 
\char_set_catcode_space:n {32}
\tl_gset:cn {c__nicematrix_75_tl}{\seq_gset_from_clist:Nn \g__nicematrix_size_seq {1,5,5,1,5,5}}
\ExplSyntaxOff 
\ExplSyntaxOn 
\char_set_catcode_space:n {32}
\tl_gset:cn {c__nicematrix_76_tl}{\seq_gset_from_clist:Nn \g__nicematrix_size_seq {1,5,5,1,5,5}}
\ExplSyntaxOff 
\ExplSyntaxOn 
\char_set_catcode_space:n {32}
\tl_gset:cn {c__nicematrix_77_tl}{\seq_gset_from_clist:Nn \g__nicematrix_size_seq {1,5,5,1,5,5}}
\ExplSyntaxOff 
\ExplSyntaxOn 
\char_set_catcode_space:n {32}
\tl_gset:cn {c__nicematrix_78_tl}{\seq_gset_from_clist:Nn \g__nicematrix_size_seq {1,5,5,1,5,5}}
\ExplSyntaxOff 
\ExplSyntaxOn 
\char_set_catcode_space:n {32}
\tl_gset:cn {c__nicematrix_79_tl}{\seq_gset_from_clist:Nn \g__nicematrix_size_seq {1,3,3,1,5,5}}
\ExplSyntaxOff 
\ExplSyntaxOn 
\char_set_catcode_space:n {32}
\tl_gset:cn {c__nicematrix_80_tl}{\seq_gset_from_clist:Nn \g__nicematrix_size_seq {1,3,3,1,5,5}}
\ExplSyntaxOff 
\ExplSyntaxOn 
\char_set_catcode_space:n {32}
\tl_gset:cn {c__nicematrix_81_tl}{\seq_gset_from_clist:Nn \g__nicematrix_size_seq {1,5,5,1,5,5}}
\ExplSyntaxOff 
\ExplSyntaxOn 
\char_set_catcode_space:n {32}
\tl_gset:cn {c__nicematrix_82_tl}{\seq_gset_from_clist:Nn \g__nicematrix_size_seq {1,5,5,1,5,5}}
\ExplSyntaxOff 
\PgInfo{question@3}{3}
\PgInfo{question3@object1}{3}
\newlabel{question@3}{{\textbf  {Problem 3}}{3}{}{}{}}
\pgfsyspdfmark {pgfid1882}{9734466}{47743430}
\pgfsyspdfmark {pgfid1883}{10062147}{47192930}
\pgfsyspdfmark {pgfid1884}{10225987}{47192930}
\pgfsyspdfmark {pgfid1885}{11209028}{47192930}
\pgfsyspdfmark {pgfid1886}{12446932}{47192930}
\pgfsyspdfmark {pgfid1887}{14194562}{47192930}
\pgfsyspdfmark {pgfid1888}{15687329}{47192930}
\pgfsyspdfmark {pgfid1889}{9734466}{46956998}
\pgfsyspdfmark {pgfid1890}{10062147}{46406498}
\pgfsyspdfmark {pgfid1891}{10225987}{46406498}
\pgfsyspdfmark {pgfid1892}{11209028}{46406498}
\pgfsyspdfmark {pgfid1893}{12446932}{46406498}
\pgfsyspdfmark {pgfid1894}{13939699}{46406498}
\pgfsyspdfmark {pgfid1895}{15687329}{46406498}
\pgfsyspdfmark {pgfid1896}{9734466}{46170566}
\pgfsyspdfmark {pgfid1897}{10062147}{45620066}
\pgfsyspdfmark {pgfid1898}{10225987}{45620066}
\pgfsyspdfmark {pgfid1899}{11209028}{45620066}
\pgfsyspdfmark {pgfid1900}{12701795}{45620066}
\pgfsyspdfmark {pgfid1901}{14194562}{45620066}
\pgfsyspdfmark {pgfid1902}{15687329}{45620066}
\pgfsyspdfmark {pgfid1903}{9734466}{45384134}
\pgfsyspdfmark {pgfid1904}{10062147}{44833634}
\pgfsyspdfmark {pgfid1905}{10225987}{44833634}
\pgfsyspdfmark {pgfid1906}{11209028}{44833634}
\pgfsyspdfmark {pgfid1907}{12701795}{44833634}
\pgfsyspdfmark {pgfid1908}{13939699}{44833634}
\pgfsyspdfmark {pgfid1909}{15432466}{44833634}
\pgfsyspdfmark {pgfid1910}{9734466}{44597702}
\pgfsyspdfmark {pgfid1911}{10062147}{44047202}
\pgfsyspdfmark {pgfid1912}{10225987}{44047202}
\pgfsyspdfmark {pgfid1913}{11209028}{44047202}
\pgfsyspdfmark {pgfid1914}{12701795}{44047202}
\pgfsyspdfmark {pgfid1915}{14194562}{44047202}
\pgfsyspdfmark {pgfid1916}{15687329}{44047202}
\pgfsyspdfmark {pgfid1917}{9734466}{43811270}
\pgfsyspdfmark {pgfid1918}{9734466}{43811270}
\pgfsyspdfmark {pgfid1919}{10717507}{43811270}
\pgfsyspdfmark {pgfid1920}{11700548}{43811270}
\pgfsyspdfmark {pgfid1921}{13193315}{43811270}
\pgfsyspdfmark {pgfid1922}{14686082}{43811270}
\pgfsyspdfmark {pgfid1923}{16178849}{43811270}
\pgfsyspdfmark {pgfid1924}{16288077}{45587296}
\pgfsyspdfmark {pgfid1926}{16288077}{45587296}
\pgfsyspdfmark {pgfid2017}{16397305}{47743430}
\pgfsyspdfmark {pgfid2018}{17234712}{47192930}
\pgfsyspdfmark {pgfid2019}{17398552}{47192930}
\pgfsyspdfmark {pgfid2020}{18891319}{47192930}
\pgfsyspdfmark {pgfid2021}{20129223}{47192930}
\pgfsyspdfmark {pgfid2022}{21621990}{47192930}
\pgfsyspdfmark {pgfid2023}{23442439}{47192930}
\pgfsyspdfmark {pgfid2024}{16397305}{46956998}
\pgfsyspdfmark {pgfid2025}{16724986}{46406498}
\pgfsyspdfmark {pgfid2026}{17143689}{46406498}
\pgfsyspdfmark {pgfid2027}{18636456}{46406498}
\pgfsyspdfmark {pgfid2028}{20384086}{46406498}
\pgfsyspdfmark {pgfid2029}{21876853}{46406498}
\pgfsyspdfmark {pgfid2030}{23697302}{46406498}
\pgfsyspdfmark {pgfid2031}{16397305}{46170566}
\pgfsyspdfmark {pgfid2032}{17234712}{45620066}
\pgfsyspdfmark {pgfid2033}{17398552}{45620066}
\pgfsyspdfmark {pgfid2034}{18891319}{45620066}
\pgfsyspdfmark {pgfid2035}{20384086}{45620066}
\pgfsyspdfmark {pgfid2036}{21876853}{45620066}
\pgfsyspdfmark {pgfid2037}{23697302}{45620066}
\pgfsyspdfmark {pgfid2038}{16397305}{45384134}
\pgfsyspdfmark {pgfid2039}{16724986}{44833634}
\pgfsyspdfmark {pgfid2040}{17143689}{44833634}
\pgfsyspdfmark {pgfid2041}{18636456}{44833634}
\pgfsyspdfmark {pgfid2042}{20129223}{44833634}
\pgfsyspdfmark {pgfid2043}{21621990}{44833634}
\pgfsyspdfmark {pgfid2044}{23278598}{44833634}
\pgfsyspdfmark {pgfid2045}{16397305}{44597702}
\pgfsyspdfmark {pgfid2046}{17234712}{44047202}
\pgfsyspdfmark {pgfid2047}{17398552}{44047202}
\pgfsyspdfmark {pgfid2048}{18891319}{44047202}
\pgfsyspdfmark {pgfid2049}{20384086}{44047202}
\pgfsyspdfmark {pgfid2050}{21876853}{44047202}
\pgfsyspdfmark {pgfid2051}{23533461}{44047202}
\pgfsyspdfmark {pgfid2052}{16397305}{43811270}
\pgfsyspdfmark {pgfid2053}{16397305}{43811270}
\pgfsyspdfmark {pgfid2054}{17890072}{43811270}
\pgfsyspdfmark {pgfid2055}{19382839}{43811270}
\pgfsyspdfmark {pgfid2056}{20875606}{43811270}
\pgfsyspdfmark {pgfid2057}{22368373}{43811270}
\pgfsyspdfmark {pgfid2058}{24188822}{43811270}
\pgfsyspdfmark {pgfid2059}{24298050}{45587296}
\pgfsyspdfmark {pgfid2061}{24298050}{45587296}
\pgfsyspdfmark {pgfid2152}{25281084}{47743430}
\pgfsyspdfmark {pgfid2153}{25608765}{47192930}
\pgfsyspdfmark {pgfid2154}{25772605}{47192930}
\pgfsyspdfmark {pgfid2155}{26755646}{47192930}
\pgfsyspdfmark {pgfid2156}{27738687}{47192930}
\pgfsyspdfmark {pgfid2157}{28721728}{47192930}
\pgfsyspdfmark {pgfid2158}{30032451}{47192930}
\pgfsyspdfmark {pgfid2159}{25281084}{46956998}
\pgfsyspdfmark {pgfid2160}{25608765}{46406498}
\pgfsyspdfmark {pgfid2161}{25772605}{46406498}
\pgfsyspdfmark {pgfid2162}{26755646}{46406498}
\pgfsyspdfmark {pgfid2163}{27738687}{46406498}
\pgfsyspdfmark {pgfid2164}{28721728}{46406498}
\pgfsyspdfmark {pgfid2165}{29868610}{46406498}
\pgfsyspdfmark {pgfid2166}{25281084}{46170566}
\pgfsyspdfmark {pgfid2167}{25608765}{45620066}
\pgfsyspdfmark {pgfid2168}{25772605}{45620066}
\pgfsyspdfmark {pgfid2169}{26755646}{45620066}
\pgfsyspdfmark {pgfid2170}{27738687}{45620066}
\pgfsyspdfmark {pgfid2171}{28721728}{45620066}
\pgfsyspdfmark {pgfid2172}{30032451}{45620066}
\pgfsyspdfmark {pgfid2173}{25281084}{45384134}
\pgfsyspdfmark {pgfid2174}{25608765}{44833634}
\pgfsyspdfmark {pgfid2175}{25772605}{44833634}
\pgfsyspdfmark {pgfid2176}{26755646}{44833634}
\pgfsyspdfmark {pgfid2177}{27738687}{44833634}
\pgfsyspdfmark {pgfid2178}{28721728}{44833634}
\pgfsyspdfmark {pgfid2179}{30032451}{44833634}
\pgfsyspdfmark {pgfid2180}{25281084}{44597702}
\pgfsyspdfmark {pgfid2181}{25608765}{44047202}
\pgfsyspdfmark {pgfid2182}{25772605}{44047202}
\pgfsyspdfmark {pgfid2183}{26755646}{44047202}
\pgfsyspdfmark {pgfid2184}{27738687}{44047202}
\pgfsyspdfmark {pgfid2185}{28721728}{44047202}
\pgfsyspdfmark {pgfid2186}{30032451}{44047202}
\pgfsyspdfmark {pgfid2187}{25281084}{43811270}
\pgfsyspdfmark {pgfid2188}{25281084}{43811270}
\pgfsyspdfmark {pgfid2189}{26264125}{43811270}
\pgfsyspdfmark {pgfid2190}{27247166}{43811270}
\pgfsyspdfmark {pgfid2191}{28230207}{43811270}
\pgfsyspdfmark {pgfid2192}{29213248}{43811270}
\pgfsyspdfmark {pgfid2193}{30523971}{43811270}
\pgfsyspdfmark {pgfid2194}{30633199}{45587296}
\pgfsyspdfmark {pgfid2196}{30633199}{45587296}
\PgInfo{part@3@1}{3}
\PgInfo{question3@object2}{3}
\newlabel{part@3@1}{{a}{3}{}{}{}}
\newlabel{firstpoints@onpage@3}{{a}{3}{}{}{}}
\PgInfo{part@3@2}{3}
\PgInfo{question3@object3}{3}
\newlabel{part@3@2}{{b}{3}{}{}{}}
\PgInfo{question3@object4}{3}
\PgInfo{question3@object5}{3}
\PgInfo{question3@object6}{3}
\PgInfo{question3@object7}{3}
\PgInfo{question3@object8}{3}
\PgInfo{part@3@3}{3}
\PgInfo{question3@object9}{3}
\newlabel{part@3@3}{{c}{3}{}{}{}}
\PgInfo{question3@object10}{3}
\pgfsyspdfmark {pgfid2197}{7079322}{31490474}
\pgfsyspdfmark {pgfid2198}{7407003}{30939974}
\pgfsyspdfmark {pgfid2199}{7570843}{30939974}
\pgfsyspdfmark {pgfid2200}{8553884}{30939974}
\pgfsyspdfmark {pgfid2201}{9791788}{30939974}
\pgfsyspdfmark {pgfid2202}{11029692}{30939974}
\pgfsyspdfmark {pgfid2203}{12012733}{30939974}
\pgfsyspdfmark {pgfid2204}{7079322}{30704042}
\pgfsyspdfmark {pgfid2205}{7079322}{30704042}
\pgfsyspdfmark {pgfid2206}{8062363}{30704042}
\pgfsyspdfmark {pgfid2207}{9045404}{30704042}
\pgfsyspdfmark {pgfid2208}{10538171}{30704042}
\pgfsyspdfmark {pgfid2209}{11521212}{30704042}
\pgfsyspdfmark {pgfid2210}{12504253}{30704042}
\pgfsyspdfmark {pgfid2211}{12449641}{30907204}
\pgfsyspdfmark {pgfid2213}{12449641}{30907204}
\PgInfo{question3@object11}{3}
\pgfsyspdfmark {pgfid2214}{15796522}{31490474}
\pgfsyspdfmark {pgfid2215}{16124203}{30939974}
\pgfsyspdfmark {pgfid2216}{16288043}{30939974}
\pgfsyspdfmark {pgfid2217}{17271084}{30939974}
\pgfsyspdfmark {pgfid2218}{18254125}{30939974}
\pgfsyspdfmark {pgfid2219}{19237166}{30939974}
\pgfsyspdfmark {pgfid2220}{20220207}{30939974}
\pgfsyspdfmark {pgfid2221}{15796522}{30704042}
\pgfsyspdfmark {pgfid2222}{15796522}{30704042}
\pgfsyspdfmark {pgfid2223}{16779563}{30704042}
\pgfsyspdfmark {pgfid2224}{17762604}{30704042}
\pgfsyspdfmark {pgfid2225}{18745645}{30704042}
\pgfsyspdfmark {pgfid2226}{19728686}{30704042}
\pgfsyspdfmark {pgfid2227}{20711727}{30704042}
\pgfsyspdfmark {pgfid2228}{20657115}{30907204}
\pgfsyspdfmark {pgfid2230}{20657115}{30907204}
\PgInfo{question3@object12}{3}
\pgfsyspdfmark {pgfid2231}{7079322}{29292277}
\pgfsyspdfmark {pgfid2232}{7407003}{28741777}
\pgfsyspdfmark {pgfid2233}{7570843}{28741777}
\pgfsyspdfmark {pgfid2234}{8553884}{28741777}
\pgfsyspdfmark {pgfid2235}{9791788}{28741777}
\pgfsyspdfmark {pgfid2236}{11029692}{28741777}
\pgfsyspdfmark {pgfid2237}{12012733}{28741777}
\pgfsyspdfmark {pgfid2238}{7079322}{28505845}
\pgfsyspdfmark {pgfid2239}{7079322}{28505845}
\pgfsyspdfmark {pgfid2240}{8062363}{28505845}
\pgfsyspdfmark {pgfid2241}{9045404}{28505845}
\pgfsyspdfmark {pgfid2242}{10538171}{28505845}
\pgfsyspdfmark {pgfid2243}{11521212}{28505845}
\pgfsyspdfmark {pgfid2244}{12504253}{28505845}
\pgfsyspdfmark {pgfid2245}{12449641}{28709007}
\pgfsyspdfmark {pgfid2247}{12449641}{28709007}
\PgInfo{question3@object13}{3}
\pgfsyspdfmark {pgfid2248}{15796522}{29292277}
\pgfsyspdfmark {pgfid2249}{16124203}{28741777}
\pgfsyspdfmark {pgfid2250}{16288043}{28741777}
\pgfsyspdfmark {pgfid2251}{17271084}{28741777}
\pgfsyspdfmark {pgfid2252}{18508988}{28741777}
\pgfsyspdfmark {pgfid2253}{19746892}{28741777}
\pgfsyspdfmark {pgfid2254}{20984796}{28741777}
\pgfsyspdfmark {pgfid2255}{15796522}{28505845}
\pgfsyspdfmark {pgfid2256}{15796522}{28505845}
\pgfsyspdfmark {pgfid2257}{16779563}{28505845}
\pgfsyspdfmark {pgfid2258}{17762604}{28505845}
\pgfsyspdfmark {pgfid2259}{19255371}{28505845}
\pgfsyspdfmark {pgfid2260}{20238412}{28505845}
\pgfsyspdfmark {pgfid2261}{21731179}{28505845}
\pgfsyspdfmark {pgfid2262}{21676567}{28709007}
\pgfsyspdfmark {pgfid2264}{21676567}{28709007}
\PgInfo{part@3@4}{3}
\PgInfo{question3@object14}{3}
\newlabel{part@3@4}{{d}{3}{}{}{}}
\gdef\pointsofq@iii{24}
\gdef\bonuspointsofq@iii{0}
\gdef\pointsonpage@iii{24}
\gdef\pointsofq@iv{10}
\gdef\bonuspointsofq@iv{0}
\ExplSyntaxOn 
\char_set_catcode_space:n {32}
\tl_gset:cn {c__nicematrix_83_tl}{\seq_gset_from_clist:Nn \g__nicematrix_size_seq {1,1,1,1,5,5}}
\ExplSyntaxOff 
\ExplSyntaxOn 
\char_set_catcode_space:n {32}
\tl_gset:cn {c__nicematrix_84_tl}{\seq_gset_from_clist:Nn \g__nicematrix_size_seq {1,5,5,1,5,5}}
\ExplSyntaxOff 
\ExplSyntaxOn 
\char_set_catcode_space:n {32}
\tl_gset:cn {c__nicematrix_85_tl}{\seq_gset_from_clist:Nn \g__nicematrix_size_seq {1,5,5,1,4,4}}
\ExplSyntaxOff 
\ExplSyntaxOn 
\char_set_catcode_space:n {32}
\tl_gset:cn {c__nicematrix_86_tl}{\seq_gset_from_clist:Nn \g__nicematrix_size_seq {1,4,4,1,5,5}}
\ExplSyntaxOff 
\ExplSyntaxOn 
\char_set_catcode_space:n {32}
\tl_gset:cn {c__nicematrix_87_tl}{\seq_gset_from_clist:Nn \g__nicematrix_size_seq {1,5,5,1,5,5}}
\ExplSyntaxOff 
\ExplSyntaxOn 
\char_set_catcode_space:n {32}
\tl_gset:cn {c__nicematrix_88_tl}{\seq_gset_from_clist:Nn \g__nicematrix_size_seq {1,5,5,1,5,5}}
\ExplSyntaxOff 
\ExplSyntaxOn 
\char_set_catcode_space:n {32}
\tl_gset:cn {c__nicematrix_89_tl}{\seq_gset_from_clist:Nn \g__nicematrix_size_seq {1,5,5,1,5,5}}
\ExplSyntaxOff 
\ExplSyntaxOn 
\char_set_catcode_space:n {32}
\tl_gset:cn {c__nicematrix_90_tl}{\seq_gset_from_clist:Nn \g__nicematrix_size_seq {1,5,5,1,4,4}}
\ExplSyntaxOff 
\ExplSyntaxOn 
\char_set_catcode_space:n {32}
\tl_gset:cn {c__nicematrix_91_tl}{\seq_gset_from_clist:Nn \g__nicematrix_size_seq {1,4,4,1,5,5}}
\ExplSyntaxOff 
\ExplSyntaxOn 
\char_set_catcode_space:n {32}
\tl_gset:cn {c__nicematrix_92_tl}{\seq_gset_from_clist:Nn \g__nicematrix_size_seq {1,5,5,1,5,5}}
\ExplSyntaxOff 
\ExplSyntaxOn 
\char_set_catcode_space:n {32}
\tl_gset:cn {c__nicematrix_93_tl}{\seq_gset_from_clist:Nn \g__nicematrix_size_seq {1,5,5,1,5,5}}
\ExplSyntaxOff 
\ExplSyntaxOn 
\char_set_catcode_space:n {32}
\tl_gset:cn {c__nicematrix_94_tl}{\seq_gset_from_clist:Nn \g__nicematrix_size_seq {1,1,1,1,4,4}}
\ExplSyntaxOff 
\ExplSyntaxOn 
\char_set_catcode_space:n {32}
\tl_gset:cn {c__nicematrix_95_tl}{\seq_gset_from_clist:Nn \g__nicematrix_size_seq {1,4,4,1,15,15}}
\ExplSyntaxOff 
\ExplSyntaxOn 
\char_set_catcode_space:n {32}
\tl_gset:cn {c__nicematrix_96_tl}{\seq_gset_from_clist:Nn \g__nicematrix_size_seq {1,1,1,1,5,5}}
\ExplSyntaxOff 
\gdef\pointsofq@v{10}
\gdef\bonuspointsofq@v{0}
\PgInfo{question@4}{4}
\PgInfo{question4@object1}{4}
\newlabel{question@4}{{\textbf  {Problem 4}}{4}{}{}{}}
\newlabel{firstpoints@onpage@4}{{\textbf  {Problem 4}}{4}{}{}{}}
\PgInfo{question@5}{4}
\PgInfo{question5@object1}{4}
\newlabel{question@5}{{\textbf  {Problem 5}}{4}{}{}{}}
\pgfsyspdfmark {pgfid2839}{29960580}{37460874}
\pgfsyspdfmark {pgfid2840}{30288261}{36910374}
\pgfsyspdfmark {pgfid2841}{30452101}{36910374}
\pgfsyspdfmark {pgfid2842}{31598983}{36910374}
\pgfsyspdfmark {pgfid2843}{32745865}{36910374}
\pgfsyspdfmark {pgfid2844}{33892747}{36910374}
\pgfsyspdfmark {pgfid2845}{35039629}{36910374}
\pgfsyspdfmark {pgfid2846}{29960580}{36674442}
\pgfsyspdfmark {pgfid2847}{29960580}{36674442}
\pgfsyspdfmark {pgfid2848}{30943621}{36674442}
\pgfsyspdfmark {pgfid2849}{32254344}{36674442}
\pgfsyspdfmark {pgfid2850}{33237385}{36674442}
\pgfsyspdfmark {pgfid2851}{34548108}{36674442}
\pgfsyspdfmark {pgfid2852}{35531149}{36674442}
\pgfsyspdfmark {pgfid2853}{35476537}{36877604}
\pgfsyspdfmark {pgfid2855}{35476537}{36877604}
\pgfsyspdfmark {pgfid3070}{5047022}{35953523}
\pgfsyspdfmark {pgfid3071}{5374703}{35403023}
\pgfsyspdfmark {pgfid3072}{5538543}{35403023}
\pgfsyspdfmark {pgfid3073}{6521584}{35403023}
\pgfsyspdfmark {pgfid3074}{7504625}{35403023}
\pgfsyspdfmark {pgfid3075}{8487666}{35403023}
\pgfsyspdfmark {pgfid3076}{9470707}{35403023}
\pgfsyspdfmark {pgfid3077}{5047022}{35167091}
\pgfsyspdfmark {pgfid3078}{5374703}{34616591}
\pgfsyspdfmark {pgfid3079}{5538543}{34616591}
\pgfsyspdfmark {pgfid3080}{6521584}{34616591}
\pgfsyspdfmark {pgfid3081}{7504625}{34616591}
\pgfsyspdfmark {pgfid3082}{8487666}{34616591}
\pgfsyspdfmark {pgfid3083}{9470707}{34616591}
\pgfsyspdfmark {pgfid3084}{5047022}{34380659}
\pgfsyspdfmark {pgfid3085}{5374703}{33830159}
\pgfsyspdfmark {pgfid3086}{5538543}{33830159}
\pgfsyspdfmark {pgfid3087}{6521584}{33830159}
\pgfsyspdfmark {pgfid3088}{7504625}{33830159}
\pgfsyspdfmark {pgfid3089}{8487666}{33830159}
\pgfsyspdfmark {pgfid3090}{9470707}{33830159}
\pgfsyspdfmark {pgfid3091}{5047022}{33594227}
\pgfsyspdfmark {pgfid3092}{5374703}{33043727}
\pgfsyspdfmark {pgfid3093}{5538543}{33043727}
\pgfsyspdfmark {pgfid3094}{6521584}{33043727}
\pgfsyspdfmark {pgfid3095}{7504625}{33043727}
\pgfsyspdfmark {pgfid3096}{8487666}{33043727}
\pgfsyspdfmark {pgfid3097}{9470707}{33043727}
\pgfsyspdfmark {pgfid3098}{5047022}{32807795}
\pgfsyspdfmark {pgfid3099}{5374703}{32257295}
\pgfsyspdfmark {pgfid3100}{5538543}{32257295}
\pgfsyspdfmark {pgfid3101}{6521584}{32257295}
\pgfsyspdfmark {pgfid3102}{7504625}{32257295}
\pgfsyspdfmark {pgfid3103}{8487666}{32257295}
\pgfsyspdfmark {pgfid3104}{9470707}{32257295}
\pgfsyspdfmark {pgfid3105}{5047022}{32021363}
\pgfsyspdfmark {pgfid3106}{5047022}{32021363}
\pgfsyspdfmark {pgfid3107}{6030063}{32021363}
\pgfsyspdfmark {pgfid3108}{7013104}{32021363}
\pgfsyspdfmark {pgfid3109}{7996145}{32021363}
\pgfsyspdfmark {pgfid3110}{8979186}{32021363}
\pgfsyspdfmark {pgfid3111}{9962227}{32021363}
\pgfsyspdfmark {pgfid3112}{10071455}{33797389}
\pgfsyspdfmark {pgfid3114}{10071455}{33797389}
\pgfsyspdfmark {pgfid3115}{12155859}{35953523}
\pgfsyspdfmark {pgfid3116}{12483540}{35403023}
\pgfsyspdfmark {pgfid3117}{12647380}{35403023}
\pgfsyspdfmark {pgfid3118}{13630421}{35403023}
\pgfsyspdfmark {pgfid3119}{14613462}{35403023}
\pgfsyspdfmark {pgfid3120}{15596503}{35403023}
\pgfsyspdfmark {pgfid3121}{12155859}{35167091}
\pgfsyspdfmark {pgfid3122}{12483540}{34616591}
\pgfsyspdfmark {pgfid3123}{12647380}{34616591}
\pgfsyspdfmark {pgfid3124}{13630421}{34616591}
\pgfsyspdfmark {pgfid3125}{14613462}{34616591}
\pgfsyspdfmark {pgfid3126}{15596503}{34616591}
\pgfsyspdfmark {pgfid3127}{12155859}{34380659}
\pgfsyspdfmark {pgfid3128}{12483540}{33830159}
\pgfsyspdfmark {pgfid3129}{12647380}{33830159}
\pgfsyspdfmark {pgfid3130}{13630421}{33830159}
\pgfsyspdfmark {pgfid3131}{14613462}{33830159}
\pgfsyspdfmark {pgfid3132}{15596503}{33830159}
\pgfsyspdfmark {pgfid3133}{12155859}{33594227}
\pgfsyspdfmark {pgfid3134}{12483540}{33043727}
\pgfsyspdfmark {pgfid3135}{12647380}{33043727}
\pgfsyspdfmark {pgfid3136}{13630421}{33043727}
\pgfsyspdfmark {pgfid3137}{14613462}{33043727}
\pgfsyspdfmark {pgfid3138}{15596503}{33043727}
\pgfsyspdfmark {pgfid3139}{12155859}{32807795}
\pgfsyspdfmark {pgfid3140}{12483540}{32257295}
\pgfsyspdfmark {pgfid3141}{12647380}{32257295}
\pgfsyspdfmark {pgfid3142}{13630421}{32257295}
\pgfsyspdfmark {pgfid3143}{14613462}{32257295}
\pgfsyspdfmark {pgfid3144}{15596503}{32257295}
\pgfsyspdfmark {pgfid3145}{12155859}{32021363}
\pgfsyspdfmark {pgfid3146}{12155859}{32021363}
\pgfsyspdfmark {pgfid3147}{13138900}{32021363}
\pgfsyspdfmark {pgfid3148}{14121941}{32021363}
\pgfsyspdfmark {pgfid3149}{15104982}{32021363}
\pgfsyspdfmark {pgfid3150}{16088023}{32021363}
\pgfsyspdfmark {pgfid3151}{16197251}{33797389}
\pgfsyspdfmark {pgfid3153}{16197251}{33797389}
\pgfsyspdfmark {pgfid3154}{18354561}{35560307}
\pgfsyspdfmark {pgfid3155}{18682242}{35009807}
\pgfsyspdfmark {pgfid3156}{18846082}{35009807}
\pgfsyspdfmark {pgfid3157}{20083986}{35009807}
\pgfsyspdfmark {pgfid3158}{21321890}{35009807}
\pgfsyspdfmark {pgfid3159}{22814657}{35009807}
\pgfsyspdfmark {pgfid3160}{24052561}{35009807}
\pgfsyspdfmark {pgfid3161}{18354561}{34773875}
\pgfsyspdfmark {pgfid3162}{18682242}{34223375}
\pgfsyspdfmark {pgfid3163}{18846082}{34223375}
\pgfsyspdfmark {pgfid3164}{20338849}{34223375}
\pgfsyspdfmark {pgfid3165}{21321890}{34223375}
\pgfsyspdfmark {pgfid3166}{22814657}{34223375}
\pgfsyspdfmark {pgfid3167}{24307424}{34223375}
\pgfsyspdfmark {pgfid3168}{18354561}{33987443}
\pgfsyspdfmark {pgfid3169}{18682242}{33436943}
\pgfsyspdfmark {pgfid3170}{18846082}{33436943}
\pgfsyspdfmark {pgfid3171}{20338849}{33436943}
\pgfsyspdfmark {pgfid3172}{21321890}{33436943}
\pgfsyspdfmark {pgfid3173}{22559794}{33436943}
\pgfsyspdfmark {pgfid3174}{24307424}{33436943}
\pgfsyspdfmark {pgfid3175}{18354561}{33201011}
\pgfsyspdfmark {pgfid3176}{18682242}{32650511}
\pgfsyspdfmark {pgfid3177}{18846082}{32650511}
\pgfsyspdfmark {pgfid3178}{20338849}{32650511}
\pgfsyspdfmark {pgfid3179}{21321890}{32650511}
\pgfsyspdfmark {pgfid3180}{22814657}{32650511}
\pgfsyspdfmark {pgfid3181}{24307424}{32650511}
\pgfsyspdfmark {pgfid3182}{18354561}{32414579}
\pgfsyspdfmark {pgfid3183}{18354561}{32414579}
\pgfsyspdfmark {pgfid3184}{19337602}{32414579}
\pgfsyspdfmark {pgfid3185}{20830369}{32414579}
\pgfsyspdfmark {pgfid3186}{21813410}{32414579}
\pgfsyspdfmark {pgfid3187}{23306177}{32414579}
\pgfsyspdfmark {pgfid3188}{24798944}{32414579}
\pgfsyspdfmark {pgfid3189}{24908172}{33797389}
\pgfsyspdfmark {pgfid3191}{24908172}{33797389}
\pgfsyspdfmark {pgfid3192}{26837844}{35953523}
\pgfsyspdfmark {pgfid3193}{27165525}{35403023}
\pgfsyspdfmark {pgfid3194}{27329365}{35403023}
\pgfsyspdfmark {pgfid3195}{28312406}{35403023}
\pgfsyspdfmark {pgfid3196}{29295447}{35403023}
\pgfsyspdfmark {pgfid3197}{30278488}{35403023}
\pgfsyspdfmark {pgfid3198}{31615425}{35403023}
\pgfsyspdfmark {pgfid3199}{26837844}{35167091}
\pgfsyspdfmark {pgfid3200}{27165525}{34616591}
\pgfsyspdfmark {pgfid3201}{27329365}{34616591}
\pgfsyspdfmark {pgfid3202}{28312406}{34616591}
\pgfsyspdfmark {pgfid3203}{29295447}{34616591}
\pgfsyspdfmark {pgfid3204}{30278488}{34616591}
\pgfsyspdfmark {pgfid3205}{31451584}{34616591}
\pgfsyspdfmark {pgfid3206}{26837844}{34380659}
\pgfsyspdfmark {pgfid3207}{27165525}{33830159}
\pgfsyspdfmark {pgfid3208}{27329365}{33830159}
\pgfsyspdfmark {pgfid3209}{28312406}{33830159}
\pgfsyspdfmark {pgfid3210}{29295447}{33830159}
\pgfsyspdfmark {pgfid3211}{30278488}{33830159}
\pgfsyspdfmark {pgfid3212}{31451584}{33830159}
\pgfsyspdfmark {pgfid3213}{26837844}{33594227}
\pgfsyspdfmark {pgfid3214}{27165525}{33043727}
\pgfsyspdfmark {pgfid3215}{27329365}{33043727}
\pgfsyspdfmark {pgfid3216}{28312406}{33043727}
\pgfsyspdfmark {pgfid3217}{29295447}{33043727}
\pgfsyspdfmark {pgfid3218}{30278488}{33043727}
\pgfsyspdfmark {pgfid3219}{31615425}{33043727}
\pgfsyspdfmark {pgfid3220}{26837844}{32807795}
\pgfsyspdfmark {pgfid3221}{27165525}{32257295}
\pgfsyspdfmark {pgfid3222}{27329365}{32257295}
\pgfsyspdfmark {pgfid3223}{28312406}{32257295}
\pgfsyspdfmark {pgfid3224}{29295447}{32257295}
\pgfsyspdfmark {pgfid3225}{30278488}{32257295}
\pgfsyspdfmark {pgfid3226}{31615425}{32257295}
\pgfsyspdfmark {pgfid3227}{26837844}{32021363}
\pgfsyspdfmark {pgfid3228}{26837844}{32021363}
\pgfsyspdfmark {pgfid3229}{27820885}{32021363}
\pgfsyspdfmark {pgfid3230}{28803926}{32021363}
\pgfsyspdfmark {pgfid3231}{29786967}{32021363}
\pgfsyspdfmark {pgfid3232}{30796222}{32021363}
\pgfsyspdfmark {pgfid3233}{32106945}{32021363}
\pgfsyspdfmark {pgfid3234}{32216173}{33797389}
\pgfsyspdfmark {pgfid3236}{32216173}{33797389}
\pgfsyspdfmark {pgfid3237}{32216173}{33797389}
\pgfsyspdfmark {pgfid3238}{33199207}{35953523}
\pgfsyspdfmark {pgfid3239}{33526888}{35403023}
\pgfsyspdfmark {pgfid3240}{33690728}{35403023}
\pgfsyspdfmark {pgfid3241}{34673769}{35403023}
\pgfsyspdfmark {pgfid3242}{35656810}{35403023}
\pgfsyspdfmark {pgfid3243}{36639851}{35403023}
\pgfsyspdfmark {pgfid3244}{38158832}{35403023}
\pgfsyspdfmark {pgfid3245}{33199207}{35167091}
\pgfsyspdfmark {pgfid3246}{33526888}{34616591}
\pgfsyspdfmark {pgfid3247}{33690728}{34616591}
\pgfsyspdfmark {pgfid3248}{34673769}{34616591}
\pgfsyspdfmark {pgfid3249}{35656810}{34616591}
\pgfsyspdfmark {pgfid3250}{36639851}{34616591}
\pgfsyspdfmark {pgfid3251}{38158832}{34616591}
\pgfsyspdfmark {pgfid3252}{33199207}{34380659}
\pgfsyspdfmark {pgfid3253}{33526888}{33830159}
\pgfsyspdfmark {pgfid3254}{33690728}{33830159}
\pgfsyspdfmark {pgfid3255}{34673769}{33830159}
\pgfsyspdfmark {pgfid3256}{35656810}{33830159}
\pgfsyspdfmark {pgfid3257}{36639851}{33830159}
\pgfsyspdfmark {pgfid3258}{37903969}{33830159}
\pgfsyspdfmark {pgfid3259}{33199207}{33594227}
\pgfsyspdfmark {pgfid3260}{33526888}{33043727}
\pgfsyspdfmark {pgfid3261}{33690728}{33043727}
\pgfsyspdfmark {pgfid3262}{34673769}{33043727}
\pgfsyspdfmark {pgfid3263}{35656810}{33043727}
\pgfsyspdfmark {pgfid3264}{36639851}{33043727}
\pgfsyspdfmark {pgfid3265}{38158832}{33043727}
\pgfsyspdfmark {pgfid3266}{33199207}{32807795}
\pgfsyspdfmark {pgfid3267}{33526888}{32257295}
\pgfsyspdfmark {pgfid3268}{33690728}{32257295}
\pgfsyspdfmark {pgfid3269}{34673769}{32257295}
\pgfsyspdfmark {pgfid3270}{35656810}{32257295}
\pgfsyspdfmark {pgfid3271}{36639851}{32257295}
\pgfsyspdfmark {pgfid3272}{38158832}{32257295}
\pgfsyspdfmark {pgfid3273}{33199207}{32021363}
\pgfsyspdfmark {pgfid3274}{33199207}{32021363}
\pgfsyspdfmark {pgfid3275}{34182248}{32021363}
\pgfsyspdfmark {pgfid3276}{35165289}{32021363}
\pgfsyspdfmark {pgfid3277}{36148330}{32021363}
\pgfsyspdfmark {pgfid3278}{37157585}{32021363}
\pgfsyspdfmark {pgfid3279}{38650352}{32021363}
\pgfsyspdfmark {pgfid3280}{38759580}{33797389}
\pgfsyspdfmark {pgfid3282}{38759580}{33797389}
\pgfsyspdfmark {pgfid3283}{38759580}{33797389}
\gdef\exam@lastpage{4}
\gdef\exam@lastcoverpage{1}
\gdef\exam@totalpages{5}
\gdef\exam@numpoints{100}
\gdef\exam@numbonuspoints{0}
\gdef\exam@numquestions{5}
\gdef\exam@numparts{14}
\gdef\exam@numsubparts{0}
\gdef\exam@numsubsubparts{0}
\gdef\pointsonpage@iv{20}
\gdef\lastpage@withpoints{4}
\gdef\lastpage@withbonuspoints{0}
\gdef \@abspage@last{5}
