\relax 
\nicematrix@redefine@check@rerun 
\ExplSyntaxOn \cs_if_free:NT \pgfsyspdfmark {\cs_set_eq:NN \pgfsyspdfmark \@gobblethree }\ExplSyntaxOff 
\ExplSyntaxOn 
\char_set_catcode_space:n {32}
\tl_gset:cn {c__nicematrix_1_tl}{\seq_gset_from_clist:Nn \g__nicematrix_size_seq {1,5,5,1,3,3}}
\ExplSyntaxOff 
\ExplSyntaxOn 
\char_set_catcode_space:n {32}
\tl_gset:cn {c__nicematrix_2_tl}{\seq_gset_from_clist:Nn \g__nicematrix_size_seq {1,3,3,1,3,3}}
\ExplSyntaxOff 
\ExplSyntaxOn 
\char_set_catcode_space:n {32}
\tl_gset:cn {c__nicematrix_3_tl}{\seq_gset_from_clist:Nn \g__nicematrix_size_seq {1,5,5,1,3,3}}
\ExplSyntaxOff 
\ExplSyntaxOn 
\char_set_catcode_space:n {32}
\tl_gset:cn {c__nicematrix_4_tl}{\seq_gset_from_clist:Nn \g__nicematrix_size_seq {1,3,3,1,3,3}}
\ExplSyntaxOff 
\ExplSyntaxOn 
\char_set_catcode_space:n {32}
\tl_gset:cn {c__nicematrix_5_tl}{\seq_gset_from_clist:Nn \g__nicematrix_size_seq {1,1,1,1,5,5}}
\ExplSyntaxOff 
\ExplSyntaxOn 
\char_set_catcode_space:n {32}
\tl_gset:cn {c__nicematrix_6_tl}{\seq_gset_from_clist:Nn \g__nicematrix_size_seq {1,3,3,1,3,3}}
\ExplSyntaxOff 
\ExplSyntaxOn 
\char_set_catcode_space:n {32}
\tl_gset:cn {c__nicematrix_7_tl}{\seq_gset_from_clist:Nn \g__nicematrix_size_seq {1,3,3,1,3,3}}
\ExplSyntaxOff 
\ExplSyntaxOn 
\char_set_catcode_space:n {32}
\tl_gset:cn {c__nicematrix_8_tl}{\seq_gset_from_clist:Nn \g__nicematrix_size_seq {1,3,3,1,3,3}}
\ExplSyntaxOff 
\ExplSyntaxOn 
\char_set_catcode_space:n {32}
\tl_gset:cn {c__nicematrix_9_tl}{\seq_gset_from_clist:Nn \g__nicematrix_size_seq {1,3,3,1,5,5}}
\ExplSyntaxOff 
\ExplSyntaxOn 
\char_set_catcode_space:n {32}
\tl_gset:cn {c__nicematrix_10_tl}{\seq_gset_from_clist:Nn \g__nicematrix_size_seq {1,3,3,1,5,5}}
\ExplSyntaxOff 
\ExplSyntaxOn 
\char_set_catcode_space:n {32}
\tl_gset:cn {c__nicematrix_11_tl}{\seq_gset_from_clist:Nn \g__nicematrix_size_seq {1,3,3,1,5,5}}
\ExplSyntaxOff 
\ExplSyntaxOn 
\char_set_catcode_space:n {32}
\tl_gset:cn {c__nicematrix_12_tl}{\seq_gset_from_clist:Nn \g__nicematrix_size_seq {1,5,5,1,1,1}}
\ExplSyntaxOff 
\ExplSyntaxOn 
\char_set_catcode_space:n {32}
\tl_gset:cn {c__nicematrix_13_tl}{\seq_gset_from_clist:Nn \g__nicematrix_size_seq {1,5,5,1,1,1}}
\ExplSyntaxOff 
\ExplSyntaxOn 
\char_set_catcode_space:n {32}
\tl_gset:cn {c__nicematrix_14_tl}{\seq_gset_from_clist:Nn \g__nicematrix_size_seq {1,5,5,1,1,1}}
\ExplSyntaxOff 
\ExplSyntaxOn 
\char_set_catcode_space:n {32}
\tl_gset:cn {c__nicematrix_15_tl}{\seq_gset_from_clist:Nn \g__nicematrix_size_seq {1,3,3,1,3,3}}
\ExplSyntaxOff 
\ExplSyntaxOn 
\char_set_catcode_space:n {32}
\tl_gset:cn {c__nicematrix_16_tl}{\seq_gset_from_clist:Nn \g__nicematrix_size_seq {1,3,3,1,5,5}}
\ExplSyntaxOff 
\ExplSyntaxOn 
\char_set_catcode_space:n {32}
\tl_gset:cn {c__nicematrix_17_tl}{\seq_gset_from_clist:Nn \g__nicematrix_size_seq {1,5,5,1,1,1}}
\ExplSyntaxOff 
\ExplSyntaxOn 
\char_set_catcode_space:n {32}
\tl_gset:cn {c__nicematrix_18_tl}{\seq_gset_from_clist:Nn \g__nicematrix_size_seq {1,3,3,1,3,3}}
\ExplSyntaxOff 
\ExplSyntaxOn 
\char_set_catcode_space:n {32}
\tl_gset:cn {c__nicematrix_19_tl}{\seq_gset_from_clist:Nn \g__nicematrix_size_seq {1,3,3,1,1,1}}
\ExplSyntaxOff 
\ExplSyntaxOn 
\char_set_catcode_space:n {32}
\tl_gset:cn {c__nicematrix_20_tl}{\seq_gset_from_clist:Nn \g__nicematrix_size_seq {1,3,3,1,1,1}}
\ExplSyntaxOff 
\ExplSyntaxOn 
\char_set_catcode_space:n {32}
\tl_gset:cn {c__nicematrix_21_tl}{\seq_gset_from_clist:Nn \g__nicematrix_size_seq {1,3,3,1,3,3}}
\ExplSyntaxOff 
\ExplSyntaxOn 
\char_set_catcode_space:n {32}
\tl_gset:cn {c__nicematrix_22_tl}{\seq_gset_from_clist:Nn \g__nicematrix_size_seq {1,3,3,1,3,3}}
\ExplSyntaxOff 
\ExplSyntaxOn 
\char_set_catcode_space:n {32}
\tl_gset:cn {c__nicematrix_23_tl}{\seq_gset_from_clist:Nn \g__nicematrix_size_seq {1,3,3,1,3,3}}
\ExplSyntaxOff 
\ExplSyntaxOn 
\char_set_catcode_space:n {32}
\tl_gset:cn {c__nicematrix_24_tl}{\seq_gset_from_clist:Nn \g__nicematrix_size_seq {1,3,3,1,5,5}}
\ExplSyntaxOff 
\ExplSyntaxOn 
\char_set_catcode_space:n {32}
\tl_gset:cn {c__nicematrix_25_tl}{\seq_gset_from_clist:Nn \g__nicematrix_size_seq {1,3,3,1,5,5}}
\ExplSyntaxOff 
\ExplSyntaxOn 
\char_set_catcode_space:n {32}
\tl_gset:cn {c__nicematrix_26_tl}{\seq_gset_from_clist:Nn \g__nicematrix_size_seq {1,3,3,1,5,5}}
\ExplSyntaxOff 
\ExplSyntaxOn 
\char_set_catcode_space:n {32}
\tl_gset:cn {c__nicematrix_27_tl}{\seq_gset_from_clist:Nn \g__nicematrix_size_seq {1,5,5,1,1,1}}
\ExplSyntaxOff 
\ExplSyntaxOn 
\char_set_catcode_space:n {32}
\tl_gset:cn {c__nicematrix_28_tl}{\seq_gset_from_clist:Nn \g__nicematrix_size_seq {1,5,5,1,1,1}}
\ExplSyntaxOff 
\ExplSyntaxOn 
\char_set_catcode_space:n {32}
\tl_gset:cn {c__nicematrix_29_tl}{\seq_gset_from_clist:Nn \g__nicematrix_size_seq {1,5,5,1,1,1}}
\ExplSyntaxOff 
\ExplSyntaxOn 
\char_set_catcode_space:n {32}
\tl_gset:cn {c__nicematrix_30_tl}{\seq_gset_from_clist:Nn \g__nicematrix_size_seq {1,3,3,1,3,3}}
\ExplSyntaxOff 
\ExplSyntaxOn 
\char_set_catcode_space:n {32}
\tl_gset:cn {c__nicematrix_31_tl}{\seq_gset_from_clist:Nn \g__nicematrix_size_seq {1,3,3,1,5,5}}
\ExplSyntaxOff 
\ExplSyntaxOn 
\char_set_catcode_space:n {32}
\tl_gset:cn {c__nicematrix_32_tl}{\seq_gset_from_clist:Nn \g__nicematrix_size_seq {1,5,5,1,1,1}}
\ExplSyntaxOff 
\ExplSyntaxOn 
\char_set_catcode_space:n {32}
\tl_gset:cn {c__nicematrix_33_tl}{\seq_gset_from_clist:Nn \g__nicematrix_size_seq {1,3,3,1,3,3}}
\ExplSyntaxOff 
\ExplSyntaxOn 
\char_set_catcode_space:n {32}
\tl_gset:cn {c__nicematrix_34_tl}{\seq_gset_from_clist:Nn \g__nicematrix_size_seq {1,3,3,1,1,1}}
\ExplSyntaxOff 
\ExplSyntaxOn 
\char_set_catcode_space:n {32}
\tl_gset:cn {c__nicematrix_35_tl}{\seq_gset_from_clist:Nn \g__nicematrix_size_seq {1,3,3,1,1,1}}
\ExplSyntaxOff 
\PgInfo{question@1}{1}
\PgInfo{question1@object1}{1}
\newlabel{question@1}{{\textbf  {Problem 1}}{1}{}{}{}}
\pgfsyspdfmark {pgfid58}{8037101}{47467086}
\pgfsyspdfmark {pgfid59}{8874508}{46916586}
\pgfsyspdfmark {pgfid60}{9038348}{46916586}
\pgfsyspdfmark {pgfid61}{10276252}{46916586}
\pgfsyspdfmark {pgfid62}{12023882}{46916586}
\pgfsyspdfmark {pgfid63}{8037101}{46680654}
\pgfsyspdfmark {pgfid64}{8364782}{46130154}
\pgfsyspdfmark {pgfid65}{8783485}{46130154}
\pgfsyspdfmark {pgfid66}{10276252}{46130154}
\pgfsyspdfmark {pgfid67}{11769019}{46130154}
\pgfsyspdfmark {pgfid68}{8037101}{45894222}
\pgfsyspdfmark {pgfid69}{8364782}{45343722}
\pgfsyspdfmark {pgfid70}{8783485}{45343722}
\pgfsyspdfmark {pgfid71}{10531115}{45343722}
\pgfsyspdfmark {pgfid72}{12023882}{45343722}
\pgfsyspdfmark {pgfid73}{8037101}{45107790}
\pgfsyspdfmark {pgfid74}{8874508}{44557290}
\pgfsyspdfmark {pgfid75}{9038348}{44557290}
\pgfsyspdfmark {pgfid76}{10276252}{44557290}
\pgfsyspdfmark {pgfid77}{11769019}{44557290}
\pgfsyspdfmark {pgfid78}{8037101}{44321358}
\pgfsyspdfmark {pgfid79}{8874508}{43770858}
\pgfsyspdfmark {pgfid80}{9038348}{43770858}
\pgfsyspdfmark {pgfid81}{10276252}{43770858}
\pgfsyspdfmark {pgfid82}{12023882}{43770858}
\pgfsyspdfmark {pgfid83}{8037101}{43534926}
\pgfsyspdfmark {pgfid84}{8037101}{43534926}
\pgfsyspdfmark {pgfid85}{9529868}{43534926}
\pgfsyspdfmark {pgfid86}{11022635}{43534926}
\pgfsyspdfmark {pgfid87}{12515402}{43534926}
\pgfsyspdfmark {pgfid88}{12624630}{45310952}
\pgfsyspdfmark {pgfid90}{12624630}{45310952}
\pgfsyspdfmark {pgfid91}{18010869}{46680654}
\pgfsyspdfmark {pgfid92}{18338550}{46130154}
\pgfsyspdfmark {pgfid93}{18921094}{46130154}
\pgfsyspdfmark {pgfid94}{20741543}{46130154}
\pgfsyspdfmark {pgfid95}{22816855}{46130154}
\pgfsyspdfmark {pgfid96}{18010869}{45894222}
\pgfsyspdfmark {pgfid97}{19175958}{45343722}
\pgfsyspdfmark {pgfid98}{19339798}{45343722}
\pgfsyspdfmark {pgfid99}{20996406}{45343722}
\pgfsyspdfmark {pgfid100}{22561992}{45343722}
\pgfsyspdfmark {pgfid101}{18010869}{45107790}
\pgfsyspdfmark {pgfid102}{19175958}{44557290}
\pgfsyspdfmark {pgfid103}{19339798}{44557290}
\pgfsyspdfmark {pgfid104}{21160247}{44557290}
\pgfsyspdfmark {pgfid105}{22561992}{44557290}
\pgfsyspdfmark {pgfid106}{18010869}{44321358}
\pgfsyspdfmark {pgfid107}{18010869}{44321358}
\pgfsyspdfmark {pgfid108}{19831318}{44321358}
\pgfsyspdfmark {pgfid109}{21651767}{44321358}
\pgfsyspdfmark {pgfid110}{23472216}{44321358}
\pgfsyspdfmark {pgfid111}{23581444}{45310952}
\pgfsyspdfmark {pgfid113}{23581444}{45310952}
\PgInfo{part@1@1}{1}
\PgInfo{question1@object2}{1}
\newlabel{part@1@1}{{a}{1}{}{}{}}
\newlabel{firstpoints@onpage@1}{{a}{1}{}{}{}}
\PgInfo{part@1@2}{1}
\PgInfo{question1@object3}{1}
\newlabel{part@1@2}{{b}{1}{}{}{}}
\PgInfo{part@1@3}{1}
\PgInfo{question1@object4}{1}
\newlabel{part@1@3}{{c}{1}{}{}{}}
\PgInfo{question1@object5}{1}
\PgInfo{question1@object6}{1}
\PgInfo{question1@object7}{1}
\PgInfo{question1@object8}{1}
\PgInfo{question1@object9}{1}
\PgInfo{part@1@4}{1}
\PgInfo{question1@object10}{1}
\newlabel{part@1@4}{{d}{1}{}{}{}}
\pgfsyspdfmark {pgfid114}{7297884}{28985904}
\pgfsyspdfmark {pgfid115}{7625565}{28435404}
\pgfsyspdfmark {pgfid116}{7789405}{28435404}
\pgfsyspdfmark {pgfid117}{8772446}{28435404}
\pgfsyspdfmark {pgfid118}{10083168}{28435404}
\pgfsyspdfmark {pgfid119}{11393890}{28435404}
\pgfsyspdfmark {pgfid120}{12376931}{28435404}
\pgfsyspdfmark {pgfid121}{7297884}{28199472}
\pgfsyspdfmark {pgfid122}{7297884}{28199472}
\pgfsyspdfmark {pgfid123}{8280925}{28199472}
\pgfsyspdfmark {pgfid124}{9263966}{28199472}
\pgfsyspdfmark {pgfid125}{10902369}{28199472}
\pgfsyspdfmark {pgfid126}{11885410}{28199472}
\pgfsyspdfmark {pgfid127}{12868451}{28199472}
\pgfsyspdfmark {pgfid128}{12813839}{28402634}
\pgfsyspdfmark {pgfid130}{12813839}{28402634}
\pgfsyspdfmark {pgfid536}{14301274}{22150118}
\pgfsyspdfmark {pgfid537}{14628955}{21599618}
\pgfsyspdfmark {pgfid538}{15211499}{21599618}
\pgfsyspdfmark {pgfid539}{17031948}{21599618}
\pgfsyspdfmark {pgfid540}{19107260}{21599618}
\pgfsyspdfmark {pgfid541}{14301274}{21363686}
\pgfsyspdfmark {pgfid542}{15466363}{20813186}
\pgfsyspdfmark {pgfid543}{15630203}{20813186}
\pgfsyspdfmark {pgfid544}{17286811}{20813186}
\pgfsyspdfmark {pgfid545}{18852397}{20813186}
\pgfsyspdfmark {pgfid546}{14301274}{20577254}
\pgfsyspdfmark {pgfid547}{15466363}{20026754}
\pgfsyspdfmark {pgfid548}{15630203}{20026754}
\pgfsyspdfmark {pgfid549}{17450652}{20026754}
\pgfsyspdfmark {pgfid550}{18852397}{20026754}
\pgfsyspdfmark {pgfid551}{14301274}{19790822}
\pgfsyspdfmark {pgfid552}{14301274}{19790822}
\pgfsyspdfmark {pgfid553}{16121723}{19790822}
\pgfsyspdfmark {pgfid554}{17942172}{19790822}
\pgfsyspdfmark {pgfid555}{19762621}{19790822}
\pgfsyspdfmark {pgfid556}{19871849}{20780416}
\pgfsyspdfmark {pgfid558}{19871849}{20780416}
\pgfsyspdfmark {pgfid621}{20466044}{22150118}
\pgfsyspdfmark {pgfid622}{21303451}{21599618}
\pgfsyspdfmark {pgfid623}{21467291}{21599618}
\pgfsyspdfmark {pgfid624}{22705195}{21599618}
\pgfsyspdfmark {pgfid625}{24197962}{21599618}
\pgfsyspdfmark {pgfid626}{25945592}{21599618}
\pgfsyspdfmark {pgfid627}{27438359}{21599618}
\pgfsyspdfmark {pgfid628}{20466044}{21363686}
\pgfsyspdfmark {pgfid629}{20793725}{20813186}
\pgfsyspdfmark {pgfid630}{21212428}{20813186}
\pgfsyspdfmark {pgfid631}{22705195}{20813186}
\pgfsyspdfmark {pgfid632}{24452825}{20813186}
\pgfsyspdfmark {pgfid633}{25690729}{20813186}
\pgfsyspdfmark {pgfid634}{27183496}{20813186}
\pgfsyspdfmark {pgfid635}{20466044}{20577254}
\pgfsyspdfmark {pgfid636}{21303451}{20026754}
\pgfsyspdfmark {pgfid637}{21467291}{20026754}
\pgfsyspdfmark {pgfid638}{22705195}{20026754}
\pgfsyspdfmark {pgfid639}{24452825}{20026754}
\pgfsyspdfmark {pgfid640}{25690729}{20026754}
\pgfsyspdfmark {pgfid641}{27438359}{20026754}
\pgfsyspdfmark {pgfid642}{20466044}{19790822}
\pgfsyspdfmark {pgfid643}{20466044}{19790822}
\pgfsyspdfmark {pgfid644}{21958811}{19790822}
\pgfsyspdfmark {pgfid645}{23451578}{19790822}
\pgfsyspdfmark {pgfid646}{24944345}{19790822}
\pgfsyspdfmark {pgfid647}{26437112}{19790822}
\pgfsyspdfmark {pgfid648}{27929879}{19790822}
\pgfsyspdfmark {pgfid649}{28039107}{20780416}
\pgfsyspdfmark {pgfid651}{28039107}{20780416}
\pgfsyspdfmark {pgfid696}{28148335}{22936550}
\pgfsyspdfmark {pgfid697}{29131378}{22386050}
\pgfsyspdfmark {pgfid698}{29295218}{22386050}
\pgfsyspdfmark {pgfid699}{28148335}{22150118}
\pgfsyspdfmark {pgfid700}{29131378}{21599618}
\pgfsyspdfmark {pgfid701}{29295218}{21599618}
\pgfsyspdfmark {pgfid702}{28148335}{21363686}
\pgfsyspdfmark {pgfid703}{28476016}{20813186}
\pgfsyspdfmark {pgfid704}{28967537}{20813186}
\pgfsyspdfmark {pgfid705}{28148335}{20577254}
\pgfsyspdfmark {pgfid706}{29131378}{20026754}
\pgfsyspdfmark {pgfid707}{29295218}{20026754}
\pgfsyspdfmark {pgfid708}{28148335}{19790822}
\pgfsyspdfmark {pgfid709}{29131378}{19240322}
\pgfsyspdfmark {pgfid710}{29295218}{19240322}
\pgfsyspdfmark {pgfid711}{28148335}{19004390}
\pgfsyspdfmark {pgfid712}{28148335}{19004390}
\pgfsyspdfmark {pgfid713}{29786738}{19004390}
\pgfsyspdfmark {pgfid714}{29786738}{19004390}
\pgfsyspdfmark {pgfid715}{29895966}{20780416}
\pgfsyspdfmark {pgfid717}{29895966}{20780416}
\pgfsyspdfmark {pgfid718}{13160945}{17955776}
\pgfsyspdfmark {pgfid719}{13488626}{17405276}
\pgfsyspdfmark {pgfid720}{14071170}{17405276}
\pgfsyspdfmark {pgfid721}{15891619}{17405276}
\pgfsyspdfmark {pgfid722}{17966931}{17405276}
\pgfsyspdfmark {pgfid723}{13160945}{17169344}
\pgfsyspdfmark {pgfid724}{14326034}{16618844}
\pgfsyspdfmark {pgfid725}{14489874}{16618844}
\pgfsyspdfmark {pgfid726}{16146482}{16618844}
\pgfsyspdfmark {pgfid727}{17712068}{16618844}
\pgfsyspdfmark {pgfid728}{13160945}{16382912}
\pgfsyspdfmark {pgfid729}{14326034}{15832412}
\pgfsyspdfmark {pgfid730}{14489874}{15832412}
\pgfsyspdfmark {pgfid731}{16310323}{15832412}
\pgfsyspdfmark {pgfid732}{17712068}{15832412}
\pgfsyspdfmark {pgfid733}{13160945}{15596480}
\pgfsyspdfmark {pgfid734}{13160945}{15596480}
\pgfsyspdfmark {pgfid735}{14981394}{15596480}
\pgfsyspdfmark {pgfid736}{16801843}{15596480}
\pgfsyspdfmark {pgfid737}{18622292}{15596480}
\pgfsyspdfmark {pgfid738}{18731520}{16586074}
\pgfsyspdfmark {pgfid740}{18731520}{16586074}
\pgfsyspdfmark {pgfid741}{18840748}{17955776}
\pgfsyspdfmark {pgfid742}{19678155}{17405276}
\pgfsyspdfmark {pgfid743}{19841995}{17405276}
\pgfsyspdfmark {pgfid744}{21079899}{17405276}
\pgfsyspdfmark {pgfid745}{22572666}{17405276}
\pgfsyspdfmark {pgfid746}{24320296}{17405276}
\pgfsyspdfmark {pgfid747}{25813063}{17405276}
\pgfsyspdfmark {pgfid748}{18840748}{17169344}
\pgfsyspdfmark {pgfid749}{19168429}{16618844}
\pgfsyspdfmark {pgfid750}{19587132}{16618844}
\pgfsyspdfmark {pgfid751}{21079899}{16618844}
\pgfsyspdfmark {pgfid752}{22827529}{16618844}
\pgfsyspdfmark {pgfid753}{24065433}{16618844}
\pgfsyspdfmark {pgfid754}{25558200}{16618844}
\pgfsyspdfmark {pgfid755}{18840748}{16382912}
\pgfsyspdfmark {pgfid756}{19678155}{15832412}
\pgfsyspdfmark {pgfid757}{19841995}{15832412}
\pgfsyspdfmark {pgfid758}{21079899}{15832412}
\pgfsyspdfmark {pgfid759}{22827529}{15832412}
\pgfsyspdfmark {pgfid760}{24065433}{15832412}
\pgfsyspdfmark {pgfid761}{25813063}{15832412}
\pgfsyspdfmark {pgfid762}{18840748}{15596480}
\pgfsyspdfmark {pgfid763}{18840748}{15596480}
\pgfsyspdfmark {pgfid764}{20333515}{15596480}
\pgfsyspdfmark {pgfid765}{21826282}{15596480}
\pgfsyspdfmark {pgfid766}{23319049}{15596480}
\pgfsyspdfmark {pgfid767}{24811816}{15596480}
\pgfsyspdfmark {pgfid768}{26304583}{15596480}
\pgfsyspdfmark {pgfid769}{26413811}{16586074}
\pgfsyspdfmark {pgfid771}{26413811}{16586074}
\pgfsyspdfmark {pgfid772}{26523039}{18742208}
\pgfsyspdfmark {pgfid773}{26850720}{18191708}
\pgfsyspdfmark {pgfid774}{27014560}{18191708}
\pgfsyspdfmark {pgfid775}{26523039}{17955776}
\pgfsyspdfmark {pgfid776}{26850720}{17405276}
\pgfsyspdfmark {pgfid777}{27014560}{17405276}
\pgfsyspdfmark {pgfid778}{26523039}{17169344}
\pgfsyspdfmark {pgfid779}{26850720}{16618844}
\pgfsyspdfmark {pgfid780}{27014560}{16618844}
\pgfsyspdfmark {pgfid781}{26523039}{16382912}
\pgfsyspdfmark {pgfid782}{26850720}{15832412}
\pgfsyspdfmark {pgfid783}{27014560}{15832412}
\pgfsyspdfmark {pgfid784}{26523039}{15596480}
\pgfsyspdfmark {pgfid785}{26850720}{15045980}
\pgfsyspdfmark {pgfid786}{27014560}{15045980}
\pgfsyspdfmark {pgfid787}{26523039}{14810048}
\pgfsyspdfmark {pgfid788}{26523039}{14810048}
\pgfsyspdfmark {pgfid789}{27506080}{14810048}
\pgfsyspdfmark {pgfid790}{27506080}{14810048}
\pgfsyspdfmark {pgfid791}{27615308}{16586074}
\pgfsyspdfmark {pgfid793}{27615308}{16586074}
\pgfsyspdfmark {pgfid794}{13160945}{14547874}
\pgfsyspdfmark {pgfid795}{13488626}{13997374}
\pgfsyspdfmark {pgfid796}{14071170}{13997374}
\pgfsyspdfmark {pgfid797}{15891619}{13997374}
\pgfsyspdfmark {pgfid798}{17966931}{13997374}
\pgfsyspdfmark {pgfid799}{13160945}{13761442}
\pgfsyspdfmark {pgfid800}{14326034}{13210942}
\pgfsyspdfmark {pgfid801}{14489874}{13210942}
\pgfsyspdfmark {pgfid802}{16146482}{13210942}
\pgfsyspdfmark {pgfid803}{17712068}{13210942}
\pgfsyspdfmark {pgfid804}{13160945}{12975010}
\pgfsyspdfmark {pgfid805}{14326034}{12424510}
\pgfsyspdfmark {pgfid806}{14489874}{12424510}
\pgfsyspdfmark {pgfid807}{16310323}{12424510}
\pgfsyspdfmark {pgfid808}{17712068}{12424510}
\pgfsyspdfmark {pgfid809}{13160945}{12188578}
\pgfsyspdfmark {pgfid810}{13160945}{12188578}
\pgfsyspdfmark {pgfid811}{14981394}{12188578}
\pgfsyspdfmark {pgfid812}{16801843}{12188578}
\pgfsyspdfmark {pgfid813}{18622292}{12188578}
\pgfsyspdfmark {pgfid814}{18731520}{13178172}
\pgfsyspdfmark {pgfid816}{18731520}{13178172}
\pgfsyspdfmark {pgfid817}{18840748}{14547874}
\pgfsyspdfmark {pgfid818}{19168429}{13997374}
\pgfsyspdfmark {pgfid819}{19587132}{13997374}
\pgfsyspdfmark {pgfid820}{18840748}{13761442}
\pgfsyspdfmark {pgfid821}{19678155}{13210942}
\pgfsyspdfmark {pgfid822}{19841995}{13210942}
\pgfsyspdfmark {pgfid823}{18840748}{12975010}
\pgfsyspdfmark {pgfid824}{19678155}{12424510}
\pgfsyspdfmark {pgfid825}{19841995}{12424510}
\pgfsyspdfmark {pgfid826}{18840748}{12188578}
\pgfsyspdfmark {pgfid827}{18840748}{12188578}
\pgfsyspdfmark {pgfid828}{20333515}{12188578}
\pgfsyspdfmark {pgfid829}{20333515}{12188578}
\pgfsyspdfmark {pgfid830}{20442743}{13178172}
\pgfsyspdfmark {pgfid832}{20442743}{13178172}
\pgfsyspdfmark {pgfid833}{13160945}{11926412}
\pgfsyspdfmark {pgfid834}{13998352}{11375912}
\pgfsyspdfmark {pgfid835}{14326033}{11375912}
\pgfsyspdfmark {pgfid836}{13160945}{11139980}
\pgfsyspdfmark {pgfid837}{13488626}{10589480}
\pgfsyspdfmark {pgfid838}{14071170}{10589480}
\pgfsyspdfmark {pgfid839}{13160945}{10353548}
\pgfsyspdfmark {pgfid840}{13488626}{9803048}
\pgfsyspdfmark {pgfid841}{14071170}{9803048}
\pgfsyspdfmark {pgfid842}{13160945}{9567116}
\pgfsyspdfmark {pgfid843}{13160945}{9567116}
\pgfsyspdfmark {pgfid844}{14981394}{9567116}
\pgfsyspdfmark {pgfid845}{14981394}{9567116}
\pgfsyspdfmark {pgfid846}{15090622}{10556710}
\pgfsyspdfmark {pgfid848}{15090622}{10556710}
\gdef\pointsofq@i{27}
\gdef\bonuspointsofq@i{0}
\gdef\pointsonpage@i{27}
\ExplSyntaxOn 
\char_set_catcode_space:n {32}
\tl_gset:cn {c__nicematrix_36_tl}{\seq_gset_from_clist:Nn \g__nicematrix_size_seq {1,2,2,1,2,2}}
\ExplSyntaxOff 
\ExplSyntaxOn 
\char_set_catcode_space:n {32}
\tl_gset:cn {c__nicematrix_37_tl}{\seq_gset_from_clist:Nn \g__nicematrix_size_seq {1,2,2,1,1,1}}
\ExplSyntaxOff 
\ExplSyntaxOn 
\char_set_catcode_space:n {32}
\tl_gset:cn {c__nicematrix_38_tl}{\seq_gset_from_clist:Nn \g__nicematrix_size_seq {1,2,2,1,2,2}}
\ExplSyntaxOff 
\ExplSyntaxOn 
\char_set_catcode_space:n {32}
\tl_gset:cn {c__nicematrix_39_tl}{\seq_gset_from_clist:Nn \g__nicematrix_size_seq {1,2,2,1,1,1}}
\ExplSyntaxOff 
\ExplSyntaxOn 
\char_set_catcode_space:n {32}
\tl_gset:cn {c__nicematrix_40_tl}{\seq_gset_from_clist:Nn \g__nicematrix_size_seq {1,2,2,1,2,2}}
\ExplSyntaxOff 
\ExplSyntaxOn 
\char_set_catcode_space:n {32}
\tl_gset:cn {c__nicematrix_41_tl}{\seq_gset_from_clist:Nn \g__nicematrix_size_seq {1,2,2,1,2,2}}
\ExplSyntaxOff 
\ExplSyntaxOn 
\char_set_catcode_space:n {32}
\tl_gset:cn {c__nicematrix_42_tl}{\seq_gset_from_clist:Nn \g__nicematrix_size_seq {1,2,2,1,2,2}}
\ExplSyntaxOff 
\ExplSyntaxOn 
\char_set_catcode_space:n {32}
\tl_gset:cn {c__nicematrix_43_tl}{\seq_gset_from_clist:Nn \g__nicematrix_size_seq {1,2,2,1,1,1}}
\ExplSyntaxOff 
\ExplSyntaxOn 
\char_set_catcode_space:n {32}
\tl_gset:cn {c__nicematrix_44_tl}{\seq_gset_from_clist:Nn \g__nicematrix_size_seq {1,2,2,1,2,2}}
\ExplSyntaxOff 
\ExplSyntaxOn 
\char_set_catcode_space:n {32}
\tl_gset:cn {c__nicematrix_45_tl}{\seq_gset_from_clist:Nn \g__nicematrix_size_seq {1,2,2,1,2,2}}
\ExplSyntaxOff 
\ExplSyntaxOn 
\char_set_catcode_space:n {32}
\tl_gset:cn {c__nicematrix_46_tl}{\seq_gset_from_clist:Nn \g__nicematrix_size_seq {1,2,2,1,2,2}}
\ExplSyntaxOff 
\ExplSyntaxOn 
\char_set_catcode_space:n {32}
\tl_gset:cn {c__nicematrix_47_tl}{\seq_gset_from_clist:Nn \g__nicematrix_size_seq {1,2,2,1,1,1}}
\ExplSyntaxOff 
\ExplSyntaxOn 
\char_set_catcode_space:n {32}
\tl_gset:cn {c__nicematrix_48_tl}{\seq_gset_from_clist:Nn \g__nicematrix_size_seq {1,2,2,1,2,2}}
\ExplSyntaxOff 
\ExplSyntaxOn 
\char_set_catcode_space:n {32}
\tl_gset:cn {c__nicematrix_49_tl}{\seq_gset_from_clist:Nn \g__nicematrix_size_seq {1,2,2,1,2,2}}
\ExplSyntaxOff 
\ExplSyntaxOn 
\char_set_catcode_space:n {32}
\tl_gset:cn {c__nicematrix_50_tl}{\seq_gset_from_clist:Nn \g__nicematrix_size_seq {1,2,2,1,2,2}}
\ExplSyntaxOff 
\ExplSyntaxOn 
\char_set_catcode_space:n {32}
\tl_gset:cn {c__nicematrix_51_tl}{\seq_gset_from_clist:Nn \g__nicematrix_size_seq {1,2,2,1,1,1}}
\ExplSyntaxOff 
\ExplSyntaxOn 
\char_set_catcode_space:n {32}
\tl_gset:cn {c__nicematrix_52_tl}{\seq_gset_from_clist:Nn \g__nicematrix_size_seq {1,2,2,1,2,2}}
\ExplSyntaxOff 
\ExplSyntaxOn 
\char_set_catcode_space:n {32}
\tl_gset:cn {c__nicematrix_53_tl}{\seq_gset_from_clist:Nn \g__nicematrix_size_seq {1,2,2,1,2,2}}
\ExplSyntaxOff 
\ExplSyntaxOn 
\char_set_catcode_space:n {32}
\tl_gset:cn {c__nicematrix_54_tl}{\seq_gset_from_clist:Nn \g__nicematrix_size_seq {1,2,2,1,2,2}}
\ExplSyntaxOff 
\ExplSyntaxOn 
\char_set_catcode_space:n {32}
\tl_gset:cn {c__nicematrix_55_tl}{\seq_gset_from_clist:Nn \g__nicematrix_size_seq {1,2,2,1,1,1}}
\ExplSyntaxOff 
\ExplSyntaxOn 
\char_set_catcode_space:n {32}
\tl_gset:cn {c__nicematrix_56_tl}{\seq_gset_from_clist:Nn \g__nicematrix_size_seq {1,2,2,1,2,2}}
\ExplSyntaxOff 
\ExplSyntaxOn 
\char_set_catcode_space:n {32}
\tl_gset:cn {c__nicematrix_57_tl}{\seq_gset_from_clist:Nn \g__nicematrix_size_seq {1,2,2,1,2,2}}
\ExplSyntaxOff 
\ExplSyntaxOn 
\char_set_catcode_space:n {32}
\tl_gset:cn {c__nicematrix_58_tl}{\seq_gset_from_clist:Nn \g__nicematrix_size_seq {1,2,2,1,2,2}}
\ExplSyntaxOff 
\ExplSyntaxOn 
\char_set_catcode_space:n {32}
\tl_gset:cn {c__nicematrix_59_tl}{\seq_gset_from_clist:Nn \g__nicematrix_size_seq {1,2,2,1,2,2}}
\ExplSyntaxOff 
\ExplSyntaxOn 
\char_set_catcode_space:n {32}
\tl_gset:cn {c__nicematrix_60_tl}{\seq_gset_from_clist:Nn \g__nicematrix_size_seq {1,2,2,1,2,2}}
\ExplSyntaxOff 
\ExplSyntaxOn 
\char_set_catcode_space:n {32}
\tl_gset:cn {c__nicematrix_61_tl}{\seq_gset_from_clist:Nn \g__nicematrix_size_seq {1,2,2,1,2,2}}
\ExplSyntaxOff 
\ExplSyntaxOn 
\char_set_catcode_space:n {32}
\tl_gset:cn {c__nicematrix_62_tl}{\seq_gset_from_clist:Nn \g__nicematrix_size_seq {1,2,2,1,2,2}}
\ExplSyntaxOff 
\ExplSyntaxOn 
\char_set_catcode_space:n {32}
\tl_gset:cn {c__nicematrix_63_tl}{\seq_gset_from_clist:Nn \g__nicematrix_size_seq {1,2,2,1,2,2}}
\ExplSyntaxOff 
\ExplSyntaxOn 
\char_set_catcode_space:n {32}
\tl_gset:cn {c__nicematrix_64_tl}{\seq_gset_from_clist:Nn \g__nicematrix_size_seq {1,2,2,1,2,2}}
\ExplSyntaxOff 
\ExplSyntaxOn 
\char_set_catcode_space:n {32}
\tl_gset:cn {c__nicematrix_65_tl}{\seq_gset_from_clist:Nn \g__nicematrix_size_seq {1,2,2,1,2,2}}
\ExplSyntaxOff 
\ExplSyntaxOn 
\char_set_catcode_space:n {32}
\tl_gset:cn {c__nicematrix_66_tl}{\seq_gset_from_clist:Nn \g__nicematrix_size_seq {1,2,2,1,2,2}}
\ExplSyntaxOff 
\ExplSyntaxOn 
\char_set_catcode_space:n {32}
\tl_gset:cn {c__nicematrix_67_tl}{\seq_gset_from_clist:Nn \g__nicematrix_size_seq {1,2,2,1,2,2}}
\ExplSyntaxOff 
\ExplSyntaxOn 
\char_set_catcode_space:n {32}
\tl_gset:cn {c__nicematrix_68_tl}{\seq_gset_from_clist:Nn \g__nicematrix_size_seq {1,2,2,1,2,2}}
\ExplSyntaxOff 
\ExplSyntaxOn 
\char_set_catcode_space:n {32}
\tl_gset:cn {c__nicematrix_69_tl}{\seq_gset_from_clist:Nn \g__nicematrix_size_seq {1,2,2,1,2,2}}
\ExplSyntaxOff 
\ExplSyntaxOn 
\char_set_catcode_space:n {32}
\tl_gset:cn {c__nicematrix_70_tl}{\seq_gset_from_clist:Nn \g__nicematrix_size_seq {1,2,2,1,2,2}}
\ExplSyntaxOff 
\ExplSyntaxOn 
\char_set_catcode_space:n {32}
\tl_gset:cn {c__nicematrix_71_tl}{\seq_gset_from_clist:Nn \g__nicematrix_size_seq {1,2,2,1,1,1}}
\ExplSyntaxOff 
\ExplSyntaxOn 
\char_set_catcode_space:n {32}
\tl_gset:cn {c__nicematrix_72_tl}{\seq_gset_from_clist:Nn \g__nicematrix_size_seq {1,2,2,1,1,1}}
\ExplSyntaxOff 
\ExplSyntaxOn 
\char_set_catcode_space:n {32}
\tl_gset:cn {c__nicematrix_73_tl}{\seq_gset_from_clist:Nn \g__nicematrix_size_seq {1,2,2,1,1,1}}
\ExplSyntaxOff 
\ExplSyntaxOn 
\char_set_catcode_space:n {32}
\tl_gset:cn {c__nicematrix_74_tl}{\seq_gset_from_clist:Nn \g__nicematrix_size_seq {1,2,2,1,2,2}}
\ExplSyntaxOff 
\ExplSyntaxOn 
\char_set_catcode_space:n {32}
\tl_gset:cn {c__nicematrix_75_tl}{\seq_gset_from_clist:Nn \g__nicematrix_size_seq {1,2,2,1,2,2}}
\ExplSyntaxOff 
\ExplSyntaxOn 
\char_set_catcode_space:n {32}
\tl_gset:cn {c__nicematrix_76_tl}{\seq_gset_from_clist:Nn \g__nicematrix_size_seq {1,2,2,1,1,1}}
\ExplSyntaxOff 
\ExplSyntaxOn 
\char_set_catcode_space:n {32}
\tl_gset:cn {c__nicematrix_77_tl}{\seq_gset_from_clist:Nn \g__nicematrix_size_seq {1,2,2,1,2,2}}
\ExplSyntaxOff 
\ExplSyntaxOn 
\char_set_catcode_space:n {32}
\tl_gset:cn {c__nicematrix_78_tl}{\seq_gset_from_clist:Nn \g__nicematrix_size_seq {1,2,2,1,1,1}}
\ExplSyntaxOff 
\ExplSyntaxOn 
\char_set_catcode_space:n {32}
\tl_gset:cn {c__nicematrix_79_tl}{\seq_gset_from_clist:Nn \g__nicematrix_size_seq {1,2,2,1,1,1}}
\ExplSyntaxOff 
\ExplSyntaxOn 
\char_set_catcode_space:n {32}
\tl_gset:cn {c__nicematrix_80_tl}{\seq_gset_from_clist:Nn \g__nicematrix_size_seq {1,2,2,1,2,2}}
\ExplSyntaxOff 
\ExplSyntaxOn 
\char_set_catcode_space:n {32}
\tl_gset:cn {c__nicematrix_81_tl}{\seq_gset_from_clist:Nn \g__nicematrix_size_seq {1,2,2,1,2,2}}
\ExplSyntaxOff 
\ExplSyntaxOn 
\char_set_catcode_space:n {32}
\tl_gset:cn {c__nicematrix_82_tl}{\seq_gset_from_clist:Nn \g__nicematrix_size_seq {1,2,2,1,2,2}}
\ExplSyntaxOff 
\ExplSyntaxOn 
\char_set_catcode_space:n {32}
\tl_gset:cn {c__nicematrix_83_tl}{\seq_gset_from_clist:Nn \g__nicematrix_size_seq {1,2,2,1,2,2}}
\ExplSyntaxOff 
\ExplSyntaxOn 
\char_set_catcode_space:n {32}
\tl_gset:cn {c__nicematrix_84_tl}{\seq_gset_from_clist:Nn \g__nicematrix_size_seq {1,2,2,1,2,2}}
\ExplSyntaxOff 
\ExplSyntaxOn 
\char_set_catcode_space:n {32}
\tl_gset:cn {c__nicematrix_85_tl}{\seq_gset_from_clist:Nn \g__nicematrix_size_seq {1,2,2,1,2,2}}
\ExplSyntaxOff 
\ExplSyntaxOn 
\char_set_catcode_space:n {32}
\tl_gset:cn {c__nicematrix_86_tl}{\seq_gset_from_clist:Nn \g__nicematrix_size_seq {1,2,2,1,2,2}}
\ExplSyntaxOff 
\ExplSyntaxOn 
\char_set_catcode_space:n {32}
\tl_gset:cn {c__nicematrix_87_tl}{\seq_gset_from_clist:Nn \g__nicematrix_size_seq {1,2,2,1,2,2}}
\ExplSyntaxOff 
\ExplSyntaxOn 
\char_set_catcode_space:n {32}
\tl_gset:cn {c__nicematrix_88_tl}{\seq_gset_from_clist:Nn \g__nicematrix_size_seq {1,2,2,1,2,2}}
\ExplSyntaxOff 
\ExplSyntaxOn 
\char_set_catcode_space:n {32}
\tl_gset:cn {c__nicematrix_89_tl}{\seq_gset_from_clist:Nn \g__nicematrix_size_seq {1,2,2,1,1,1}}
\ExplSyntaxOff 
\ExplSyntaxOn 
\char_set_catcode_space:n {32}
\tl_gset:cn {c__nicematrix_90_tl}{\seq_gset_from_clist:Nn \g__nicematrix_size_seq {1,2,2,1,1,1}}
\ExplSyntaxOff 
\ExplSyntaxOn 
\char_set_catcode_space:n {32}
\tl_gset:cn {c__nicematrix_91_tl}{\seq_gset_from_clist:Nn \g__nicematrix_size_seq {1,2,2,1,1,1}}
\ExplSyntaxOff 
\ExplSyntaxOn 
\char_set_catcode_space:n {32}
\tl_gset:cn {c__nicematrix_92_tl}{\seq_gset_from_clist:Nn \g__nicematrix_size_seq {1,2,2,1,2,2}}
\ExplSyntaxOff 
\ExplSyntaxOn 
\char_set_catcode_space:n {32}
\tl_gset:cn {c__nicematrix_93_tl}{\seq_gset_from_clist:Nn \g__nicematrix_size_seq {1,2,2,1,2,2}}
\ExplSyntaxOff 
\ExplSyntaxOn 
\char_set_catcode_space:n {32}
\tl_gset:cn {c__nicematrix_94_tl}{\seq_gset_from_clist:Nn \g__nicematrix_size_seq {1,2,2,1,1,1}}
\ExplSyntaxOff 
\ExplSyntaxOn 
\char_set_catcode_space:n {32}
\tl_gset:cn {c__nicematrix_95_tl}{\seq_gset_from_clist:Nn \g__nicematrix_size_seq {1,2,2,1,2,2}}
\ExplSyntaxOff 
\ExplSyntaxOn 
\char_set_catcode_space:n {32}
\tl_gset:cn {c__nicematrix_96_tl}{\seq_gset_from_clist:Nn \g__nicematrix_size_seq {1,2,2,1,1,1}}
\ExplSyntaxOff 
\ExplSyntaxOn 
\char_set_catcode_space:n {32}
\tl_gset:cn {c__nicematrix_97_tl}{\seq_gset_from_clist:Nn \g__nicematrix_size_seq {1,2,2,1,1,1}}
\ExplSyntaxOff 
\PgInfo{question@2}{2}
\PgInfo{question2@object1}{2}
\newlabel{question@2}{{\textbf  {Problem 2}}{2}{}{}{}}
\newlabel{firstpoints@onpage@2}{{\textbf  {Problem 2}}{2}{}{}{}}
\pgfsyspdfmark {pgfid877}{13476893}{48217121}
\pgfsyspdfmark {pgfid878}{13804574}{47666621}
\pgfsyspdfmark {pgfid879}{14223277}{47666621}
\pgfsyspdfmark {pgfid880}{15970907}{47666621}
\pgfsyspdfmark {pgfid881}{13476893}{47430689}
\pgfsyspdfmark {pgfid882}{14314300}{46880189}
\pgfsyspdfmark {pgfid883}{14478140}{46880189}
\pgfsyspdfmark {pgfid884}{15716044}{46880189}
\pgfsyspdfmark {pgfid885}{13476893}{46644257}
\pgfsyspdfmark {pgfid886}{13476893}{46644257}
\pgfsyspdfmark {pgfid887}{14969660}{46644257}
\pgfsyspdfmark {pgfid888}{16462427}{46644257}
\pgfsyspdfmark {pgfid889}{16480633}{47240635}
\pgfsyspdfmark {pgfid891}{16480633}{47240635}
\pgfsyspdfmark {pgfid892}{26654104}{48217121}
\pgfsyspdfmark {pgfid893}{26981785}{47666621}
\pgfsyspdfmark {pgfid894}{27400488}{47666621}
\pgfsyspdfmark {pgfid895}{26654104}{47430689}
\pgfsyspdfmark {pgfid896}{27163829}{46880189}
\pgfsyspdfmark {pgfid897}{27491510}{46880189}
\pgfsyspdfmark {pgfid898}{26654104}{46644257}
\pgfsyspdfmark {pgfid899}{26654104}{46644257}
\pgfsyspdfmark {pgfid900}{28146871}{46644257}
\pgfsyspdfmark {pgfid901}{28146871}{46644257}
\pgfsyspdfmark {pgfid902}{28165077}{47240635}
\pgfsyspdfmark {pgfid904}{28165077}{47240635}
\pgfsyspdfmark {pgfid1051}{11013931}{37639959}
\pgfsyspdfmark {pgfid1052}{11851338}{37089459}
\pgfsyspdfmark {pgfid1053}{12015178}{37089459}
\pgfsyspdfmark {pgfid1054}{13253082}{37089459}
\pgfsyspdfmark {pgfid1055}{11013931}{36853527}
\pgfsyspdfmark {pgfid1056}{11341612}{36303027}
\pgfsyspdfmark {pgfid1057}{11760315}{36303027}
\pgfsyspdfmark {pgfid1058}{13507945}{36303027}
\pgfsyspdfmark {pgfid1059}{11013931}{36067095}
\pgfsyspdfmark {pgfid1060}{11013931}{36067095}
\pgfsyspdfmark {pgfid1061}{12506698}{36067095}
\pgfsyspdfmark {pgfid1062}{13999465}{36067095}
\pgfsyspdfmark {pgfid1063}{14017671}{36663473}
\pgfsyspdfmark {pgfid1065}{14017671}{36663473}
\pgfsyspdfmark {pgfid1066}{16821155}{37639959}
\pgfsyspdfmark {pgfid1067}{17148836}{37089459}
\pgfsyspdfmark {pgfid1068}{17312676}{37089459}
\pgfsyspdfmark {pgfid1069}{16821155}{36853527}
\pgfsyspdfmark {pgfid1070}{17148836}{36303027}
\pgfsyspdfmark {pgfid1071}{17312676}{36303027}
\pgfsyspdfmark {pgfid1072}{16821155}{36067095}
\pgfsyspdfmark {pgfid1073}{16821155}{36067095}
\pgfsyspdfmark {pgfid1074}{17804196}{36067095}
\pgfsyspdfmark {pgfid1075}{17804196}{36067095}
\pgfsyspdfmark {pgfid1076}{17822402}{36663473}
\pgfsyspdfmark {pgfid1078}{17822402}{36663473}
\pgfsyspdfmark {pgfid1109}{25775639}{37639959}
\pgfsyspdfmark {pgfid1110}{26103320}{37089459}
\pgfsyspdfmark {pgfid1111}{26522023}{37089459}
\pgfsyspdfmark {pgfid1112}{28014790}{37089459}
\pgfsyspdfmark {pgfid1113}{25775639}{36853527}
\pgfsyspdfmark {pgfid1114}{26103320}{36303027}
\pgfsyspdfmark {pgfid1115}{26522023}{36303027}
\pgfsyspdfmark {pgfid1116}{28014790}{36303027}
\pgfsyspdfmark {pgfid1117}{25775639}{36067095}
\pgfsyspdfmark {pgfid1118}{25775639}{36067095}
\pgfsyspdfmark {pgfid1119}{27268406}{36067095}
\pgfsyspdfmark {pgfid1120}{28761173}{36067095}
\pgfsyspdfmark {pgfid1121}{28779379}{36663473}
\pgfsyspdfmark {pgfid1123}{28779379}{36663473}
\pgfsyspdfmark {pgfid1124}{31582863}{37639959}
\pgfsyspdfmark {pgfid1125}{32420270}{37089459}
\pgfsyspdfmark {pgfid1126}{32584110}{37089459}
\pgfsyspdfmark {pgfid1127}{31582863}{36853527}
\pgfsyspdfmark {pgfid1128}{31910544}{36303027}
\pgfsyspdfmark {pgfid1129}{32329247}{36303027}
\pgfsyspdfmark {pgfid1130}{31582863}{36067095}
\pgfsyspdfmark {pgfid1131}{31582863}{36067095}
\pgfsyspdfmark {pgfid1132}{33075630}{36067095}
\pgfsyspdfmark {pgfid1133}{33075630}{36067095}
\pgfsyspdfmark {pgfid1134}{33093836}{36663473}
\pgfsyspdfmark {pgfid1136}{33093836}{36663473}
\pgfsyspdfmark {pgfid1182}{9670762}{33964392}
\pgfsyspdfmark {pgfid1183}{9998443}{33413892}
\pgfsyspdfmark {pgfid1184}{10162283}{33413892}
\pgfsyspdfmark {pgfid1185}{11655050}{33413892}
\pgfsyspdfmark {pgfid1186}{9670762}{33177960}
\pgfsyspdfmark {pgfid1187}{9998443}{32627460}
\pgfsyspdfmark {pgfid1188}{10162283}{32627460}
\pgfsyspdfmark {pgfid1189}{11400187}{32627460}
\pgfsyspdfmark {pgfid1190}{9670762}{32391528}
\pgfsyspdfmark {pgfid1191}{9670762}{32391528}
\pgfsyspdfmark {pgfid1192}{10653803}{32391528}
\pgfsyspdfmark {pgfid1193}{12146570}{32391528}
\pgfsyspdfmark {pgfid1194}{12164776}{32987906}
\pgfsyspdfmark {pgfid1196}{12164776}{32987906}
\pgfsyspdfmark {pgfid1197}{18249737}{33964392}
\pgfsyspdfmark {pgfid1198}{18577418}{33413892}
\pgfsyspdfmark {pgfid1199}{18996121}{33413892}
\pgfsyspdfmark {pgfid1200}{20743751}{33413892}
\pgfsyspdfmark {pgfid1201}{18249737}{33177960}
\pgfsyspdfmark {pgfid1202}{19087144}{32627460}
\pgfsyspdfmark {pgfid1203}{19250984}{32627460}
\pgfsyspdfmark {pgfid1204}{20488888}{32627460}
\pgfsyspdfmark {pgfid1205}{18249737}{32391528}
\pgfsyspdfmark {pgfid1206}{18249737}{32391528}
\pgfsyspdfmark {pgfid1207}{19742504}{32391528}
\pgfsyspdfmark {pgfid1208}{21235271}{32391528}
\pgfsyspdfmark {pgfid1209}{21253477}{32987906}
\pgfsyspdfmark {pgfid1211}{21253477}{32987906}
\pgfsyspdfmark {pgfid1212}{29070321}{33964392}
\pgfsyspdfmark {pgfid1213}{29398002}{33413892}
\pgfsyspdfmark {pgfid1214}{29816705}{33413892}
\pgfsyspdfmark {pgfid1215}{31309472}{33413892}
\pgfsyspdfmark {pgfid1216}{29070321}{33177960}
\pgfsyspdfmark {pgfid1217}{29398002}{32627460}
\pgfsyspdfmark {pgfid1218}{29816705}{32627460}
\pgfsyspdfmark {pgfid1219}{31564335}{32627460}
\pgfsyspdfmark {pgfid1220}{29070321}{32391528}
\pgfsyspdfmark {pgfid1221}{29070321}{32391528}
\pgfsyspdfmark {pgfid1222}{30563088}{32391528}
\pgfsyspdfmark {pgfid1223}{32055855}{32391528}
\pgfsyspdfmark {pgfid1224}{32074061}{32987906}
\pgfsyspdfmark {pgfid1226}{32074061}{32987906}
\pgfsyspdfmark {pgfid1515}{14947621}{29660338}
\pgfsyspdfmark {pgfid1516}{15275302}{29109838}
\pgfsyspdfmark {pgfid1517}{15439142}{29109838}
\pgfsyspdfmark {pgfid1518}{16931909}{29109838}
\pgfsyspdfmark {pgfid1519}{14947621}{28873906}
\pgfsyspdfmark {pgfid1520}{15275302}{28323406}
\pgfsyspdfmark {pgfid1521}{15439142}{28323406}
\pgfsyspdfmark {pgfid1522}{16677046}{28323406}
\pgfsyspdfmark {pgfid1523}{14947621}{28087474}
\pgfsyspdfmark {pgfid1524}{14947621}{28087474}
\pgfsyspdfmark {pgfid1525}{15930662}{28087474}
\pgfsyspdfmark {pgfid1526}{17423429}{28087474}
\pgfsyspdfmark {pgfid1527}{17441635}{28683852}
\pgfsyspdfmark {pgfid1529}{17441635}{28683852}
\pgfsyspdfmark {pgfid1560}{17459841}{29691726}
\pgfsyspdfmark {pgfid1561}{17787522}{29109838}
\pgfsyspdfmark {pgfid1562}{18465071}{29109838}
\pgfsyspdfmark {pgfid1563}{21339979}{29109838}
\pgfsyspdfmark {pgfid1564}{17459841}{28873906}
\pgfsyspdfmark {pgfid1565}{18814940}{28292018}
\pgfsyspdfmark {pgfid1566}{18978780}{28292018}
\pgfsyspdfmark {pgfid1567}{20650900}{28292018}
\pgfsyspdfmark {pgfid1568}{17459841}{28056086}
\pgfsyspdfmark {pgfid1569}{17459841}{28056086}
\pgfsyspdfmark {pgfid1570}{19470300}{28056086}
\pgfsyspdfmark {pgfid1571}{21831499}{28056086}
\pgfsyspdfmark {pgfid1572}{21849705}{28683852}
\pgfsyspdfmark {pgfid1574}{21849705}{28683852}
\pgfsyspdfmark {pgfid1605}{22862604}{29660338}
\pgfsyspdfmark {pgfid1606}{23190285}{29109838}
\pgfsyspdfmark {pgfid1607}{23608988}{29109838}
\pgfsyspdfmark {pgfid1608}{25101755}{29109838}
\pgfsyspdfmark {pgfid1609}{22862604}{28873906}
\pgfsyspdfmark {pgfid1610}{23190285}{28323406}
\pgfsyspdfmark {pgfid1611}{23608988}{28323406}
\pgfsyspdfmark {pgfid1612}{25356618}{28323406}
\pgfsyspdfmark {pgfid1613}{22862604}{28087474}
\pgfsyspdfmark {pgfid1614}{22862604}{28087474}
\pgfsyspdfmark {pgfid1615}{24355371}{28087474}
\pgfsyspdfmark {pgfid1616}{25848138}{28087474}
\pgfsyspdfmark {pgfid1617}{25866344}{28683852}
\pgfsyspdfmark {pgfid1619}{25866344}{28683852}
\pgfsyspdfmark {pgfid1646}{25884550}{29660338}
\pgfsyspdfmark {pgfid1647}{26212231}{29109838}
\pgfsyspdfmark {pgfid1648}{26630934}{29109838}
\pgfsyspdfmark {pgfid1649}{25884550}{28873906}
\pgfsyspdfmark {pgfid1650}{26394275}{28323406}
\pgfsyspdfmark {pgfid1651}{26721956}{28323406}
\pgfsyspdfmark {pgfid1652}{25884550}{28087474}
\pgfsyspdfmark {pgfid1653}{25884550}{28087474}
\pgfsyspdfmark {pgfid1654}{27377317}{28087474}
\pgfsyspdfmark {pgfid1655}{27377317}{28087474}
\pgfsyspdfmark {pgfid1656}{27395523}{28683852}
\pgfsyspdfmark {pgfid1658}{27395523}{28683852}
\pgfsyspdfmark {pgfid1659}{14947621}{27762554}
\pgfsyspdfmark {pgfid1660}{15275302}{27212054}
\pgfsyspdfmark {pgfid1661}{15439142}{27212054}
\pgfsyspdfmark {pgfid1662}{16931909}{27212054}
\pgfsyspdfmark {pgfid1663}{14947621}{26976122}
\pgfsyspdfmark {pgfid1664}{15275302}{26425622}
\pgfsyspdfmark {pgfid1665}{15439142}{26425622}
\pgfsyspdfmark {pgfid1666}{16677046}{26425622}
\pgfsyspdfmark {pgfid1667}{14947621}{26189690}
\pgfsyspdfmark {pgfid1668}{14947621}{26189690}
\pgfsyspdfmark {pgfid1669}{15930662}{26189690}
\pgfsyspdfmark {pgfid1670}{17423429}{26189690}
\pgfsyspdfmark {pgfid1671}{17441635}{26786068}
\pgfsyspdfmark {pgfid1673}{17441635}{26786068}
\pgfsyspdfmark {pgfid1674}{17459841}{27793942}
\pgfsyspdfmark {pgfid1675}{17787522}{27212054}
\pgfsyspdfmark {pgfid1676}{18465071}{27212054}
\pgfsyspdfmark {pgfid1677}{21339979}{27212054}
\pgfsyspdfmark {pgfid1678}{17459841}{26976122}
\pgfsyspdfmark {pgfid1679}{18814940}{26394234}
\pgfsyspdfmark {pgfid1680}{18978780}{26394234}
\pgfsyspdfmark {pgfid1681}{20650900}{26394234}
\pgfsyspdfmark {pgfid1682}{17459841}{26158302}
\pgfsyspdfmark {pgfid1683}{17459841}{26158302}
\pgfsyspdfmark {pgfid1684}{19470300}{26158302}
\pgfsyspdfmark {pgfid1685}{21831499}{26158302}
\pgfsyspdfmark {pgfid1686}{21849705}{26786068}
\pgfsyspdfmark {pgfid1688}{21849705}{26786068}
\pgfsyspdfmark {pgfid1689}{21867911}{27762554}
\pgfsyspdfmark {pgfid1690}{22705318}{27212054}
\pgfsyspdfmark {pgfid1691}{22869158}{27212054}
\pgfsyspdfmark {pgfid1692}{21867911}{26976122}
\pgfsyspdfmark {pgfid1693}{22195592}{26425622}
\pgfsyspdfmark {pgfid1694}{22614295}{26425622}
\pgfsyspdfmark {pgfid1695}{21867911}{26189690}
\pgfsyspdfmark {pgfid1696}{21867911}{26189690}
\pgfsyspdfmark {pgfid1697}{23360678}{26189690}
\pgfsyspdfmark {pgfid1698}{23360678}{26189690}
\pgfsyspdfmark {pgfid1699}{23378884}{26786068}
\pgfsyspdfmark {pgfid1701}{23378884}{26786068}
\pgfsyspdfmark {pgfid1702}{14947621}{25864769}
\pgfsyspdfmark {pgfid1703}{15275302}{25314269}
\pgfsyspdfmark {pgfid1704}{15439142}{25314269}
\pgfsyspdfmark {pgfid1705}{16931909}{25314269}
\pgfsyspdfmark {pgfid1706}{14947621}{25078337}
\pgfsyspdfmark {pgfid1707}{15275302}{24527837}
\pgfsyspdfmark {pgfid1708}{15439142}{24527837}
\pgfsyspdfmark {pgfid1709}{16677046}{24527837}
\pgfsyspdfmark {pgfid1710}{14947621}{24291905}
\pgfsyspdfmark {pgfid1711}{14947621}{24291905}
\pgfsyspdfmark {pgfid1712}{15930662}{24291905}
\pgfsyspdfmark {pgfid1713}{17423429}{24291905}
\pgfsyspdfmark {pgfid1714}{17441635}{24888283}
\pgfsyspdfmark {pgfid1716}{17441635}{24888283}
\pgfsyspdfmark {pgfid1717}{17459841}{25896158}
\pgfsyspdfmark {pgfid1718}{18647988}{25314270}
\pgfsyspdfmark {pgfid1719}{19543989}{25314270}
\pgfsyspdfmark {pgfid1720}{17459841}{25078338}
\pgfsyspdfmark {pgfid1721}{17787522}{24496449}
\pgfsyspdfmark {pgfid1722}{19113756}{24496449}
\pgfsyspdfmark {pgfid1723}{17459841}{24260517}
\pgfsyspdfmark {pgfid1724}{17459841}{24260517}
\pgfsyspdfmark {pgfid1725}{20767670}{24260517}
\pgfsyspdfmark {pgfid1726}{20767670}{24260517}
\pgfsyspdfmark {pgfid1727}{20785876}{24888283}
\pgfsyspdfmark {pgfid1729}{20785876}{24888283}
\pgfsyspdfmark {pgfid1730}{14947621}{23998373}
\pgfsyspdfmark {pgfid1731}{15275302}{23416484}
\pgfsyspdfmark {pgfid1732}{17643170}{23416484}
\pgfsyspdfmark {pgfid1733}{14947621}{23180552}
\pgfsyspdfmark {pgfid1734}{15275302}{22598663}
\pgfsyspdfmark {pgfid1735}{17643170}{22598663}
\pgfsyspdfmark {pgfid1736}{14947621}{22362731}
\pgfsyspdfmark {pgfid1737}{14947621}{22362731}
\pgfsyspdfmark {pgfid1738}{20338718}{22362731}
\pgfsyspdfmark {pgfid1739}{20338718}{22362731}
\pgfsyspdfmark {pgfid1740}{20356924}{22990498}
\pgfsyspdfmark {pgfid1742}{20356924}{22990498}
\gdef\pointsofq@ii{18}
\gdef\bonuspointsofq@ii{0}
\ExplSyntaxOn 
\char_set_catcode_space:n {32}
\tl_gset:cn {c__nicematrix_98_tl}{\seq_gset_from_clist:Nn \g__nicematrix_size_seq {1,4,4,1,4,4}}
\ExplSyntaxOff 
\ExplSyntaxOn 
\char_set_catcode_space:n {32}
\tl_gset:cn {c__nicematrix_99_tl}{\seq_gset_from_clist:Nn \g__nicematrix_size_seq {1,4,4,1,4,4}}
\ExplSyntaxOff 
\ExplSyntaxOn 
\char_set_catcode_space:n {32}
\tl_gset:cn {c__nicematrix_100_tl}{\seq_gset_from_clist:Nn \g__nicematrix_size_seq {1,4,4,1,4,4}}
\ExplSyntaxOff 
\ExplSyntaxOn 
\char_set_catcode_space:n {32}
\tl_gset:cn {c__nicematrix_101_tl}{\seq_gset_from_clist:Nn \g__nicematrix_size_seq {1,4,4,1,4,4}}
\ExplSyntaxOff 
\ExplSyntaxOn 
\char_set_catcode_space:n {32}
\tl_gset:cn {c__nicematrix_102_tl}{\seq_gset_from_clist:Nn \g__nicematrix_size_seq {1,4,4,1,4,4}}
\ExplSyntaxOff 
\ExplSyntaxOn 
\char_set_catcode_space:n {32}
\tl_gset:cn {c__nicematrix_103_tl}{\seq_gset_from_clist:Nn \g__nicematrix_size_seq {1,4,4,1,4,4}}
\ExplSyntaxOff 
\ExplSyntaxOn 
\char_set_catcode_space:n {32}
\tl_gset:cn {c__nicematrix_104_tl}{\seq_gset_from_clist:Nn \g__nicematrix_size_seq {1,4,4,1,4,4}}
\ExplSyntaxOff 
\ExplSyntaxOn 
\char_set_catcode_space:n {32}
\tl_gset:cn {c__nicematrix_105_tl}{\seq_gset_from_clist:Nn \g__nicematrix_size_seq {1,4,4,1,4,4}}
\ExplSyntaxOff 
\ExplSyntaxOn 
\char_set_catcode_space:n {32}
\tl_gset:cn {c__nicematrix_106_tl}{\seq_gset_from_clist:Nn \g__nicematrix_size_seq {1,4,4,1,4,4}}
\ExplSyntaxOff 
\ExplSyntaxOn 
\char_set_catcode_space:n {32}
\tl_gset:cn {c__nicematrix_107_tl}{\seq_gset_from_clist:Nn \g__nicematrix_size_seq {1,1,1,1,1,1}}
\ExplSyntaxOff 
\gdef\pointsonpage@ii{18}
\ExplSyntaxOn 
\char_set_catcode_space:n {32}
\tl_gset:cn {c__nicematrix_108_tl}{\seq_gset_from_clist:Nn \g__nicematrix_size_seq {1,1,1,1,4,4}}
\ExplSyntaxOff 
\PgInfo{question@3}{3}
\PgInfo{question3@object1}{3}
\newlabel{question@3}{{\textbf  {Problem 3}}{3}{}{}{}}
\pgfsyspdfmark {pgfid1809}{4037504}{45928412}
\pgfsyspdfmark {pgfid1810}{4887672}{45377912}
\pgfsyspdfmark {pgfid1811}{5042410}{45377912}
\pgfsyspdfmark {pgfid1812}{7052221}{45377912}
\pgfsyspdfmark {pgfid1813}{9062032}{45377912}
\pgfsyspdfmark {pgfid1814}{11071843}{45377912}
\pgfsyspdfmark {pgfid1815}{4037504}{45141980}
\pgfsyspdfmark {pgfid1816}{4929520}{44591480}
\pgfsyspdfmark {pgfid1817}{5042410}{44591480}
\pgfsyspdfmark {pgfid1818}{7052221}{44591480}
\pgfsyspdfmark {pgfid1819}{9062032}{44591480}
\pgfsyspdfmark {pgfid1820}{11071843}{44591480}
\pgfsyspdfmark {pgfid1821}{4037504}{44355548}
\pgfsyspdfmark {pgfid1822}{4365185}{43805048}
\pgfsyspdfmark {pgfid1823}{5042410}{43805048}
\pgfsyspdfmark {pgfid1824}{7052221}{43805048}
\pgfsyspdfmark {pgfid1825}{9062032}{43805048}
\pgfsyspdfmark {pgfid1826}{11071843}{43805048}
\pgfsyspdfmark {pgfid1827}{4037504}{43569116}
\pgfsyspdfmark {pgfid1828}{4529025}{43018616}
\pgfsyspdfmark {pgfid1829}{5042410}{43018616}
\pgfsyspdfmark {pgfid1830}{7052221}{43018616}
\pgfsyspdfmark {pgfid1831}{9062032}{43018616}
\pgfsyspdfmark {pgfid1832}{11071843}{43018616}
\pgfsyspdfmark {pgfid1833}{4037504}{42782684}
\pgfsyspdfmark {pgfid1834}{4037504}{42782684}
\pgfsyspdfmark {pgfid1835}{6047315}{42782684}
\pgfsyspdfmark {pgfid1836}{8057126}{42782684}
\pgfsyspdfmark {pgfid1837}{10066937}{42782684}
\pgfsyspdfmark {pgfid1838}{12076748}{42782684}
\pgfsyspdfmark {pgfid1839}{12185976}{44165494}
\pgfsyspdfmark {pgfid1841}{12185976}{44165494}
\pgfsyspdfmark {pgfid1908}{13169010}{47743449}
\pgfsyspdfmark {pgfid1909}{13968434}{46877750}
\pgfsyspdfmark {pgfid1910}{14507422}{46877750}
\pgfsyspdfmark {pgfid1911}{16929382}{46877750}
\pgfsyspdfmark {pgfid1912}{19096479}{46877750}
\pgfsyspdfmark {pgfid1913}{21736892}{46877750}
\pgfsyspdfmark {pgfid1914}{13169010}{45986457}
\pgfsyspdfmark {pgfid1915}{13968434}{45110875}
\pgfsyspdfmark {pgfid1916}{14507422}{45110875}
\pgfsyspdfmark {pgfid1917}{16929382}{45110875}
\pgfsyspdfmark {pgfid1918}{19096479}{45110875}
\pgfsyspdfmark {pgfid1919}{21736892}{45110875}
\pgfsyspdfmark {pgfid1920}{13169010}{44219582}
\pgfsyspdfmark {pgfid1921}{13751554}{43344000}
\pgfsyspdfmark {pgfid1922}{14507422}{43344000}
\pgfsyspdfmark {pgfid1923}{16929382}{43344000}
\pgfsyspdfmark {pgfid1924}{19096479}{43344000}
\pgfsyspdfmark {pgfid1925}{21736892}{43344000}
\pgfsyspdfmark {pgfid1926}{13169010}{42452707}
\pgfsyspdfmark {pgfid1927}{13496691}{41577125}
\pgfsyspdfmark {pgfid1928}{14507422}{41577125}
\pgfsyspdfmark {pgfid1929}{16929382}{41577125}
\pgfsyspdfmark {pgfid1930}{19096479}{41577125}
\pgfsyspdfmark {pgfid1931}{21736892}{41577125}
\pgfsyspdfmark {pgfid1932}{13169010}{40967647}
\pgfsyspdfmark {pgfid1933}{13169010}{40967647}
\pgfsyspdfmark {pgfid1934}{15845833}{40967647}
\pgfsyspdfmark {pgfid1935}{18012930}{40967647}
\pgfsyspdfmark {pgfid1936}{20180027}{40967647}
\pgfsyspdfmark {pgfid1937}{23293756}{40967647}
\pgfsyspdfmark {pgfid1938}{23402984}{44165494}
\pgfsyspdfmark {pgfid1940}{23402984}{44165494}
\pgfsyspdfmark {pgfid1983}{23512212}{45928412}
\pgfsyspdfmark {pgfid1984}{23839893}{45377912}
\pgfsyspdfmark {pgfid1985}{24003733}{45377912}
\pgfsyspdfmark {pgfid1986}{23512212}{45141980}
\pgfsyspdfmark {pgfid1987}{24003733}{44591480}
\pgfsyspdfmark {pgfid1988}{24986774}{44591480}
\pgfsyspdfmark {pgfid1989}{23512212}{44355548}
\pgfsyspdfmark {pgfid1990}{24003733}{43805048}
\pgfsyspdfmark {pgfid1991}{26224678}{43805048}
\pgfsyspdfmark {pgfid1992}{23512212}{43569116}
\pgfsyspdfmark {pgfid1993}{24003733}{43018616}
\pgfsyspdfmark {pgfid1994}{27717445}{43018616}
\pgfsyspdfmark {pgfid1995}{23512212}{42782684}
\pgfsyspdfmark {pgfid1996}{23512212}{42782684}
\pgfsyspdfmark {pgfid1997}{24495253}{42782684}
\pgfsyspdfmark {pgfid1998}{25478294}{42782684}
\pgfsyspdfmark {pgfid1999}{26971061}{42782684}
\pgfsyspdfmark {pgfid2000}{28463828}{42782684}
\pgfsyspdfmark {pgfid2001}{28573056}{44165494}
\pgfsyspdfmark {pgfid2003}{28573056}{44165494}
\pgfsyspdfmark {pgfid2004}{28682284}{47428264}
\pgfsyspdfmark {pgfid2005}{29009965}{43904276}
\pgfsyspdfmark {pgfid2006}{32451609}{43904276}
\pgfsyspdfmark {pgfid2007}{28682284}{41282832}
\pgfsyspdfmark {pgfid2008}{28682284}{41282832}
\pgfsyspdfmark {pgfid2009}{36220933}{41282832}
\pgfsyspdfmark {pgfid2010}{36220933}{41282832}
\pgfsyspdfmark {pgfid2011}{36330161}{44165494}
\pgfsyspdfmark {pgfid2013}{36330161}{44165494}
\PgInfo{part@3@1}{3}
\PgInfo{question3@object2}{3}
\newlabel{part@3@1}{{a}{3}{}{}{}}
\newlabel{firstpoints@onpage@3}{{a}{3}{}{}{}}
\pgfsyspdfmark {pgfid2014}{10778240}{34579704}
\pgfsyspdfmark {pgfid2015}{11105921}{34029204}
\pgfsyspdfmark {pgfid2016}{11269761}{34029204}
\pgfsyspdfmark {pgfid2017}{12507665}{34029204}
\pgfsyspdfmark {pgfid2018}{14258954}{34029204}
\pgfsyspdfmark {pgfid2019}{16523628}{34029204}
\pgfsyspdfmark {pgfid2020}{10778240}{33793272}
\pgfsyspdfmark {pgfid2021}{10778240}{33793272}
\pgfsyspdfmark {pgfid2022}{11761281}{33793272}
\pgfsyspdfmark {pgfid2023}{13254048}{33793272}
\pgfsyspdfmark {pgfid2024}{15263859}{33793272}
\pgfsyspdfmark {pgfid2025}{17783396}{33793272}
\pgfsyspdfmark {pgfid2026}{17728784}{33996434}
\pgfsyspdfmark {pgfid2028}{17728784}{33996434}
\PgInfo{part@3@2}{3}
\PgInfo{question3@object3}{3}
\newlabel{part@3@2}{{b}{3}{}{}{}}
\PgInfo{question3@object4}{3}
\PgInfo{question3@object5}{3}
\PgInfo{question3@object6}{3}
\PgInfo{question3@object7}{3}
\PgInfo{question3@object8}{3}
\PgInfo{question3@object9}{3}
\PgInfo{question3@object10}{3}
\PgInfo{question3@object11}{3}
\PgInfo{part@3@3}{3}
\PgInfo{question3@object12}{3}
\newlabel{part@3@3}{{c}{3}{}{}{}}
\gdef\pointsofq@iii{31}
\gdef\bonuspointsofq@iii{0}
\gdef\pointsonpage@iii{31}
\ExplSyntaxOn 
\char_set_catcode_space:n {32}
\tl_gset:cn {c__nicematrix_109_tl}{\seq_gset_from_clist:Nn \g__nicematrix_size_seq {1,4,4,1,4,4}}
\ExplSyntaxOff 
\ExplSyntaxOn 
\char_set_catcode_space:n {32}
\tl_gset:cn {c__nicematrix_110_tl}{\seq_gset_from_clist:Nn \g__nicematrix_size_seq {1,4,4,1,4,4}}
\ExplSyntaxOff 
\ExplSyntaxOn 
\char_set_catcode_space:n {32}
\tl_gset:cn {c__nicematrix_111_tl}{\seq_gset_from_clist:Nn \g__nicematrix_size_seq {1,4,4,1,4,4}}
\ExplSyntaxOff 
\ExplSyntaxOn 
\char_set_catcode_space:n {32}
\tl_gset:cn {c__nicematrix_112_tl}{\seq_gset_from_clist:Nn \g__nicematrix_size_seq {1,3,3,1,4,4}}
\ExplSyntaxOff 
\ExplSyntaxOn 
\char_set_catcode_space:n {32}
\tl_gset:cn {c__nicematrix_113_tl}{\seq_gset_from_clist:Nn \g__nicematrix_size_seq {1,3,3,1,4,4}}
\ExplSyntaxOff 
\ExplSyntaxOn 
\char_set_catcode_space:n {32}
\tl_gset:cn {c__nicematrix_114_tl}{\seq_gset_from_clist:Nn \g__nicematrix_size_seq {1,3,3,1,4,4}}
\ExplSyntaxOff 
\ExplSyntaxOn 
\char_set_catcode_space:n {32}
\tl_gset:cn {c__nicematrix_115_tl}{\seq_gset_from_clist:Nn \g__nicematrix_size_seq {1,4,4,1,4,4}}
\ExplSyntaxOff 
\ExplSyntaxOn 
\char_set_catcode_space:n {32}
\tl_gset:cn {c__nicematrix_116_tl}{\seq_gset_from_clist:Nn \g__nicematrix_size_seq {1,4,4,1,4,4}}
\ExplSyntaxOff 
\ExplSyntaxOn 
\char_set_catcode_space:n {32}
\tl_gset:cn {c__nicematrix_117_tl}{\seq_gset_from_clist:Nn \g__nicematrix_size_seq {1,4,4,1,4,4}}
\ExplSyntaxOff 
\ExplSyntaxOn 
\char_set_catcode_space:n {32}
\tl_gset:cn {c__nicematrix_118_tl}{\seq_gset_from_clist:Nn \g__nicematrix_size_seq {1,4,4,1,3,3}}
\ExplSyntaxOff 
\ExplSyntaxOn 
\char_set_catcode_space:n {32}
\tl_gset:cn {c__nicematrix_119_tl}{\seq_gset_from_clist:Nn \g__nicematrix_size_seq {1,4,4,1,3,3}}
\ExplSyntaxOff 
\ExplSyntaxOn 
\char_set_catcode_space:n {32}
\tl_gset:cn {c__nicematrix_120_tl}{\seq_gset_from_clist:Nn \g__nicematrix_size_seq {1,4,4,1,3,3}}
\ExplSyntaxOff 
\ExplSyntaxOn 
\char_set_catcode_space:n {32}
\tl_gset:cn {c__nicematrix_121_tl}{\seq_gset_from_clist:Nn \g__nicematrix_size_seq {1,4,4,1,4,4}}
\ExplSyntaxOff 
\ExplSyntaxOn 
\char_set_catcode_space:n {32}
\tl_gset:cn {c__nicematrix_122_tl}{\seq_gset_from_clist:Nn \g__nicematrix_size_seq {1,4,4,1,4,4}}
\ExplSyntaxOff 
\ExplSyntaxOn 
\char_set_catcode_space:n {32}
\tl_gset:cn {c__nicematrix_123_tl}{\seq_gset_from_clist:Nn \g__nicematrix_size_seq {1,4,4,1,4,4}}
\ExplSyntaxOff 
\ExplSyntaxOn 
\char_set_catcode_space:n {32}
\tl_gset:cn {c__nicematrix_124_tl}{\seq_gset_from_clist:Nn \g__nicematrix_size_seq {1,4,4,1,1,1}}
\ExplSyntaxOff 
\gdef\pointsofq@iv{24}
\gdef\bonuspointsofq@iv{0}
\PgInfo{question@4}{4}
\PgInfo{question4@object1}{4}
\newlabel{question@4}{{\textbf  {Problem 4}}{4}{}{}{}}
\PgInfo{part@4@1}{4}
\PgInfo{question4@object2}{4}
\newlabel{part@4@1}{{a}{4}{}{}{}}
\newlabel{firstpoints@onpage@4}{{a}{4}{}{}{}}
\PgInfo{question4@object3}{4}
\PgInfo{question4@object4}{4}
\PgInfo{question4@object5}{4}
\PgInfo{question4@object6}{4}
\PgInfo{question4@object7}{4}
\PgInfo{part@4@2}{4}
\PgInfo{question4@object8}{4}
\newlabel{part@4@2}{{b}{4}{}{}{}}
\PgInfo{question4@object9}{4}
\PgInfo{question4@object10}{4}
\PgInfo{question4@object11}{4}
\PgInfo{question4@object12}{4}
\PgInfo{question4@object13}{4}
\PgInfo{part@4@3}{4}
\PgInfo{question4@object14}{4}
\newlabel{part@4@3}{{c}{4}{}{}{}}
\PgInfo{part@4@4}{4}
\PgInfo{question4@object15}{4}
\newlabel{part@4@4}{{d}{4}{}{}{}}
\pgfsyspdfmark {pgfid2095}{9129778}{18382709}
\pgfsyspdfmark {pgfid2096}{9967185}{17832209}
\pgfsyspdfmark {pgfid2097}{10131025}{17832209}
\pgfsyspdfmark {pgfid2098}{11368929}{17832209}
\pgfsyspdfmark {pgfid2099}{12606833}{17832209}
\pgfsyspdfmark {pgfid2100}{14099600}{17832209}
\pgfsyspdfmark {pgfid2101}{9129778}{17596277}
\pgfsyspdfmark {pgfid2102}{9457459}{17045777}
\pgfsyspdfmark {pgfid2103}{9876162}{17045777}
\pgfsyspdfmark {pgfid2104}{11623792}{17045777}
\pgfsyspdfmark {pgfid2105}{12606833}{17045777}
\pgfsyspdfmark {pgfid2106}{13844737}{17045777}
\pgfsyspdfmark {pgfid2107}{9129778}{16809845}
\pgfsyspdfmark {pgfid2108}{9967185}{16259345}
\pgfsyspdfmark {pgfid2109}{10131025}{16259345}
\pgfsyspdfmark {pgfid2110}{11623792}{16259345}
\pgfsyspdfmark {pgfid2111}{12606833}{16259345}
\pgfsyspdfmark {pgfid2112}{14099600}{16259345}
\pgfsyspdfmark {pgfid2113}{9129778}{16023413}
\pgfsyspdfmark {pgfid2114}{9967185}{15472913}
\pgfsyspdfmark {pgfid2115}{10131025}{15472913}
\pgfsyspdfmark {pgfid2116}{11368929}{15472913}
\pgfsyspdfmark {pgfid2117}{12606833}{15472913}
\pgfsyspdfmark {pgfid2118}{14099600}{15472913}
\pgfsyspdfmark {pgfid2119}{9129778}{15236981}
\pgfsyspdfmark {pgfid2120}{9129778}{15236981}
\pgfsyspdfmark {pgfid2121}{10622545}{15236981}
\pgfsyspdfmark {pgfid2122}{12115312}{15236981}
\pgfsyspdfmark {pgfid2123}{13098353}{15236981}
\pgfsyspdfmark {pgfid2124}{14591120}{15236981}
\pgfsyspdfmark {pgfid2125}{14700348}{16619791}
\pgfsyspdfmark {pgfid2127}{14700348}{16619791}
\pgfsyspdfmark {pgfid2168}{15683382}{18749715}
\pgfsyspdfmark {pgfid2169}{16381220}{17438993}
\pgfsyspdfmark {pgfid2170}{15683382}{17203061}
\pgfsyspdfmark {pgfid2171}{16011063}{16652561}
\pgfsyspdfmark {pgfid2172}{16381220}{16652561}
\pgfsyspdfmark {pgfid2173}{17776895}{16652561}
\pgfsyspdfmark {pgfid2174}{19172570}{16652561}
\pgfsyspdfmark {pgfid2175}{20568245}{16652561}
\pgfsyspdfmark {pgfid2176}{15683382}{16416629}
\pgfsyspdfmark {pgfid2177}{16381220}{15105907}
\pgfsyspdfmark {pgfid2178}{15683382}{14869975}
\pgfsyspdfmark {pgfid2179}{15683382}{14869975}
\pgfsyspdfmark {pgfid2180}{17079057}{14869975}
\pgfsyspdfmark {pgfid2181}{18474732}{14869975}
\pgfsyspdfmark {pgfid2182}{19870407}{14869975}
\pgfsyspdfmark {pgfid2183}{21266082}{14869975}
\pgfsyspdfmark {pgfid2184}{21375310}{16619791}
\pgfsyspdfmark {pgfid2186}{21375310}{16619791}
\pgfsyspdfmark {pgfid2187}{21375310}{16619791}
\pgfsyspdfmark {pgfid2230}{21484538}{18382709}
\pgfsyspdfmark {pgfid2231}{21812219}{17832209}
\pgfsyspdfmark {pgfid2232}{22150368}{17832209}
\pgfsyspdfmark {pgfid2233}{21484538}{17596277}
\pgfsyspdfmark {pgfid2234}{22150368}{17045777}
\pgfsyspdfmark {pgfid2235}{23307718}{17045777}
\pgfsyspdfmark {pgfid2236}{21484538}{16809845}
\pgfsyspdfmark {pgfid2237}{22150368}{16259345}
\pgfsyspdfmark {pgfid2238}{24290759}{16259345}
\pgfsyspdfmark {pgfid2239}{21484538}{16023413}
\pgfsyspdfmark {pgfid2240}{22150368}{15472913}
\pgfsyspdfmark {pgfid2241}{25528663}{15472913}
\pgfsyspdfmark {pgfid2242}{21484538}{15236981}
\pgfsyspdfmark {pgfid2243}{21484538}{15236981}
\pgfsyspdfmark {pgfid2244}{22816197}{15236981}
\pgfsyspdfmark {pgfid2245}{23799238}{15236981}
\pgfsyspdfmark {pgfid2246}{24782279}{15236981}
\pgfsyspdfmark {pgfid2247}{26275046}{15236981}
\pgfsyspdfmark {pgfid2248}{26384274}{16619791}
\pgfsyspdfmark {pgfid2250}{26384274}{16619791}
\pgfsyspdfmark {pgfid2309}{26821182}{18546549}
\pgfsyspdfmark {pgfid2310}{27148863}{17996049}
\pgfsyspdfmark {pgfid2311}{27804224}{17996049}
\pgfsyspdfmark {pgfid2312}{29502852}{17996049}
\pgfsyspdfmark {pgfid2313}{31201480}{17996049}
\pgfsyspdfmark {pgfid2314}{26821182}{17678197}
\pgfsyspdfmark {pgfid2315}{27148863}{17127697}
\pgfsyspdfmark {pgfid2316}{27804224}{17127697}
\pgfsyspdfmark {pgfid2317}{29502852}{17127697}
\pgfsyspdfmark {pgfid2318}{31201480}{17127697}
\pgfsyspdfmark {pgfid2319}{26821182}{16809845}
\pgfsyspdfmark {pgfid2320}{27148863}{16259345}
\pgfsyspdfmark {pgfid2321}{27804224}{16259345}
\pgfsyspdfmark {pgfid2322}{29502852}{16259345}
\pgfsyspdfmark {pgfid2323}{31201480}{16259345}
\pgfsyspdfmark {pgfid2324}{26821182}{15941493}
\pgfsyspdfmark {pgfid2325}{27148863}{15390993}
\pgfsyspdfmark {pgfid2326}{27804224}{15390993}
\pgfsyspdfmark {pgfid2327}{29502852}{15390993}
\pgfsyspdfmark {pgfid2328}{31201480}{15390993}
\pgfsyspdfmark {pgfid2329}{26821182}{15073141}
\pgfsyspdfmark {pgfid2330}{26821182}{15073141}
\pgfsyspdfmark {pgfid2331}{28787265}{15073141}
\pgfsyspdfmark {pgfid2332}{30218438}{15073141}
\pgfsyspdfmark {pgfid2333}{32184521}{15073141}
\pgfsyspdfmark {pgfid2334}{32621429}{16619791}
\pgfsyspdfmark {pgfid2336}{32621429}{16619791}
\pgfsyspdfmark {pgfid2337}{32621429}{16619791}
\pgfsyspdfmark {pgfid2404}{15810651}{12134545}
\pgfsyspdfmark {pgfid2405}{16138332}{11584045}
\pgfsyspdfmark {pgfid2406}{16557035}{11584045}
\pgfsyspdfmark {pgfid2407}{18304665}{11584045}
\pgfsyspdfmark {pgfid2408}{19542569}{11584045}
\pgfsyspdfmark {pgfid2409}{21035336}{11584045}
\pgfsyspdfmark {pgfid2410}{15810651}{11348113}
\pgfsyspdfmark {pgfid2411}{16648058}{10797613}
\pgfsyspdfmark {pgfid2412}{16811898}{10797613}
\pgfsyspdfmark {pgfid2413}{18304665}{10797613}
\pgfsyspdfmark {pgfid2414}{19542569}{10797613}
\pgfsyspdfmark {pgfid2415}{21290199}{10797613}
\pgfsyspdfmark {pgfid2416}{15810651}{10561681}
\pgfsyspdfmark {pgfid2417}{16138332}{10011181}
\pgfsyspdfmark {pgfid2418}{16557035}{10011181}
\pgfsyspdfmark {pgfid2419}{18049802}{10011181}
\pgfsyspdfmark {pgfid2420}{19542569}{10011181}
\pgfsyspdfmark {pgfid2421}{21035336}{10011181}
\pgfsyspdfmark {pgfid2422}{15810651}{9775249}
\pgfsyspdfmark {pgfid2423}{16138332}{9224749}
\pgfsyspdfmark {pgfid2424}{16557035}{9224749}
\pgfsyspdfmark {pgfid2425}{18304665}{9224749}
\pgfsyspdfmark {pgfid2426}{19542569}{9224749}
\pgfsyspdfmark {pgfid2427}{21035336}{9224749}
\pgfsyspdfmark {pgfid2428}{15810651}{8988817}
\pgfsyspdfmark {pgfid2429}{15810651}{8988817}
\pgfsyspdfmark {pgfid2430}{17303418}{8988817}
\pgfsyspdfmark {pgfid2431}{18796185}{8988817}
\pgfsyspdfmark {pgfid2432}{20288952}{8988817}
\pgfsyspdfmark {pgfid2433}{21781719}{8988817}
\pgfsyspdfmark {pgfid2434}{21890947}{10371627}
\pgfsyspdfmark {pgfid2436}{21890947}{10371627}
\pgfsyspdfmark {pgfid2437}{27521697}{12134545}
\pgfsyspdfmark {pgfid2438}{28359104}{11584045}
\pgfsyspdfmark {pgfid2439}{28522944}{11584045}
\pgfsyspdfmark {pgfid2440}{27521697}{11348113}
\pgfsyspdfmark {pgfid2441}{28359104}{10797613}
\pgfsyspdfmark {pgfid2442}{28522944}{10797613}
\pgfsyspdfmark {pgfid2443}{27521697}{10561681}
\pgfsyspdfmark {pgfid2444}{28359104}{10011181}
\pgfsyspdfmark {pgfid2445}{28522944}{10011181}
\pgfsyspdfmark {pgfid2446}{27521697}{9775249}
\pgfsyspdfmark {pgfid2447}{27849378}{9224749}
\pgfsyspdfmark {pgfid2448}{28268081}{9224749}
\pgfsyspdfmark {pgfid2449}{27521697}{8988817}
\pgfsyspdfmark {pgfid2450}{27521697}{8988817}
\pgfsyspdfmark {pgfid2451}{29014464}{8988817}
\pgfsyspdfmark {pgfid2452}{29014464}{8988817}
\pgfsyspdfmark {pgfid2453}{29123692}{10371627}
\pgfsyspdfmark {pgfid2455}{29123692}{10371627}
\gdef\exam@lastpage{4}
\gdef\exam@lastcoverpage{1}
\gdef\exam@totalpages{5}
\gdef\exam@numpoints{100}
\gdef\exam@numbonuspoints{0}
\gdef\exam@numquestions{4}
\gdef\exam@numparts{11}
\gdef\exam@numsubparts{0}
\gdef\exam@numsubsubparts{0}
\gdef\pointsonpage@iv{24}
\gdef\lastpage@withpoints{4}
\gdef\lastpage@withbonuspoints{0}
\gdef \@abspage@last{5}
