\relax 
\nicematrix@redefine@check@rerun 
\ExplSyntaxOn \cs_if_free:NT \pgfsyspdfmark {\cs_set_eq:NN \pgfsyspdfmark \@gobblethree }\ExplSyntaxOff 
\ExplSyntaxOn 
\char_set_catcode_space:n {32}
\tl_gset:cn {c__nicematrix_1_tl}{\seq_gset_from_clist:Nn \g__nicematrix_size_seq {1,5,5,1,3,3}}
\ExplSyntaxOff 
\ExplSyntaxOn 
\char_set_catcode_space:n {32}
\tl_gset:cn {c__nicematrix_2_tl}{\seq_gset_from_clist:Nn \g__nicematrix_size_seq {1,3,3,1,3,3}}
\ExplSyntaxOff 
\ExplSyntaxOn 
\char_set_catcode_space:n {32}
\tl_gset:cn {c__nicematrix_3_tl}{\seq_gset_from_clist:Nn \g__nicematrix_size_seq {1,5,5,1,3,3}}
\ExplSyntaxOff 
\ExplSyntaxOn 
\char_set_catcode_space:n {32}
\tl_gset:cn {c__nicematrix_4_tl}{\seq_gset_from_clist:Nn \g__nicematrix_size_seq {1,3,3,1,3,3}}
\ExplSyntaxOff 
\ExplSyntaxOn 
\char_set_catcode_space:n {32}
\tl_gset:cn {c__nicematrix_5_tl}{\seq_gset_from_clist:Nn \g__nicematrix_size_seq {1,1,1,1,5,5}}
\ExplSyntaxOff 
\ExplSyntaxOn 
\char_set_catcode_space:n {32}
\tl_gset:cn {c__nicematrix_6_tl}{\seq_gset_from_clist:Nn \g__nicematrix_size_seq {1,3,3,1,3,3}}
\ExplSyntaxOff 
\ExplSyntaxOn 
\char_set_catcode_space:n {32}
\tl_gset:cn {c__nicematrix_7_tl}{\seq_gset_from_clist:Nn \g__nicematrix_size_seq {1,3,3,1,3,3}}
\ExplSyntaxOff 
\ExplSyntaxOn 
\char_set_catcode_space:n {32}
\tl_gset:cn {c__nicematrix_8_tl}{\seq_gset_from_clist:Nn \g__nicematrix_size_seq {1,3,3,1,3,3}}
\ExplSyntaxOff 
\ExplSyntaxOn 
\char_set_catcode_space:n {32}
\tl_gset:cn {c__nicematrix_9_tl}{\seq_gset_from_clist:Nn \g__nicematrix_size_seq {1,3,3,1,5,5}}
\ExplSyntaxOff 
\ExplSyntaxOn 
\char_set_catcode_space:n {32}
\tl_gset:cn {c__nicematrix_10_tl}{\seq_gset_from_clist:Nn \g__nicematrix_size_seq {1,3,3,1,5,5}}
\ExplSyntaxOff 
\ExplSyntaxOn 
\char_set_catcode_space:n {32}
\tl_gset:cn {c__nicematrix_11_tl}{\seq_gset_from_clist:Nn \g__nicematrix_size_seq {1,3,3,1,5,5}}
\ExplSyntaxOff 
\ExplSyntaxOn 
\char_set_catcode_space:n {32}
\tl_gset:cn {c__nicematrix_12_tl}{\seq_gset_from_clist:Nn \g__nicematrix_size_seq {1,5,5,1,1,1}}
\ExplSyntaxOff 
\ExplSyntaxOn 
\char_set_catcode_space:n {32}
\tl_gset:cn {c__nicematrix_13_tl}{\seq_gset_from_clist:Nn \g__nicematrix_size_seq {1,5,5,1,1,1}}
\ExplSyntaxOff 
\ExplSyntaxOn 
\char_set_catcode_space:n {32}
\tl_gset:cn {c__nicematrix_14_tl}{\seq_gset_from_clist:Nn \g__nicematrix_size_seq {1,5,5,1,1,1}}
\ExplSyntaxOff 
\ExplSyntaxOn 
\char_set_catcode_space:n {32}
\tl_gset:cn {c__nicematrix_15_tl}{\seq_gset_from_clist:Nn \g__nicematrix_size_seq {1,3,3,1,3,3}}
\ExplSyntaxOff 
\ExplSyntaxOn 
\char_set_catcode_space:n {32}
\tl_gset:cn {c__nicematrix_16_tl}{\seq_gset_from_clist:Nn \g__nicematrix_size_seq {1,3,3,1,5,5}}
\ExplSyntaxOff 
\ExplSyntaxOn 
\char_set_catcode_space:n {32}
\tl_gset:cn {c__nicematrix_17_tl}{\seq_gset_from_clist:Nn \g__nicematrix_size_seq {1,5,5,1,1,1}}
\ExplSyntaxOff 
\ExplSyntaxOn 
\char_set_catcode_space:n {32}
\tl_gset:cn {c__nicematrix_18_tl}{\seq_gset_from_clist:Nn \g__nicematrix_size_seq {1,3,3,1,3,3}}
\ExplSyntaxOff 
\ExplSyntaxOn 
\char_set_catcode_space:n {32}
\tl_gset:cn {c__nicematrix_19_tl}{\seq_gset_from_clist:Nn \g__nicematrix_size_seq {1,3,3,1,1,1}}
\ExplSyntaxOff 
\ExplSyntaxOn 
\char_set_catcode_space:n {32}
\tl_gset:cn {c__nicematrix_20_tl}{\seq_gset_from_clist:Nn \g__nicematrix_size_seq {1,3,3,1,1,1}}
\ExplSyntaxOff 
\ExplSyntaxOn 
\char_set_catcode_space:n {32}
\tl_gset:cn {c__nicematrix_21_tl}{\seq_gset_from_clist:Nn \g__nicematrix_size_seq {1,3,3,1,3,3}}
\ExplSyntaxOff 
\ExplSyntaxOn 
\char_set_catcode_space:n {32}
\tl_gset:cn {c__nicematrix_22_tl}{\seq_gset_from_clist:Nn \g__nicematrix_size_seq {1,3,3,1,3,3}}
\ExplSyntaxOff 
\ExplSyntaxOn 
\char_set_catcode_space:n {32}
\tl_gset:cn {c__nicematrix_23_tl}{\seq_gset_from_clist:Nn \g__nicematrix_size_seq {1,3,3,1,3,3}}
\ExplSyntaxOff 
\ExplSyntaxOn 
\char_set_catcode_space:n {32}
\tl_gset:cn {c__nicematrix_24_tl}{\seq_gset_from_clist:Nn \g__nicematrix_size_seq {1,3,3,1,5,5}}
\ExplSyntaxOff 
\ExplSyntaxOn 
\char_set_catcode_space:n {32}
\tl_gset:cn {c__nicematrix_25_tl}{\seq_gset_from_clist:Nn \g__nicematrix_size_seq {1,3,3,1,5,5}}
\ExplSyntaxOff 
\ExplSyntaxOn 
\char_set_catcode_space:n {32}
\tl_gset:cn {c__nicematrix_26_tl}{\seq_gset_from_clist:Nn \g__nicematrix_size_seq {1,3,3,1,5,5}}
\ExplSyntaxOff 
\ExplSyntaxOn 
\char_set_catcode_space:n {32}
\tl_gset:cn {c__nicematrix_27_tl}{\seq_gset_from_clist:Nn \g__nicematrix_size_seq {1,5,5,1,1,1}}
\ExplSyntaxOff 
\ExplSyntaxOn 
\char_set_catcode_space:n {32}
\tl_gset:cn {c__nicematrix_28_tl}{\seq_gset_from_clist:Nn \g__nicematrix_size_seq {1,5,5,1,1,1}}
\ExplSyntaxOff 
\ExplSyntaxOn 
\char_set_catcode_space:n {32}
\tl_gset:cn {c__nicematrix_29_tl}{\seq_gset_from_clist:Nn \g__nicematrix_size_seq {1,5,5,1,1,1}}
\ExplSyntaxOff 
\ExplSyntaxOn 
\char_set_catcode_space:n {32}
\tl_gset:cn {c__nicematrix_30_tl}{\seq_gset_from_clist:Nn \g__nicematrix_size_seq {1,3,3,1,3,3}}
\ExplSyntaxOff 
\ExplSyntaxOn 
\char_set_catcode_space:n {32}
\tl_gset:cn {c__nicematrix_31_tl}{\seq_gset_from_clist:Nn \g__nicematrix_size_seq {1,3,3,1,5,5}}
\ExplSyntaxOff 
\ExplSyntaxOn 
\char_set_catcode_space:n {32}
\tl_gset:cn {c__nicematrix_32_tl}{\seq_gset_from_clist:Nn \g__nicematrix_size_seq {1,5,5,1,1,1}}
\ExplSyntaxOff 
\ExplSyntaxOn 
\char_set_catcode_space:n {32}
\tl_gset:cn {c__nicematrix_33_tl}{\seq_gset_from_clist:Nn \g__nicematrix_size_seq {1,3,3,1,3,3}}
\ExplSyntaxOff 
\ExplSyntaxOn 
\char_set_catcode_space:n {32}
\tl_gset:cn {c__nicematrix_34_tl}{\seq_gset_from_clist:Nn \g__nicematrix_size_seq {1,3,3,1,1,1}}
\ExplSyntaxOff 
\ExplSyntaxOn 
\char_set_catcode_space:n {32}
\tl_gset:cn {c__nicematrix_35_tl}{\seq_gset_from_clist:Nn \g__nicematrix_size_seq {1,3,3,1,1,1}}
\ExplSyntaxOff 
\PgInfo{question@1}{1}
\PgInfo{question1@object1}{1}
\newlabel{question@1}{{\textbf  {Problem 1}}{1}{}{}{}}
\pgfsyspdfmark {pgfid58}{8037101}{47467086}
\pgfsyspdfmark {pgfid59}{8874508}{46916586}
\pgfsyspdfmark {pgfid60}{9038348}{46916586}
\pgfsyspdfmark {pgfid61}{10276252}{46916586}
\pgfsyspdfmark {pgfid62}{12023882}{46916586}
\pgfsyspdfmark {pgfid63}{8037101}{46680654}
\pgfsyspdfmark {pgfid64}{8364782}{46130154}
\pgfsyspdfmark {pgfid65}{8783485}{46130154}
\pgfsyspdfmark {pgfid66}{10276252}{46130154}
\pgfsyspdfmark {pgfid67}{11769019}{46130154}
\pgfsyspdfmark {pgfid68}{8037101}{45894222}
\pgfsyspdfmark {pgfid69}{8364782}{45343722}
\pgfsyspdfmark {pgfid70}{8783485}{45343722}
\pgfsyspdfmark {pgfid71}{10531115}{45343722}
\pgfsyspdfmark {pgfid72}{12023882}{45343722}
\pgfsyspdfmark {pgfid73}{8037101}{45107790}
\pgfsyspdfmark {pgfid74}{8874508}{44557290}
\pgfsyspdfmark {pgfid75}{9038348}{44557290}
\pgfsyspdfmark {pgfid76}{10276252}{44557290}
\pgfsyspdfmark {pgfid77}{11769019}{44557290}
\pgfsyspdfmark {pgfid78}{8037101}{44321358}
\pgfsyspdfmark {pgfid79}{8874508}{43770858}
\pgfsyspdfmark {pgfid80}{9038348}{43770858}
\pgfsyspdfmark {pgfid81}{10276252}{43770858}
\pgfsyspdfmark {pgfid82}{12023882}{43770858}
\pgfsyspdfmark {pgfid83}{8037101}{43534926}
\pgfsyspdfmark {pgfid84}{8037101}{43534926}
\pgfsyspdfmark {pgfid85}{9529868}{43534926}
\pgfsyspdfmark {pgfid86}{11022635}{43534926}
\pgfsyspdfmark {pgfid87}{12515402}{43534926}
\pgfsyspdfmark {pgfid88}{12624630}{45310952}
\pgfsyspdfmark {pgfid90}{12624630}{45310952}
\pgfsyspdfmark {pgfid91}{18010869}{46680654}
\pgfsyspdfmark {pgfid92}{18338550}{46130154}
\pgfsyspdfmark {pgfid93}{18921094}{46130154}
\pgfsyspdfmark {pgfid94}{20741543}{46130154}
\pgfsyspdfmark {pgfid95}{22816855}{46130154}
\pgfsyspdfmark {pgfid96}{18010869}{45894222}
\pgfsyspdfmark {pgfid97}{19175958}{45343722}
\pgfsyspdfmark {pgfid98}{19339798}{45343722}
\pgfsyspdfmark {pgfid99}{20996406}{45343722}
\pgfsyspdfmark {pgfid100}{22561992}{45343722}
\pgfsyspdfmark {pgfid101}{18010869}{45107790}
\pgfsyspdfmark {pgfid102}{19175958}{44557290}
\pgfsyspdfmark {pgfid103}{19339798}{44557290}
\pgfsyspdfmark {pgfid104}{21160247}{44557290}
\pgfsyspdfmark {pgfid105}{22561992}{44557290}
\pgfsyspdfmark {pgfid106}{18010869}{44321358}
\pgfsyspdfmark {pgfid107}{18010869}{44321358}
\pgfsyspdfmark {pgfid108}{19831318}{44321358}
\pgfsyspdfmark {pgfid109}{21651767}{44321358}
\pgfsyspdfmark {pgfid110}{23472216}{44321358}
\pgfsyspdfmark {pgfid111}{23581444}{45310952}
\pgfsyspdfmark {pgfid113}{23581444}{45310952}
\PgInfo{part@1@1}{1}
\PgInfo{question1@object2}{1}
\newlabel{part@1@1}{{a}{1}{}{}{}}
\newlabel{firstpoints@onpage@1}{{a}{1}{}{}{}}
\PgInfo{part@1@2}{1}
\PgInfo{question1@object3}{1}
\newlabel{part@1@2}{{b}{1}{}{}{}}
\PgInfo{part@1@3}{1}
\PgInfo{question1@object4}{1}
\newlabel{part@1@3}{{c}{1}{}{}{}}
\PgInfo{question1@object5}{1}
\PgInfo{question1@object6}{1}
\PgInfo{question1@object7}{1}
\PgInfo{question1@object8}{1}
\PgInfo{question1@object9}{1}
\PgInfo{part@1@4}{1}
\PgInfo{question1@object10}{1}
\newlabel{part@1@4}{{d}{1}{}{}{}}
\pgfsyspdfmark {pgfid114}{7297884}{28985904}
\pgfsyspdfmark {pgfid115}{7625565}{28435404}
\pgfsyspdfmark {pgfid116}{7789405}{28435404}
\pgfsyspdfmark {pgfid117}{8772446}{28435404}
\pgfsyspdfmark {pgfid118}{10083168}{28435404}
\pgfsyspdfmark {pgfid119}{11393890}{28435404}
\pgfsyspdfmark {pgfid120}{12376931}{28435404}
\pgfsyspdfmark {pgfid121}{7297884}{28199472}
\pgfsyspdfmark {pgfid122}{7297884}{28199472}
\pgfsyspdfmark {pgfid123}{8280925}{28199472}
\pgfsyspdfmark {pgfid124}{9263966}{28199472}
\pgfsyspdfmark {pgfid125}{10902369}{28199472}
\pgfsyspdfmark {pgfid126}{11885410}{28199472}
\pgfsyspdfmark {pgfid127}{12868451}{28199472}
\pgfsyspdfmark {pgfid128}{12813839}{28402634}
\pgfsyspdfmark {pgfid130}{12813839}{28402634}
\gdef\pointsofq@i{27}
\gdef\bonuspointsofq@i{0}
\gdef\pointsonpage@i{27}
\ExplSyntaxOn 
\char_set_catcode_space:n {32}
\tl_gset:cn {c__nicematrix_36_tl}{\seq_gset_from_clist:Nn \g__nicematrix_size_seq {1,2,2,1,2,2}}
\ExplSyntaxOff 
\ExplSyntaxOn 
\char_set_catcode_space:n {32}
\tl_gset:cn {c__nicematrix_37_tl}{\seq_gset_from_clist:Nn \g__nicematrix_size_seq {1,2,2,1,1,1}}
\ExplSyntaxOff 
\ExplSyntaxOn 
\char_set_catcode_space:n {32}
\tl_gset:cn {c__nicematrix_38_tl}{\seq_gset_from_clist:Nn \g__nicematrix_size_seq {1,2,2,1,2,2}}
\ExplSyntaxOff 
\ExplSyntaxOn 
\char_set_catcode_space:n {32}
\tl_gset:cn {c__nicematrix_39_tl}{\seq_gset_from_clist:Nn \g__nicematrix_size_seq {1,2,2,1,1,1}}
\ExplSyntaxOff 
\ExplSyntaxOn 
\char_set_catcode_space:n {32}
\tl_gset:cn {c__nicematrix_40_tl}{\seq_gset_from_clist:Nn \g__nicematrix_size_seq {1,2,2,1,2,2}}
\ExplSyntaxOff 
\ExplSyntaxOn 
\char_set_catcode_space:n {32}
\tl_gset:cn {c__nicematrix_41_tl}{\seq_gset_from_clist:Nn \g__nicematrix_size_seq {1,2,2,1,2,2}}
\ExplSyntaxOff 
\ExplSyntaxOn 
\char_set_catcode_space:n {32}
\tl_gset:cn {c__nicematrix_42_tl}{\seq_gset_from_clist:Nn \g__nicematrix_size_seq {1,2,2,1,2,2}}
\ExplSyntaxOff 
\ExplSyntaxOn 
\char_set_catcode_space:n {32}
\tl_gset:cn {c__nicematrix_43_tl}{\seq_gset_from_clist:Nn \g__nicematrix_size_seq {1,2,2,1,1,1}}
\ExplSyntaxOff 
\ExplSyntaxOn 
\char_set_catcode_space:n {32}
\tl_gset:cn {c__nicematrix_44_tl}{\seq_gset_from_clist:Nn \g__nicematrix_size_seq {1,2,2,1,2,2}}
\ExplSyntaxOff 
\ExplSyntaxOn 
\char_set_catcode_space:n {32}
\tl_gset:cn {c__nicematrix_45_tl}{\seq_gset_from_clist:Nn \g__nicematrix_size_seq {1,2,2,1,2,2}}
\ExplSyntaxOff 
\ExplSyntaxOn 
\char_set_catcode_space:n {32}
\tl_gset:cn {c__nicematrix_46_tl}{\seq_gset_from_clist:Nn \g__nicematrix_size_seq {1,2,2,1,2,2}}
\ExplSyntaxOff 
\ExplSyntaxOn 
\char_set_catcode_space:n {32}
\tl_gset:cn {c__nicematrix_47_tl}{\seq_gset_from_clist:Nn \g__nicematrix_size_seq {1,2,2,1,1,1}}
\ExplSyntaxOff 
\ExplSyntaxOn 
\char_set_catcode_space:n {32}
\tl_gset:cn {c__nicematrix_48_tl}{\seq_gset_from_clist:Nn \g__nicematrix_size_seq {1,2,2,1,2,2}}
\ExplSyntaxOff 
\ExplSyntaxOn 
\char_set_catcode_space:n {32}
\tl_gset:cn {c__nicematrix_49_tl}{\seq_gset_from_clist:Nn \g__nicematrix_size_seq {1,2,2,1,2,2}}
\ExplSyntaxOff 
\ExplSyntaxOn 
\char_set_catcode_space:n {32}
\tl_gset:cn {c__nicematrix_50_tl}{\seq_gset_from_clist:Nn \g__nicematrix_size_seq {1,2,2,1,2,2}}
\ExplSyntaxOff 
\ExplSyntaxOn 
\char_set_catcode_space:n {32}
\tl_gset:cn {c__nicematrix_51_tl}{\seq_gset_from_clist:Nn \g__nicematrix_size_seq {1,2,2,1,1,1}}
\ExplSyntaxOff 
\ExplSyntaxOn 
\char_set_catcode_space:n {32}
\tl_gset:cn {c__nicematrix_52_tl}{\seq_gset_from_clist:Nn \g__nicematrix_size_seq {1,2,2,1,2,2}}
\ExplSyntaxOff 
\ExplSyntaxOn 
\char_set_catcode_space:n {32}
\tl_gset:cn {c__nicematrix_53_tl}{\seq_gset_from_clist:Nn \g__nicematrix_size_seq {1,2,2,1,2,2}}
\ExplSyntaxOff 
\ExplSyntaxOn 
\char_set_catcode_space:n {32}
\tl_gset:cn {c__nicematrix_54_tl}{\seq_gset_from_clist:Nn \g__nicematrix_size_seq {1,2,2,1,2,2}}
\ExplSyntaxOff 
\ExplSyntaxOn 
\char_set_catcode_space:n {32}
\tl_gset:cn {c__nicematrix_55_tl}{\seq_gset_from_clist:Nn \g__nicematrix_size_seq {1,2,2,1,1,1}}
\ExplSyntaxOff 
\ExplSyntaxOn 
\char_set_catcode_space:n {32}
\tl_gset:cn {c__nicematrix_56_tl}{\seq_gset_from_clist:Nn \g__nicematrix_size_seq {1,2,2,1,2,2}}
\ExplSyntaxOff 
\ExplSyntaxOn 
\char_set_catcode_space:n {32}
\tl_gset:cn {c__nicematrix_57_tl}{\seq_gset_from_clist:Nn \g__nicematrix_size_seq {1,2,2,1,2,2}}
\ExplSyntaxOff 
\ExplSyntaxOn 
\char_set_catcode_space:n {32}
\tl_gset:cn {c__nicematrix_58_tl}{\seq_gset_from_clist:Nn \g__nicematrix_size_seq {1,2,2,1,2,2}}
\ExplSyntaxOff 
\ExplSyntaxOn 
\char_set_catcode_space:n {32}
\tl_gset:cn {c__nicematrix_59_tl}{\seq_gset_from_clist:Nn \g__nicematrix_size_seq {1,2,2,1,2,2}}
\ExplSyntaxOff 
\ExplSyntaxOn 
\char_set_catcode_space:n {32}
\tl_gset:cn {c__nicematrix_60_tl}{\seq_gset_from_clist:Nn \g__nicematrix_size_seq {1,2,2,1,2,2}}
\ExplSyntaxOff 
\ExplSyntaxOn 
\char_set_catcode_space:n {32}
\tl_gset:cn {c__nicematrix_61_tl}{\seq_gset_from_clist:Nn \g__nicematrix_size_seq {1,2,2,1,2,2}}
\ExplSyntaxOff 
\ExplSyntaxOn 
\char_set_catcode_space:n {32}
\tl_gset:cn {c__nicematrix_62_tl}{\seq_gset_from_clist:Nn \g__nicematrix_size_seq {1,2,2,1,2,2}}
\ExplSyntaxOff 
\ExplSyntaxOn 
\char_set_catcode_space:n {32}
\tl_gset:cn {c__nicematrix_63_tl}{\seq_gset_from_clist:Nn \g__nicematrix_size_seq {1,2,2,1,2,2}}
\ExplSyntaxOff 
\ExplSyntaxOn 
\char_set_catcode_space:n {32}
\tl_gset:cn {c__nicematrix_64_tl}{\seq_gset_from_clist:Nn \g__nicematrix_size_seq {1,2,2,1,2,2}}
\ExplSyntaxOff 
\ExplSyntaxOn 
\char_set_catcode_space:n {32}
\tl_gset:cn {c__nicematrix_65_tl}{\seq_gset_from_clist:Nn \g__nicematrix_size_seq {1,2,2,1,2,2}}
\ExplSyntaxOff 
\ExplSyntaxOn 
\char_set_catcode_space:n {32}
\tl_gset:cn {c__nicematrix_66_tl}{\seq_gset_from_clist:Nn \g__nicematrix_size_seq {1,2,2,1,2,2}}
\ExplSyntaxOff 
\ExplSyntaxOn 
\char_set_catcode_space:n {32}
\tl_gset:cn {c__nicematrix_67_tl}{\seq_gset_from_clist:Nn \g__nicematrix_size_seq {1,2,2,1,2,2}}
\ExplSyntaxOff 
\ExplSyntaxOn 
\char_set_catcode_space:n {32}
\tl_gset:cn {c__nicematrix_68_tl}{\seq_gset_from_clist:Nn \g__nicematrix_size_seq {1,2,2,1,2,2}}
\ExplSyntaxOff 
\ExplSyntaxOn 
\char_set_catcode_space:n {32}
\tl_gset:cn {c__nicematrix_69_tl}{\seq_gset_from_clist:Nn \g__nicematrix_size_seq {1,2,2,1,2,2}}
\ExplSyntaxOff 
\ExplSyntaxOn 
\char_set_catcode_space:n {32}
\tl_gset:cn {c__nicematrix_70_tl}{\seq_gset_from_clist:Nn \g__nicematrix_size_seq {1,2,2,1,2,2}}
\ExplSyntaxOff 
\ExplSyntaxOn 
\char_set_catcode_space:n {32}
\tl_gset:cn {c__nicematrix_71_tl}{\seq_gset_from_clist:Nn \g__nicematrix_size_seq {1,2,2,1,1,1}}
\ExplSyntaxOff 
\ExplSyntaxOn 
\char_set_catcode_space:n {32}
\tl_gset:cn {c__nicematrix_72_tl}{\seq_gset_from_clist:Nn \g__nicematrix_size_seq {1,2,2,1,1,1}}
\ExplSyntaxOff 
\ExplSyntaxOn 
\char_set_catcode_space:n {32}
\tl_gset:cn {c__nicematrix_73_tl}{\seq_gset_from_clist:Nn \g__nicematrix_size_seq {1,2,2,1,1,1}}
\ExplSyntaxOff 
\ExplSyntaxOn 
\char_set_catcode_space:n {32}
\tl_gset:cn {c__nicematrix_74_tl}{\seq_gset_from_clist:Nn \g__nicematrix_size_seq {1,2,2,1,2,2}}
\ExplSyntaxOff 
\ExplSyntaxOn 
\char_set_catcode_space:n {32}
\tl_gset:cn {c__nicematrix_75_tl}{\seq_gset_from_clist:Nn \g__nicematrix_size_seq {1,2,2,1,2,2}}
\ExplSyntaxOff 
\ExplSyntaxOn 
\char_set_catcode_space:n {32}
\tl_gset:cn {c__nicematrix_76_tl}{\seq_gset_from_clist:Nn \g__nicematrix_size_seq {1,2,2,1,1,1}}
\ExplSyntaxOff 
\ExplSyntaxOn 
\char_set_catcode_space:n {32}
\tl_gset:cn {c__nicematrix_77_tl}{\seq_gset_from_clist:Nn \g__nicematrix_size_seq {1,2,2,1,2,2}}
\ExplSyntaxOff 
\ExplSyntaxOn 
\char_set_catcode_space:n {32}
\tl_gset:cn {c__nicematrix_78_tl}{\seq_gset_from_clist:Nn \g__nicematrix_size_seq {1,2,2,1,1,1}}
\ExplSyntaxOff 
\ExplSyntaxOn 
\char_set_catcode_space:n {32}
\tl_gset:cn {c__nicematrix_79_tl}{\seq_gset_from_clist:Nn \g__nicematrix_size_seq {1,2,2,1,1,1}}
\ExplSyntaxOff 
\ExplSyntaxOn 
\char_set_catcode_space:n {32}
\tl_gset:cn {c__nicematrix_80_tl}{\seq_gset_from_clist:Nn \g__nicematrix_size_seq {1,2,2,1,2,2}}
\ExplSyntaxOff 
\ExplSyntaxOn 
\char_set_catcode_space:n {32}
\tl_gset:cn {c__nicematrix_81_tl}{\seq_gset_from_clist:Nn \g__nicematrix_size_seq {1,2,2,1,2,2}}
\ExplSyntaxOff 
\ExplSyntaxOn 
\char_set_catcode_space:n {32}
\tl_gset:cn {c__nicematrix_82_tl}{\seq_gset_from_clist:Nn \g__nicematrix_size_seq {1,2,2,1,2,2}}
\ExplSyntaxOff 
\ExplSyntaxOn 
\char_set_catcode_space:n {32}
\tl_gset:cn {c__nicematrix_83_tl}{\seq_gset_from_clist:Nn \g__nicematrix_size_seq {1,2,2,1,2,2}}
\ExplSyntaxOff 
\ExplSyntaxOn 
\char_set_catcode_space:n {32}
\tl_gset:cn {c__nicematrix_84_tl}{\seq_gset_from_clist:Nn \g__nicematrix_size_seq {1,2,2,1,2,2}}
\ExplSyntaxOff 
\ExplSyntaxOn 
\char_set_catcode_space:n {32}
\tl_gset:cn {c__nicematrix_85_tl}{\seq_gset_from_clist:Nn \g__nicematrix_size_seq {1,2,2,1,2,2}}
\ExplSyntaxOff 
\ExplSyntaxOn 
\char_set_catcode_space:n {32}
\tl_gset:cn {c__nicematrix_86_tl}{\seq_gset_from_clist:Nn \g__nicematrix_size_seq {1,2,2,1,2,2}}
\ExplSyntaxOff 
\ExplSyntaxOn 
\char_set_catcode_space:n {32}
\tl_gset:cn {c__nicematrix_87_tl}{\seq_gset_from_clist:Nn \g__nicematrix_size_seq {1,2,2,1,2,2}}
\ExplSyntaxOff 
\ExplSyntaxOn 
\char_set_catcode_space:n {32}
\tl_gset:cn {c__nicematrix_88_tl}{\seq_gset_from_clist:Nn \g__nicematrix_size_seq {1,2,2,1,2,2}}
\ExplSyntaxOff 
\ExplSyntaxOn 
\char_set_catcode_space:n {32}
\tl_gset:cn {c__nicematrix_89_tl}{\seq_gset_from_clist:Nn \g__nicematrix_size_seq {1,2,2,1,1,1}}
\ExplSyntaxOff 
\ExplSyntaxOn 
\char_set_catcode_space:n {32}
\tl_gset:cn {c__nicematrix_90_tl}{\seq_gset_from_clist:Nn \g__nicematrix_size_seq {1,2,2,1,1,1}}
\ExplSyntaxOff 
\ExplSyntaxOn 
\char_set_catcode_space:n {32}
\tl_gset:cn {c__nicematrix_91_tl}{\seq_gset_from_clist:Nn \g__nicematrix_size_seq {1,2,2,1,1,1}}
\ExplSyntaxOff 
\ExplSyntaxOn 
\char_set_catcode_space:n {32}
\tl_gset:cn {c__nicematrix_92_tl}{\seq_gset_from_clist:Nn \g__nicematrix_size_seq {1,2,2,1,2,2}}
\ExplSyntaxOff 
\ExplSyntaxOn 
\char_set_catcode_space:n {32}
\tl_gset:cn {c__nicematrix_93_tl}{\seq_gset_from_clist:Nn \g__nicematrix_size_seq {1,2,2,1,2,2}}
\ExplSyntaxOff 
\ExplSyntaxOn 
\char_set_catcode_space:n {32}
\tl_gset:cn {c__nicematrix_94_tl}{\seq_gset_from_clist:Nn \g__nicematrix_size_seq {1,2,2,1,1,1}}
\ExplSyntaxOff 
\ExplSyntaxOn 
\char_set_catcode_space:n {32}
\tl_gset:cn {c__nicematrix_95_tl}{\seq_gset_from_clist:Nn \g__nicematrix_size_seq {1,2,2,1,2,2}}
\ExplSyntaxOff 
\ExplSyntaxOn 
\char_set_catcode_space:n {32}
\tl_gset:cn {c__nicematrix_96_tl}{\seq_gset_from_clist:Nn \g__nicematrix_size_seq {1,2,2,1,1,1}}
\ExplSyntaxOff 
\ExplSyntaxOn 
\char_set_catcode_space:n {32}
\tl_gset:cn {c__nicematrix_97_tl}{\seq_gset_from_clist:Nn \g__nicematrix_size_seq {1,2,2,1,1,1}}
\ExplSyntaxOff 
\PgInfo{question@2}{2}
\PgInfo{question2@object1}{2}
\newlabel{question@2}{{\textbf  {Problem 2}}{2}{}{}{}}
\newlabel{firstpoints@onpage@2}{{\textbf  {Problem 2}}{2}{}{}{}}
\pgfsyspdfmark {pgfid877}{13476893}{48217121}
\pgfsyspdfmark {pgfid878}{13804574}{47666621}
\pgfsyspdfmark {pgfid879}{14223277}{47666621}
\pgfsyspdfmark {pgfid880}{15970907}{47666621}
\pgfsyspdfmark {pgfid881}{13476893}{47430689}
\pgfsyspdfmark {pgfid882}{14314300}{46880189}
\pgfsyspdfmark {pgfid883}{14478140}{46880189}
\pgfsyspdfmark {pgfid884}{15716044}{46880189}
\pgfsyspdfmark {pgfid885}{13476893}{46644257}
\pgfsyspdfmark {pgfid886}{13476893}{46644257}
\pgfsyspdfmark {pgfid887}{14969660}{46644257}
\pgfsyspdfmark {pgfid888}{16462427}{46644257}
\pgfsyspdfmark {pgfid889}{16480633}{47240635}
\pgfsyspdfmark {pgfid891}{16480633}{47240635}
\pgfsyspdfmark {pgfid892}{26654104}{48217121}
\pgfsyspdfmark {pgfid893}{26981785}{47666621}
\pgfsyspdfmark {pgfid894}{27400488}{47666621}
\pgfsyspdfmark {pgfid895}{26654104}{47430689}
\pgfsyspdfmark {pgfid896}{27163829}{46880189}
\pgfsyspdfmark {pgfid897}{27491510}{46880189}
\pgfsyspdfmark {pgfid898}{26654104}{46644257}
\pgfsyspdfmark {pgfid899}{26654104}{46644257}
\pgfsyspdfmark {pgfid900}{28146871}{46644257}
\pgfsyspdfmark {pgfid901}{28146871}{46644257}
\pgfsyspdfmark {pgfid902}{28165077}{47240635}
\pgfsyspdfmark {pgfid904}{28165077}{47240635}
\gdef\pointsofq@ii{18}
\gdef\bonuspointsofq@ii{0}
\ExplSyntaxOn 
\char_set_catcode_space:n {32}
\tl_gset:cn {c__nicematrix_98_tl}{\seq_gset_from_clist:Nn \g__nicematrix_size_seq {1,4,4,1,4,4}}
\ExplSyntaxOff 
\ExplSyntaxOn 
\char_set_catcode_space:n {32}
\tl_gset:cn {c__nicematrix_99_tl}{\seq_gset_from_clist:Nn \g__nicematrix_size_seq {1,4,4,1,4,4}}
\ExplSyntaxOff 
\ExplSyntaxOn 
\char_set_catcode_space:n {32}
\tl_gset:cn {c__nicematrix_100_tl}{\seq_gset_from_clist:Nn \g__nicematrix_size_seq {1,4,4,1,4,4}}
\ExplSyntaxOff 
\ExplSyntaxOn 
\char_set_catcode_space:n {32}
\tl_gset:cn {c__nicematrix_101_tl}{\seq_gset_from_clist:Nn \g__nicematrix_size_seq {1,4,4,1,4,4}}
\ExplSyntaxOff 
\ExplSyntaxOn 
\char_set_catcode_space:n {32}
\tl_gset:cn {c__nicematrix_102_tl}{\seq_gset_from_clist:Nn \g__nicematrix_size_seq {1,4,4,1,4,4}}
\ExplSyntaxOff 
\ExplSyntaxOn 
\char_set_catcode_space:n {32}
\tl_gset:cn {c__nicematrix_103_tl}{\seq_gset_from_clist:Nn \g__nicematrix_size_seq {1,4,4,1,4,4}}
\ExplSyntaxOff 
\ExplSyntaxOn 
\char_set_catcode_space:n {32}
\tl_gset:cn {c__nicematrix_104_tl}{\seq_gset_from_clist:Nn \g__nicematrix_size_seq {1,4,4,1,4,4}}
\ExplSyntaxOff 
\ExplSyntaxOn 
\char_set_catcode_space:n {32}
\tl_gset:cn {c__nicematrix_105_tl}{\seq_gset_from_clist:Nn \g__nicematrix_size_seq {1,4,4,1,4,4}}
\ExplSyntaxOff 
\ExplSyntaxOn 
\char_set_catcode_space:n {32}
\tl_gset:cn {c__nicematrix_106_tl}{\seq_gset_from_clist:Nn \g__nicematrix_size_seq {1,4,4,1,4,4}}
\ExplSyntaxOff 
\ExplSyntaxOn 
\char_set_catcode_space:n {32}
\tl_gset:cn {c__nicematrix_107_tl}{\seq_gset_from_clist:Nn \g__nicematrix_size_seq {1,1,1,1,1,1}}
\ExplSyntaxOff 
\gdef\pointsonpage@ii{18}
\ExplSyntaxOn 
\char_set_catcode_space:n {32}
\tl_gset:cn {c__nicematrix_108_tl}{\seq_gset_from_clist:Nn \g__nicematrix_size_seq {1,1,1,1,4,4}}
\ExplSyntaxOff 
\PgInfo{question@3}{3}
\PgInfo{question3@object1}{3}
\newlabel{question@3}{{\textbf  {Problem 3}}{3}{}{}{}}
\pgfsyspdfmark {pgfid1809}{4037504}{45928412}
\pgfsyspdfmark {pgfid1810}{4887672}{45377912}
\pgfsyspdfmark {pgfid1811}{5042410}{45377912}
\pgfsyspdfmark {pgfid1812}{7052221}{45377912}
\pgfsyspdfmark {pgfid1813}{9062032}{45377912}
\pgfsyspdfmark {pgfid1814}{11071843}{45377912}
\pgfsyspdfmark {pgfid1815}{4037504}{45141980}
\pgfsyspdfmark {pgfid1816}{4929520}{44591480}
\pgfsyspdfmark {pgfid1817}{5042410}{44591480}
\pgfsyspdfmark {pgfid1818}{7052221}{44591480}
\pgfsyspdfmark {pgfid1819}{9062032}{44591480}
\pgfsyspdfmark {pgfid1820}{11071843}{44591480}
\pgfsyspdfmark {pgfid1821}{4037504}{44355548}
\pgfsyspdfmark {pgfid1822}{4365185}{43805048}
\pgfsyspdfmark {pgfid1823}{5042410}{43805048}
\pgfsyspdfmark {pgfid1824}{7052221}{43805048}
\pgfsyspdfmark {pgfid1825}{9062032}{43805048}
\pgfsyspdfmark {pgfid1826}{11071843}{43805048}
\pgfsyspdfmark {pgfid1827}{4037504}{43569116}
\pgfsyspdfmark {pgfid1828}{4529025}{43018616}
\pgfsyspdfmark {pgfid1829}{5042410}{43018616}
\pgfsyspdfmark {pgfid1830}{7052221}{43018616}
\pgfsyspdfmark {pgfid1831}{9062032}{43018616}
\pgfsyspdfmark {pgfid1832}{11071843}{43018616}
\pgfsyspdfmark {pgfid1833}{4037504}{42782684}
\pgfsyspdfmark {pgfid1834}{4037504}{42782684}
\pgfsyspdfmark {pgfid1835}{6047315}{42782684}
\pgfsyspdfmark {pgfid1836}{8057126}{42782684}
\pgfsyspdfmark {pgfid1837}{10066937}{42782684}
\pgfsyspdfmark {pgfid1838}{12076748}{42782684}
\pgfsyspdfmark {pgfid1839}{12185976}{44165494}
\pgfsyspdfmark {pgfid1841}{12185976}{44165494}
\pgfsyspdfmark {pgfid1908}{13169010}{47743449}
\pgfsyspdfmark {pgfid1909}{13968434}{46877750}
\pgfsyspdfmark {pgfid1910}{14507422}{46877750}
\pgfsyspdfmark {pgfid1911}{16929382}{46877750}
\pgfsyspdfmark {pgfid1912}{19096479}{46877750}
\pgfsyspdfmark {pgfid1913}{21736892}{46877750}
\pgfsyspdfmark {pgfid1914}{13169010}{45986457}
\pgfsyspdfmark {pgfid1915}{13968434}{45110875}
\pgfsyspdfmark {pgfid1916}{14507422}{45110875}
\pgfsyspdfmark {pgfid1917}{16929382}{45110875}
\pgfsyspdfmark {pgfid1918}{19096479}{45110875}
\pgfsyspdfmark {pgfid1919}{21736892}{45110875}
\pgfsyspdfmark {pgfid1920}{13169010}{44219582}
\pgfsyspdfmark {pgfid1921}{13751554}{43344000}
\pgfsyspdfmark {pgfid1922}{14507422}{43344000}
\pgfsyspdfmark {pgfid1923}{16929382}{43344000}
\pgfsyspdfmark {pgfid1924}{19096479}{43344000}
\pgfsyspdfmark {pgfid1925}{21736892}{43344000}
\pgfsyspdfmark {pgfid1926}{13169010}{42452707}
\pgfsyspdfmark {pgfid1927}{13496691}{41577125}
\pgfsyspdfmark {pgfid1928}{14507422}{41577125}
\pgfsyspdfmark {pgfid1929}{16929382}{41577125}
\pgfsyspdfmark {pgfid1930}{19096479}{41577125}
\pgfsyspdfmark {pgfid1931}{21736892}{41577125}
\pgfsyspdfmark {pgfid1932}{13169010}{40967647}
\pgfsyspdfmark {pgfid1933}{13169010}{40967647}
\pgfsyspdfmark {pgfid1934}{15845833}{40967647}
\pgfsyspdfmark {pgfid1935}{18012930}{40967647}
\pgfsyspdfmark {pgfid1936}{20180027}{40967647}
\pgfsyspdfmark {pgfid1937}{23293756}{40967647}
\pgfsyspdfmark {pgfid1938}{23402984}{44165494}
\pgfsyspdfmark {pgfid1940}{23402984}{44165494}
\pgfsyspdfmark {pgfid1983}{23512212}{45928412}
\pgfsyspdfmark {pgfid1984}{23839893}{45377912}
\pgfsyspdfmark {pgfid1985}{24003733}{45377912}
\pgfsyspdfmark {pgfid1986}{23512212}{45141980}
\pgfsyspdfmark {pgfid1987}{24003733}{44591480}
\pgfsyspdfmark {pgfid1988}{24986774}{44591480}
\pgfsyspdfmark {pgfid1989}{23512212}{44355548}
\pgfsyspdfmark {pgfid1990}{24003733}{43805048}
\pgfsyspdfmark {pgfid1991}{26224678}{43805048}
\pgfsyspdfmark {pgfid1992}{23512212}{43569116}
\pgfsyspdfmark {pgfid1993}{24003733}{43018616}
\pgfsyspdfmark {pgfid1994}{27717445}{43018616}
\pgfsyspdfmark {pgfid1995}{23512212}{42782684}
\pgfsyspdfmark {pgfid1996}{23512212}{42782684}
\pgfsyspdfmark {pgfid1997}{24495253}{42782684}
\pgfsyspdfmark {pgfid1998}{25478294}{42782684}
\pgfsyspdfmark {pgfid1999}{26971061}{42782684}
\pgfsyspdfmark {pgfid2000}{28463828}{42782684}
\pgfsyspdfmark {pgfid2001}{28573056}{44165494}
\pgfsyspdfmark {pgfid2003}{28573056}{44165494}
\pgfsyspdfmark {pgfid2004}{28682284}{47428264}
\pgfsyspdfmark {pgfid2005}{29009965}{43904276}
\pgfsyspdfmark {pgfid2006}{32451609}{43904276}
\pgfsyspdfmark {pgfid2007}{28682284}{41282832}
\pgfsyspdfmark {pgfid2008}{28682284}{41282832}
\pgfsyspdfmark {pgfid2009}{36220933}{41282832}
\pgfsyspdfmark {pgfid2010}{36220933}{41282832}
\pgfsyspdfmark {pgfid2011}{36330161}{44165494}
\pgfsyspdfmark {pgfid2013}{36330161}{44165494}
\PgInfo{part@3@1}{3}
\PgInfo{question3@object2}{3}
\newlabel{part@3@1}{{a}{3}{}{}{}}
\newlabel{firstpoints@onpage@3}{{a}{3}{}{}{}}
\PgInfo{part@3@2}{3}
\PgInfo{question3@object3}{3}
\newlabel{part@3@2}{{b}{3}{}{}{}}
\PgInfo{question3@object4}{3}
\PgInfo{question3@object5}{3}
\PgInfo{question3@object6}{3}
\PgInfo{question3@object7}{3}
\PgInfo{question3@object8}{3}
\PgInfo{question3@object9}{3}
\PgInfo{question3@object10}{3}
\PgInfo{question3@object11}{3}
\PgInfo{part@3@3}{3}
\PgInfo{question3@object12}{3}
\newlabel{part@3@3}{{c}{3}{}{}{}}
\gdef\pointsofq@iii{31}
\gdef\bonuspointsofq@iii{0}
\gdef\pointsonpage@iii{31}
\ExplSyntaxOn 
\char_set_catcode_space:n {32}
\tl_gset:cn {c__nicematrix_109_tl}{\seq_gset_from_clist:Nn \g__nicematrix_size_seq {1,4,4,1,4,4}}
\ExplSyntaxOff 
\ExplSyntaxOn 
\char_set_catcode_space:n {32}
\tl_gset:cn {c__nicematrix_110_tl}{\seq_gset_from_clist:Nn \g__nicematrix_size_seq {1,4,4,1,4,4}}
\ExplSyntaxOff 
\ExplSyntaxOn 
\char_set_catcode_space:n {32}
\tl_gset:cn {c__nicematrix_111_tl}{\seq_gset_from_clist:Nn \g__nicematrix_size_seq {1,4,4,1,4,4}}
\ExplSyntaxOff 
\ExplSyntaxOn 
\char_set_catcode_space:n {32}
\tl_gset:cn {c__nicematrix_112_tl}{\seq_gset_from_clist:Nn \g__nicematrix_size_seq {1,3,3,1,4,4}}
\ExplSyntaxOff 
\ExplSyntaxOn 
\char_set_catcode_space:n {32}
\tl_gset:cn {c__nicematrix_113_tl}{\seq_gset_from_clist:Nn \g__nicematrix_size_seq {1,3,3,1,4,4}}
\ExplSyntaxOff 
\ExplSyntaxOn 
\char_set_catcode_space:n {32}
\tl_gset:cn {c__nicematrix_114_tl}{\seq_gset_from_clist:Nn \g__nicematrix_size_seq {1,3,3,1,4,4}}
\ExplSyntaxOff 
\ExplSyntaxOn 
\char_set_catcode_space:n {32}
\tl_gset:cn {c__nicematrix_115_tl}{\seq_gset_from_clist:Nn \g__nicematrix_size_seq {1,4,4,1,4,4}}
\ExplSyntaxOff 
\ExplSyntaxOn 
\char_set_catcode_space:n {32}
\tl_gset:cn {c__nicematrix_116_tl}{\seq_gset_from_clist:Nn \g__nicematrix_size_seq {1,4,4,1,4,4}}
\ExplSyntaxOff 
\ExplSyntaxOn 
\char_set_catcode_space:n {32}
\tl_gset:cn {c__nicematrix_117_tl}{\seq_gset_from_clist:Nn \g__nicematrix_size_seq {1,4,4,1,4,4}}
\ExplSyntaxOff 
\ExplSyntaxOn 
\char_set_catcode_space:n {32}
\tl_gset:cn {c__nicematrix_118_tl}{\seq_gset_from_clist:Nn \g__nicematrix_size_seq {1,4,4,1,3,3}}
\ExplSyntaxOff 
\ExplSyntaxOn 
\char_set_catcode_space:n {32}
\tl_gset:cn {c__nicematrix_119_tl}{\seq_gset_from_clist:Nn \g__nicematrix_size_seq {1,4,4,1,3,3}}
\ExplSyntaxOff 
\ExplSyntaxOn 
\char_set_catcode_space:n {32}
\tl_gset:cn {c__nicematrix_120_tl}{\seq_gset_from_clist:Nn \g__nicematrix_size_seq {1,4,4,1,3,3}}
\ExplSyntaxOff 
\ExplSyntaxOn 
\char_set_catcode_space:n {32}
\tl_gset:cn {c__nicematrix_121_tl}{\seq_gset_from_clist:Nn \g__nicematrix_size_seq {1,4,4,1,4,4}}
\ExplSyntaxOff 
\ExplSyntaxOn 
\char_set_catcode_space:n {32}
\tl_gset:cn {c__nicematrix_122_tl}{\seq_gset_from_clist:Nn \g__nicematrix_size_seq {1,4,4,1,4,4}}
\ExplSyntaxOff 
\ExplSyntaxOn 
\char_set_catcode_space:n {32}
\tl_gset:cn {c__nicematrix_123_tl}{\seq_gset_from_clist:Nn \g__nicematrix_size_seq {1,4,4,1,4,4}}
\ExplSyntaxOff 
\ExplSyntaxOn 
\char_set_catcode_space:n {32}
\tl_gset:cn {c__nicematrix_124_tl}{\seq_gset_from_clist:Nn \g__nicematrix_size_seq {1,4,4,1,1,1}}
\ExplSyntaxOff 
\gdef\pointsofq@iv{24}
\gdef\bonuspointsofq@iv{0}
\PgInfo{question@4}{4}
\PgInfo{question4@object1}{4}
\newlabel{question@4}{{\textbf  {Problem 4}}{4}{}{}{}}
\PgInfo{part@4@1}{4}
\PgInfo{question4@object2}{4}
\newlabel{part@4@1}{{a}{4}{}{}{}}
\newlabel{firstpoints@onpage@4}{{a}{4}{}{}{}}
\PgInfo{question4@object3}{4}
\PgInfo{question4@object4}{4}
\PgInfo{question4@object5}{4}
\PgInfo{question4@object6}{4}
\PgInfo{question4@object7}{4}
\PgInfo{part@4@2}{4}
\PgInfo{question4@object8}{4}
\newlabel{part@4@2}{{b}{4}{}{}{}}
\PgInfo{question4@object9}{4}
\PgInfo{question4@object10}{4}
\PgInfo{question4@object11}{4}
\PgInfo{question4@object12}{4}
\PgInfo{question4@object13}{4}
\PgInfo{part@4@3}{4}
\PgInfo{question4@object14}{4}
\newlabel{part@4@3}{{c}{4}{}{}{}}
\PgInfo{part@4@4}{4}
\PgInfo{question4@object15}{4}
\newlabel{part@4@4}{{d}{4}{}{}{}}
\gdef\exam@lastpage{4}
\gdef\exam@lastcoverpage{1}
\gdef\exam@totalpages{5}
\gdef\exam@numpoints{100}
\gdef\exam@numbonuspoints{0}
\gdef\exam@numquestions{4}
\gdef\exam@numparts{11}
\gdef\exam@numsubparts{0}
\gdef\exam@numsubsubparts{0}
\gdef\pointsonpage@iv{24}
\gdef\lastpage@withpoints{4}
\gdef\lastpage@withbonuspoints{0}
\gdef \@abspage@last{5}
